Standalone_Perceptron/sim.vcd
$version Generated by VerilatedVcd $end
$timescale 1ps $end
 $scope module $rootio $end
 $upscope $end
 $scope module FixedPoint $end
  $var wire 32 B frac_bits [31:0] $end
 $upscope $end
 $scope module BenchPerceptronIntroduction $end
  $var wire 32 @ input_units [31:0] $end
  $var wire 1 9 clk $end
  $var wire 1 # rst $end
  $var wire 64 $ values[0] [63:0] $end
  $var wire 64 & values[1] [63:0] $end
  $var wire 1 ( training $end
  $var wire 64 ) learning_rate [63:0] $end
  $var wire 64 : prediction [63:0] $end
  $var wire 64 + expected [63:0] $end
  $var wire 32 - correct [31:0] $end
  $var wire 64 . ONE [63:0] $end
  $scope module perceptron_i $end
   $var wire 32 @ input_units [31:0] $end
   $var wire 1 9 clk $end
   $var wire 1 # rst $end
   $var wire 64 $ values[0] [63:0] $end
   $var wire 64 & values[1] [63:0] $end
   $var wire 1 ( training $end
   $var wire 64 ) learning_rate [63:0] $end
   $var wire 64 + expected [63:0] $end
   $var wire 64 : prediction [63:0] $end
   $var wire 64 1 weights[0] [63:0] $end
   $var wire 64 3 weights[1] [63:0] $end
   $var wire 64 5 bias [63:0] $end
   $var wire 64 < sum [63:0] $end
   $var wire 64 > error [63:0] $end
   $scope module unnamedblk1 $end
    $var wire 32 A i [31:0] $end
   $upscope $end
   $scope module unnamedblk2 $end
    $var wire 32 7 i [31:0] $end
   $upscope $end
   $scope module unnamedblk3 $end
    $var wire 32 8 i [31:0] $end
   $upscope $end
  $upscope $end
  $scope module unnamedblk1 $end
   $var wire 32 0 epoch [31:0] $end
  $upscope $end
 $upscope $end
$enddefinitions $end


#0
1#
b0000000000000000000000000000000000000000000000000000000000000000 $
b0000000000000000000000000000000000000000000000000000000000000000 &
1(
b0000000000000000000000000000000100000000000000000000000000000000 )
b0000000000000000000000000000000000000000000000000000000000000000 +
b00000000000000000000000000000000 -
b0000000000000000000000000000000100000000000000000000000000000000 .
b00000000000000000000000000000000 0
b0000000000000000000000000000000000000000000000000000000000000000 1
b0000000000000000000000000000000000000000000000000000000000000000 3
b0000000000000000000000000000000000000000000000000000000000000000 5
b00000000000000000000000000000000 7
b00000000000000000000000000000000 8
09
b0000000000000000000000000000000000000000000000000000000000000000 :
b0000000000000000000000000000000000000000000000000000000000000000 <
b0000000000000000000000000000000000000000000000000000000000000000 >
b00000000000000000000000000000010 @
b00000000000000000000000000000010 A
b00000000000000000000000000100000 B
#5
b00000000000000000000000000000010 7
19
#10
09
#15
19
#20
09
#25
0#
b00000000000000000000000000000010 8
19
#30
09
#35
b0000000000000000000000000000000100000000000000000000000000000000 &
19
#40
09
#45
b0000000000000000000000000000000100000000000000000000000000000000 $
b0000000000000000000000000000000000000000000000000000000000000000 &
19
#50
09
#55
b0000000000000000000000000000000100000000000000000000000000000000 &
b0000000000000000000000000000000100000000000000000000000000000000 +
b0000000000000000000000000000000100000000000000000000000000000000 1
b0000000000000000000000000000000100000000000000000000000000000000 3
b0000000000000000000000000000000100000000000000000000000000000000 5
19
b0000000000000000000000000000000100000000000000000000000000000000 :
b0000000000000000000000000000001100000000000000000000000000000000 <
#60
09
#65
b0000000000000000000000000000000000000000000000000000000000000000 $
b0000000000000000000000000000000000000000000000000000000000000000 &
0(
b0000000000000000000000000000000000000000000000000000000000000000 +
19
b0000000000000000000000000000000100000000000000000000000000000000 <
b1111111111111111111111111111111100000000000000000000000000000000 >
#70
09
#75
b0000000000000000000000000000000100000000000000000000000000000000 &
19
b0000000000000000000000000000001000000000000000000000000000000000 <
#80
09
#85
b0000000000000000000000000000000100000000000000000000000000000000 $
b0000000000000000000000000000000000000000000000000000000000000000 &
19
#90
09
#95
b0000000000000000000000000000000100000000000000000000000000000000 &
b0000000000000000000000000000000100000000000000000000000000000000 +
19
b0000000000000000000000000000001100000000000000000000000000000000 <
b0000000000000000000000000000000000000000000000000000000000000000 >
#100
09
#105
b0000000000000000000000000000000000000000000000000000000000000000 $
b0000000000000000000000000000000000000000000000000000000000000000 &
1(
b0000000000000000000000000000000000000000000000000000000000000000 +
b00000000000000000000000000000001 0
b0000000000000000000000000000000000000000000000000000000000000000 5
19
b0000000000000000000000000000000000000000000000000000000000000000 :
b0000000000000000000000000000000000000000000000000000000000000000 <
#110
09
#115
b0000000000000000000000000000000100000000000000000000000000000000 &
b0000000000000000000000000000000000000000000000000000000000000000 3
b1111111111111111111111111111111100000000000000000000000000000000 5
19
b1111111111111111111111111111111100000000000000000000000000000000 <
#120
09
#125
b0000000000000000000000000000000100000000000000000000000000000000 $
b0000000000000000000000000000000000000000000000000000000000000000 &
19
b0000000000000000000000000000000000000000000000000000000000000000 <
#130
09
#135
b0000000000000000000000000000000100000000000000000000000000000000 &
b0000000000000000000000000000000100000000000000000000000000000000 +
b0000000000000000000000000000001000000000000000000000000000000000 1
b0000000000000000000000000000000100000000000000000000000000000000 3
b0000000000000000000000000000000000000000000000000000000000000000 5
19
b0000000000000000000000000000000100000000000000000000000000000000 :
b0000000000000000000000000000001100000000000000000000000000000000 <
#140
09
#145
b0000000000000000000000000000000000000000000000000000000000000000 $
b0000000000000000000000000000000000000000000000000000000000000000 &
0(
b0000000000000000000000000000000000000000000000000000000000000000 +
19
b0000000000000000000000000000000000000000000000000000000000000000 :
b0000000000000000000000000000000000000000000000000000000000000000 <
#150
09
#155
b0000000000000000000000000000000100000000000000000000000000000000 &
19
b0000000000000000000000000000000100000000000000000000000000000000 :
b0000000000000000000000000000000100000000000000000000000000000000 <
b1111111111111111111111111111111100000000000000000000000000000000 >
#160
09
#165
b0000000000000000000000000000000100000000000000000000000000000000 $
b0000000000000000000000000000000000000000000000000000000000000000 &
19
b0000000000000000000000000000001000000000000000000000000000000000 <
#170
09
#175
b0000000000000000000000000000000100000000000000000000000000000000 &
b0000000000000000000000000000000100000000000000000000000000000000 +
19
b0000000000000000000000000000001100000000000000000000000000000000 <
b0000000000000000000000000000000000000000000000000000000000000000 >
#180
09
#185
b0000000000000000000000000000000000000000000000000000000000000000 $
b0000000000000000000000000000000000000000000000000000000000000000 &
1(
b0000000000000000000000000000000000000000000000000000000000000000 +
b00000000000000000000000000000010 0
19
b0000000000000000000000000000000000000000000000000000000000000000 :
b0000000000000000000000000000000000000000000000000000000000000000 <
#190
09
#195
b0000000000000000000000000000000100000000000000000000000000000000 &
b0000000000000000000000000000000000000000000000000000000000000000 3
b1111111111111111111111111111111100000000000000000000000000000000 5
19
b1111111111111111111111111111111100000000000000000000000000000000 <
#200
09
#205
b0000000000000000000000000000000100000000000000000000000000000000 $
b0000000000000000000000000000000000000000000000000000000000000000 &
b0000000000000000000000000000000100000000000000000000000000000000 1
b1111111111111111111111111111111000000000000000000000000000000000 5
19
#210
09
#215
b0000000000000000000000000000000100000000000000000000000000000000 &
b0000000000000000000000000000000100000000000000000000000000000000 +
b0000000000000000000000000000001000000000000000000000000000000000 1
b0000000000000000000000000000000100000000000000000000000000000000 3
b1111111111111111111111111111111100000000000000000000000000000000 5
19
b0000000000000000000000000000000100000000000000000000000000000000 :
b0000000000000000000000000000001000000000000000000000000000000000 <
#220
09
#225
b0000000000000000000000000000000000000000000000000000000000000000 $
b0000000000000000000000000000000000000000000000000000000000000000 &
0(
b0000000000000000000000000000000000000000000000000000000000000000 +
19
b0000000000000000000000000000000000000000000000000000000000000000 :
b1111111111111111111111111111111100000000000000000000000000000000 <
#230
09
#235
b0000000000000000000000000000000100000000000000000000000000000000 &
19
b0000000000000000000000000000000000000000000000000000000000000000 <
#240
09
#245
b0000000000000000000000000000000100000000000000000000000000000000 $
b0000000000000000000000000000000000000000000000000000000000000000 &
19
b0000000000000000000000000000000100000000000000000000000000000000 :
b0000000000000000000000000000000100000000000000000000000000000000 <
b1111111111111111111111111111111100000000000000000000000000000000 >
#250
09
#255
b0000000000000000000000000000000100000000000000000000000000000000 &
b0000000000000000000000000000000100000000000000000000000000000000 +
19
b0000000000000000000000000000001000000000000000000000000000000000 <
b0000000000000000000000000000000000000000000000000000000000000000 >
#260
09
#265
b0000000000000000000000000000000000000000000000000000000000000000 $
b0000000000000000000000000000000000000000000000000000000000000000 &
1(
b0000000000000000000000000000000000000000000000000000000000000000 +
b00000000000000000000000000000011 0
19
b0000000000000000000000000000000000000000000000000000000000000000 :
b1111111111111111111111111111111100000000000000000000000000000000 <
#270
09
#275
b0000000000000000000000000000000100000000000000000000000000000000 &
19
b0000000000000000000000000000000000000000000000000000000000000000 <
#280
09
#285
b0000000000000000000000000000000100000000000000000000000000000000 $
b0000000000000000000000000000000000000000000000000000000000000000 &
b0000000000000000000000000000000100000000000000000000000000000000 1
b1111111111111111111111111111111000000000000000000000000000000000 5
19
b1111111111111111111111111111111100000000000000000000000000000000 <
#290
09
#295
b0000000000000000000000000000000100000000000000000000000000000000 &
b0000000000000000000000000000000100000000000000000000000000000000 +
b0000000000000000000000000000001000000000000000000000000000000000 1
b0000000000000000000000000000001000000000000000000000000000000000 3
b1111111111111111111111111111111100000000000000000000000000000000 5
19
b0000000000000000000000000000000100000000000000000000000000000000 :
b0000000000000000000000000000001100000000000000000000000000000000 <
#300
09
#305
b0000000000000000000000000000000000000000000000000000000000000000 $
b0000000000000000000000000000000000000000000000000000000000000000 &
0(
b0000000000000000000000000000000000000000000000000000000000000000 +
19
b0000000000000000000000000000000000000000000000000000000000000000 :
b1111111111111111111111111111111100000000000000000000000000000000 <
#310
09
#315
b0000000000000000000000000000000100000000000000000000000000000000 &
19
b0000000000000000000000000000000100000000000000000000000000000000 :
b0000000000000000000000000000000100000000000000000000000000000000 <
b1111111111111111111111111111111100000000000000000000000000000000 >
#320
09
#325
b0000000000000000000000000000000100000000000000000000000000000000 $
b0000000000000000000000000000000000000000000000000000000000000000 &
19
#330
09
#335
b0000000000000000000000000000000100000000000000000000000000000000 &
b0000000000000000000000000000000100000000000000000000000000000000 +
19
b0000000000000000000000000000001100000000000000000000000000000000 <
b0000000000000000000000000000000000000000000000000000000000000000 >
#340
09
#345
b0000000000000000000000000000000000000000000000000000000000000000 $
b0000000000000000000000000000000000000000000000000000000000000000 &
1(
b0000000000000000000000000000000000000000000000000000000000000000 +
b00000000000000000000000000000100 0
19
b0000000000000000000000000000000000000000000000000000000000000000 :
b1111111111111111111111111111111100000000000000000000000000000000 <
#350
09
#355
b0000000000000000000000000000000100000000000000000000000000000000 &
b0000000000000000000000000000000100000000000000000000000000000000 3
b1111111111111111111111111111111000000000000000000000000000000000 5
19
#360
09
#365
b0000000000000000000000000000000100000000000000000000000000000000 $
b0000000000000000000000000000000000000000000000000000000000000000 &
19
b0000000000000000000000000000000000000000000000000000000000000000 <
#370
09
#375
b0000000000000000000000000000000100000000000000000000000000000000 &
b0000000000000000000000000000000100000000000000000000000000000000 +
19
b0000000000000000000000000000000100000000000000000000000000000000 :
b0000000000000000000000000000000100000000000000000000000000000000 <
#380
09
#385
b0000000000000000000000000000000000000000000000000000000000000000 $
b0000000000000000000000000000000000000000000000000000000000000000 &
0(
b0000000000000000000000000000000000000000000000000000000000000000 +
19
b0000000000000000000000000000000000000000000000000000000000000000 :
b1111111111111111111111111111111000000000000000000000000000000000 <
#390
09
#395
b0000000000000000000000000000000100000000000000000000000000000000 &
19
b1111111111111111111111111111111100000000000000000000000000000000 <
#400
09
#405
b0000000000000000000000000000000100000000000000000000000000000000 $
b0000000000000000000000000000000000000000000000000000000000000000 &
19
b0000000000000000000000000000000000000000000000000000000000000000 <
#410
09
#415
b0000000000000000000000000000000100000000000000000000000000000000 &
b0000000000000000000000000000000100000000000000000000000000000000 +
19
b0000000000000000000000000000000100000000000000000000000000000000 :
b0000000000000000000000000000000100000000000000000000000000000000 <
#420
09
#425
b0000000000000000000000000000000000000000000000000000000000000000 $
b0000000000000000000000000000000000000000000000000000000000000000 &
1(
b0000000000000000000000000000000000000000000000000000000000000000 +
b00000000000000000000000000000101 0
19
b0000000000000000000000000000000000000000000000000000000000000000 :
b1111111111111111111111111111111000000000000000000000000000000000 <
#430
09
#435
b0000000000000000000000000000000100000000000000000000000000000000 &
19
b1111111111111111111111111111111100000000000000000000000000000000 <
#440
09
#445
b0000000000000000000000000000000100000000000000000000000000000000 $
b0000000000000000000000000000000000000000000000000000000000000000 &
19
b0000000000000000000000000000000000000000000000000000000000000000 <
#450
09
#455
b0000000000000000000000000000000100000000000000000000000000000000 &
b0000000000000000000000000000000100000000000000000000000000000000 +
19
b0000000000000000000000000000000100000000000000000000000000000000 :
b0000000000000000000000000000000100000000000000000000000000000000 <
#460
09
#465
b0000000000000000000000000000000000000000000000000000000000000000 $
b0000000000000000000000000000000000000000000000000000000000000000 &
0(
b0000000000000000000000000000000000000000000000000000000000000000 +
19
b0000000000000000000000000000000000000000000000000000000000000000 :
b1111111111111111111111111111111000000000000000000000000000000000 <
#470
09
#475
b0000000000000000000000000000000100000000000000000000000000000000 &
19
b1111111111111111111111111111111100000000000000000000000000000000 <
#480
09
#485
b0000000000000000000000000000000100000000000000000000000000000000 $
b0000000000000000000000000000000000000000000000000000000000000000 &
19
b0000000000000000000000000000000000000000000000000000000000000000 <
#490
09
#495
b0000000000000000000000000000000100000000000000000000000000000000 &
b0000000000000000000000000000000100000000000000000000000000000000 +
19
b0000000000000000000000000000000100000000000000000000000000000000 :
b0000000000000000000000000000000100000000000000000000000000000000 <
#500
09
#505
b0000000000000000000000000000000000000000000000000000000000000000 $
b0000000000000000000000000000000000000000000000000000000000000000 &
1(
b0000000000000000000000000000000000000000000000000000000000000000 +
b00000000000000000000000000000110 0
19
b0000000000000000000000000000000000000000000000000000000000000000 :
b1111111111111111111111111111111000000000000000000000000000000000 <
#510
09
#515
b0000000000000000000000000000000100000000000000000000000000000000 &
19
b1111111111111111111111111111111100000000000000000000000000000000 <
#520
09
#525
b0000000000000000000000000000000100000000000000000000000000000000 $
b0000000000000000000000000000000000000000000000000000000000000000 &
19
b0000000000000000000000000000000000000000000000000000000000000000 <
#530
09
#535
b0000000000000000000000000000000100000000000000000000000000000000 &
b0000000000000000000000000000000100000000000000000000000000000000 +
19
b0000000000000000000000000000000100000000000000000000000000000000 :
b0000000000000000000000000000000100000000000000000000000000000000 <
#540
09
#545
b0000000000000000000000000000000000000000000000000000000000000000 $
b0000000000000000000000000000000000000000000000000000000000000000 &
0(
b0000000000000000000000000000000000000000000000000000000000000000 +
19
b0000000000000000000000000000000000000000000000000000000000000000 :
b1111111111111111111111111111111000000000000000000000000000000000 <
#550
09
#555
b0000000000000000000000000000000100000000000000000000000000000000 &
19
b1111111111111111111111111111111100000000000000000000000000000000 <
#560
09
#565
b0000000000000000000000000000000100000000000000000000000000000000 $
b0000000000000000000000000000000000000000000000000000000000000000 &
19
b0000000000000000000000000000000000000000000000000000000000000000 <
#570
09
#575
b0000000000000000000000000000000100000000000000000000000000000000 &
b0000000000000000000000000000000100000000000000000000000000000000 +
19
b0000000000000000000000000000000100000000000000000000000000000000 :
b0000000000000000000000000000000100000000000000000000000000000000 <
#580
09
#585
b0000000000000000000000000000000000000000000000000000000000000000 $
b0000000000000000000000000000000000000000000000000000000000000000 &
1(
b0000000000000000000000000000000000000000000000000000000000000000 +
b00000000000000000000000000000111 0
19
b0000000000000000000000000000000000000000000000000000000000000000 :
b1111111111111111111111111111111000000000000000000000000000000000 <
#590
09
#595
b0000000000000000000000000000000100000000000000000000000000000000 &
19
b1111111111111111111111111111111100000000000000000000000000000000 <
#600
09
#605
b0000000000000000000000000000000100000000000000000000000000000000 $
b0000000000000000000000000000000000000000000000000000000000000000 &
19
b0000000000000000000000000000000000000000000000000000000000000000 <
#610
09
#615
b0000000000000000000000000000000100000000000000000000000000000000 &
b0000000000000000000000000000000100000000000000000000000000000000 +
19
b0000000000000000000000000000000100000000000000000000000000000000 :
b0000000000000000000000000000000100000000000000000000000000000000 <
#620
09
#625
b0000000000000000000000000000000000000000000000000000000000000000 $
b0000000000000000000000000000000000000000000000000000000000000000 &
0(
b0000000000000000000000000000000000000000000000000000000000000000 +
19
b0000000000000000000000000000000000000000000000000000000000000000 :
b1111111111111111111111111111111000000000000000000000000000000000 <
#630
09
#635
b0000000000000000000000000000000100000000000000000000000000000000 &
19
b1111111111111111111111111111111100000000000000000000000000000000 <
#640
09
#645
b0000000000000000000000000000000100000000000000000000000000000000 $
b0000000000000000000000000000000000000000000000000000000000000000 &
19
b0000000000000000000000000000000000000000000000000000000000000000 <
#650
09
#655
b0000000000000000000000000000000100000000000000000000000000000000 &
b0000000000000000000000000000000100000000000000000000000000000000 +
19
b0000000000000000000000000000000100000000000000000000000000000000 :
b0000000000000000000000000000000100000000000000000000000000000000 <
#660
09
#665
b0000000000000000000000000000000000000000000000000000000000000000 $
b0000000000000000000000000000000000000000000000000000000000000000 &
1(
b0000000000000000000000000000000000000000000000000000000000000000 +
b00000000000000000000000000001000 0
19
b0000000000000000000000000000000000000000000000000000000000000000 :
b1111111111111111111111111111111000000000000000000000000000000000 <
#670
09
#675
b0000000000000000000000000000000100000000000000000000000000000000 &
19
b1111111111111111111111111111111100000000000000000000000000000000 <
#680
09
#685
b0000000000000000000000000000000100000000000000000000000000000000 $
b0000000000000000000000000000000000000000000000000000000000000000 &
19
b0000000000000000000000000000000000000000000000000000000000000000 <
#690
09
#695
b0000000000000000000000000000000100000000000000000000000000000000 &
b0000000000000000000000000000000100000000000000000000000000000000 +
19
b0000000000000000000000000000000100000000000000000000000000000000 :
b0000000000000000000000000000000100000000000000000000000000000000 <
#700
09
#705
b0000000000000000000000000000000000000000000000000000000000000000 $
b0000000000000000000000000000000000000000000000000000000000000000 &
0(
b0000000000000000000000000000000000000000000000000000000000000000 +
19
b0000000000000000000000000000000000000000000000000000000000000000 :
b1111111111111111111111111111111000000000000000000000000000000000 <
#710
09
#715
b0000000000000000000000000000000100000000000000000000000000000000 &
19
b1111111111111111111111111111111100000000000000000000000000000000 <
#720
09
#725
b0000000000000000000000000000000100000000000000000000000000000000 $
b0000000000000000000000000000000000000000000000000000000000000000 &
19
b0000000000000000000000000000000000000000000000000000000000000000 <
#730
09
#735
b0000000000000000000000000000000100000000000000000000000000000000 &
b0000000000000000000000000000000100000000000000000000000000000000 +
19
b0000000000000000000000000000000100000000000000000000000000000000 :
b0000000000000000000000000000000100000000000000000000000000000000 <
#740
09
#745
b0000000000000000000000000000000000000000000000000000000000000000 $
b0000000000000000000000000000000000000000000000000000000000000000 &
1(
b0000000000000000000000000000000000000000000000000000000000000000 +
b00000000000000000000000000001001 0
19
b0000000000000000000000000000000000000000000000000000000000000000 :
b1111111111111111111111111111111000000000000000000000000000000000 <
#750
09
#755
b0000000000000000000000000000000100000000000000000000000000000000 &
19
b1111111111111111111111111111111100000000000000000000000000000000 <
#760
09
#765
b0000000000000000000000000000000100000000000000000000000000000000 $
b0000000000000000000000000000000000000000000000000000000000000000 &
19
b0000000000000000000000000000000000000000000000000000000000000000 <
#770
09
#775
b0000000000000000000000000000000100000000000000000000000000000000 &
b0000000000000000000000000000000100000000000000000000000000000000 +
19
b0000000000000000000000000000000100000000000000000000000000000000 :
b0000000000000000000000000000000100000000000000000000000000000000 <
#780
09
#785
b0000000000000000000000000000000000000000000000000000000000000000 $
b0000000000000000000000000000000000000000000000000000000000000000 &
0(
b0000000000000000000000000000000000000000000000000000000000000000 +
19
b0000000000000000000000000000000000000000000000000000000000000000 :
b1111111111111111111111111111111000000000000000000000000000000000 <
#790
09
#795
b0000000000000000000000000000000100000000000000000000000000000000 &
19
b1111111111111111111111111111111100000000000000000000000000000000 <
#800
09
#805
b0000000000000000000000000000000100000000000000000000000000000000 $
b0000000000000000000000000000000000000000000000000000000000000000 &
19
b0000000000000000000000000000000000000000000000000000000000000000 <
#810
09
#815
b0000000000000000000000000000000100000000000000000000000000000000 &
b0000000000000000000000000000000100000000000000000000000000000000 +
19
b0000000000000000000000000000000100000000000000000000000000000000 :
b0000000000000000000000000000000100000000000000000000000000000000 <
#820
09
#825
b0000000000000000000000000000000000000000000000000000000000000000 $
b0000000000000000000000000000000000000000000000000000000000000000 &
b0000000000000000000000000000000000000000000000000000000000000000 +
b00000000000000000000000000001010 0
19
b0000000000000000000000000000000000000000000000000000000000000000 :
b1111111111111111111111111111111000000000000000000000000000000000 <
#830
09
#835
b0000000000000000000000000000000100000000000000000000000000000000 &
b00000000000000000000000000000001 -
19
b1111111111111111111111111111111100000000000000000000000000000000 <
#840
09
#845
b0000000000000000000000000000000100000000000000000000000000000000 $
b0000000000000000000000000000000000000000000000000000000000000000 &
b00000000000000000000000000000010 -
19
b0000000000000000000000000000000000000000000000000000000000000000 <
#850
09
#855
b0000000000000000000000000000000100000000000000000000000000000000 &
b0000000000000000000000000000000100000000000000000000000000000000 +
b00000000000000000000000000000011 -
19
b0000000000000000000000000000000100000000000000000000000000000000 :
b0000000000000000000000000000000100000000000000000000000000000000 <
#860
09
#865
b00000000000000000000000000000100 -
19
