Standalone_Perceptron/sim.vcd
$version Generated by VerilatedVcd $end
$timescale 1ps $end
 $scope module $rootio $end
 $upscope $end
 $scope module FixedPoint $end
  $var wire 32 =! frac_bits [31:0] $end
  $var wire 64 # ONE [63:0] $end
 $upscope $end
 $scope module BenchPerceptronIntroduction $end
  $var wire 32 8! input_units [31:0] $end
  $var wire 32 9! num_train_examples [31:0] $end
  $var wire 32 9! num_test_examples [31:0] $end
  $var wire 1 7! clk $end
  $var wire 1 w rst $end
  $var wire 64 %! values[0] [63:0] $end
  $var wire 64 '! values[1] [63:0] $end
  $var wire 1 x training $end
  $var wire 64 y learning_rate [63:0] $end
  $var wire 64 )! prediction [63:0] $end
  $var wire 64 { expected [63:0] $end
  $var wire 32 } example [31:0] $end
  $var wire 32 ~ correct [31:0] $end
  $scope module data $end
   $var wire 32 8! inputs [31:0] $end
   $var wire 32 :! outputs [31:0] $end
   $var wire 32 ;! total_examples [31:0] $end
   $var wire 32 } example [31:0] $end
   $var wire 64 %! values[0] [63:0] $end
   $var wire 64 '! values[1] [63:0] $end
   $var wire 64 { expected [63:0] $end
   $var wire 64 % input_data[0][0] [63:0] $end
   $var wire 64 ' input_data[0][1] [63:0] $end
   $var wire 64 ) input_data[1][0] [63:0] $end
   $var wire 64 + input_data[1][1] [63:0] $end
   $var wire 64 - input_data[2][0] [63:0] $end
   $var wire 64 / input_data[2][1] [63:0] $end
   $var wire 64 1 input_data[3][0] [63:0] $end
   $var wire 64 3 input_data[3][1] [63:0] $end
   $var wire 64 5 input_data[4][0] [63:0] $end
   $var wire 64 7 input_data[4][1] [63:0] $end
   $var wire 64 9 input_data[5][0] [63:0] $end
   $var wire 64 ; input_data[5][1] [63:0] $end
   $var wire 64 = input_data[6][0] [63:0] $end
   $var wire 64 ? input_data[6][1] [63:0] $end
   $var wire 64 A input_data[7][0] [63:0] $end
   $var wire 64 C input_data[7][1] [63:0] $end
   $var wire 64 E output_data[0] [63:0] $end
   $var wire 64 G output_data[1] [63:0] $end
   $var wire 64 I output_data[2] [63:0] $end
   $var wire 64 K output_data[3] [63:0] $end
   $var wire 64 M output_data[4] [63:0] $end
   $var wire 64 O output_data[5] [63:0] $end
   $var wire 64 Q output_data[6] [63:0] $end
   $var wire 64 S output_data[7] [63:0] $end
   $var wire 64 U flat_input_data[0] [63:0] $end
   $var wire 64 W flat_input_data[1] [63:0] $end
   $var wire 64 Y flat_input_data[2] [63:0] $end
   $var wire 64 [ flat_input_data[3] [63:0] $end
   $var wire 64 ] flat_input_data[4] [63:0] $end
   $var wire 64 _ flat_input_data[5] [63:0] $end
   $var wire 64 a flat_input_data[6] [63:0] $end
   $var wire 64 c flat_input_data[7] [63:0] $end
   $var wire 64 e flat_input_data[8] [63:0] $end
   $var wire 64 g flat_input_data[9] [63:0] $end
   $var wire 64 i flat_input_data[10] [63:0] $end
   $var wire 64 k flat_input_data[11] [63:0] $end
   $var wire 64 m flat_input_data[12] [63:0] $end
   $var wire 64 o flat_input_data[13] [63:0] $end
   $var wire 64 q flat_input_data[14] [63:0] $end
   $var wire 64 s flat_input_data[15] [63:0] $end
   $scope module unnamedblk1 $end
    $var wire 32 u i [31:0] $end
    $scope module unnamedblk2 $end
     $var wire 32 v j [31:0] $end
    $upscope $end
   $upscope $end
  $upscope $end
  $scope module perceptron_i $end
   $var wire 32 8! input_units [31:0] $end
   $var wire 1 7! clk $end
   $var wire 1 w rst $end
   $var wire 64 %! values[0] [63:0] $end
   $var wire 64 '! values[1] [63:0] $end
   $var wire 1 x training $end
   $var wire 64 y learning_rate [63:0] $end
   $var wire 64 { expected [63:0] $end
   $var wire 64 )! prediction [63:0] $end
   $var wire 64 /! weights[0] [63:0] $end
   $var wire 64 1! weights[1] [63:0] $end
   $var wire 64 3! bias [63:0] $end
   $var wire 64 +! sum [63:0] $end
   $var wire 64 -! error [63:0] $end
   $scope module unnamedblk1 $end
    $var wire 32 <! i [31:0] $end
   $upscope $end
   $scope module unnamedblk2 $end
    $var wire 32 5! i [31:0] $end
   $upscope $end
   $scope module unnamedblk3 $end
    $var wire 32 6! i [31:0] $end
   $upscope $end
  $upscope $end
  $scope module unnamedblk1 $end
   $var wire 32 !! epoch [31:0] $end
   $scope module unnamedblk2 $end
    $var wire 32 "! i [31:0] $end
   $upscope $end
   $scope module unnamedblk3 $end
    $var wire 32 #! i [31:0] $end
   $upscope $end
  $upscope $end
  $scope module unnamedblk4 $end
   $var wire 32 $! i [31:0] $end
  $upscope $end
 $upscope $end
$enddefinitions $end


#0
b0000000000000000000000000000000100000000000000000000000000000000 #
b0000000000000000000000000000000000000000000000000000000000000000 %
b0000000000000000000000000000000000000000000000000000000000000000 '
b0000000000000000000000000000000000000000000000000000000000000000 )
b0000000000000000000000000000000100000000000000000000000000000000 +
b0000000000000000000000000000000100000000000000000000000000000000 -
b0000000000000000000000000000000000000000000000000000000000000000 /
b0000000000000000000000000000000100000000000000000000000000000000 1
b0000000000000000000000000000000100000000000000000000000000000000 3
b0000000000000000000000000000000000000000000000000000000000000000 5
b0000000000000000000000000000000000000000000000000000000000000000 7
b0000000000000000000000000000000000000000000000000000000000000000 9
b0000000000000000000000000000000000000000000000000000000000000000 ;
b0000000000000000000000000000000000000000000000000000000000000000 =
b0000000000000000000000000000000000000000000000000000000000000000 ?
b0000000000000000000000000000000000000000000000000000000000000000 A
b0000000000000000000000000000000000000000000000000000000000000000 C
b0000000000000000000000000000000000000000000000000000000000000000 E
b0000000000000000000000000000000000000000000000000000000000000000 G
b0000000000000000000000000000000000000000000000000000000000000000 I
b0000000000000000000000000000000100000000000000000000000000000000 K
b0000000000000000000000000000000000000000000000000000000000000000 M
b0000000000000000000000000000000000000000000000000000000000000000 O
b0000000000000000000000000000000000000000000000000000000000000000 Q
b0000000000000000000000000000000000000000000000000000000000000000 S
b0000000000000000000000000000000000000000000000000000000000000000 U
b0000000000000000000000000000000000000000000000000000000000000000 W
b0000000000000000000000000000000000000000000000000000000000000000 Y
b0000000000000000000000000000000100000000000000000000000000000000 [
b0000000000000000000000000000000100000000000000000000000000000000 ]
b0000000000000000000000000000000000000000000000000000000000000000 _
b0000000000000000000000000000000100000000000000000000000000000000 a
b0000000000000000000000000000000100000000000000000000000000000000 c
b0000000000000000000000000000000000000000000000000000000000000000 e
b0000000000000000000000000000000000000000000000000000000000000000 g
b0000000000000000000000000000000000000000000000000000000000000000 i
b0000000000000000000000000000000000000000000000000000000000000000 k
b0000000000000000000000000000000000000000000000000000000000000000 m
b0000000000000000000000000000000000000000000000000000000000000000 o
b0000000000000000000000000000000000000000000000000000000000000000 q
b0000000000000000000000000000000000000000000000000000000000000000 s
b00000000000000000000000000001000 u
b00000000000000000000000000000010 v
1w
1x
b0000000000000000000000000000000100000000000000000000000000000000 y
b0000000000000000000000000000000000000000000000000000000000000000 {
b00000000000000000000000000000000 }
b00000000000000000000000000000000 ~
b00000000000000000000000000000000 !!
b00000000000000000000000000000000 "!
b00000000000000000000000000000000 #!
b00000000000000000000000000000000 $!
b0000000000000000000000000000000000000000000000000000000000000000 %!
b0000000000000000000000000000000000000000000000000000000000000000 '!
b0000000000000000000000000000000000000000000000000000000000000000 )!
b0000000000000000000000000000000000000000000000000000000000000000 +!
b0000000000000000000000000000000000000000000000000000000000000000 -!
b0000000000000000000000000000000000000000000000000000000000000000 /!
b0000000000000000000000000000000000000000000000000000000000000000 1!
b0000000000000000000000000000000000000000000000000000000000000000 3!
b00000000000000000000000000000000 5!
b00000000000000000000000000000000 6!
07!
b00000000000000000000000000000010 8!
b00000000000000000000000000000100 9!
b00000000000000000000000000000001 :!
b00000000000000000000000000001000 ;!
b00000000000000000000000000000010 <!
b00000000000000000000000000100000 =!
#5
b00000000000000000000000000000010 5!
17!
#10
07!
#15
17!
#20
07!
#25
0w
b00000000000000000000000000000010 6!
17!
#30
07!
#35
b00000000000000000000000000000001 }
b00000000000000000000000000000001 "!
b0000000000000000000000000000000100000000000000000000000000000000 '!
17!
#40
07!
#45
b00000000000000000000000000000010 }
b00000000000000000000000000000010 "!
b0000000000000000000000000000000100000000000000000000000000000000 %!
b0000000000000000000000000000000000000000000000000000000000000000 '!
17!
#50
07!
#55
b0000000000000000000000000000000100000000000000000000000000000000 {
b00000000000000000000000000000011 }
b00000000000000000000000000000011 "!
b0000000000000000000000000000000100000000000000000000000000000000 '!
b0000000000000000000000000000000100000000000000000000000000000000 )!
b0000000000000000000000000000001100000000000000000000000000000000 +!
b0000000000000000000000000000000100000000000000000000000000000000 /!
b0000000000000000000000000000000100000000000000000000000000000000 1!
b0000000000000000000000000000000100000000000000000000000000000000 3!
17!
#60
07!
#65
0x
b0000000000000000000000000000000000000000000000000000000000000000 {
b00000000000000000000000000000000 }
b00000000000000000000000000000100 "!
b0000000000000000000000000000000000000000000000000000000000000000 %!
b0000000000000000000000000000000000000000000000000000000000000000 '!
b0000000000000000000000000000000100000000000000000000000000000000 +!
b1111111111111111111111111111111100000000000000000000000000000000 -!
17!
#70
07!
#75
b00000000000000000000000000000001 }
b00000000000000000000000000000001 #!
b0000000000000000000000000000000100000000000000000000000000000000 '!
b0000000000000000000000000000001000000000000000000000000000000000 +!
17!
#80
07!
#85
b00000000000000000000000000000010 }
b00000000000000000000000000000010 #!
b0000000000000000000000000000000100000000000000000000000000000000 %!
b0000000000000000000000000000000000000000000000000000000000000000 '!
17!
#90
07!
#95
b0000000000000000000000000000000100000000000000000000000000000000 {
b00000000000000000000000000000011 }
b00000000000000000000000000000011 #!
b0000000000000000000000000000000100000000000000000000000000000000 '!
b0000000000000000000000000000001100000000000000000000000000000000 +!
b0000000000000000000000000000000000000000000000000000000000000000 -!
17!
#100
07!
#105
1x
b0000000000000000000000000000000000000000000000000000000000000000 {
b00000000000000000000000000000000 }
b00000000000000000000000000000001 !!
b00000000000000000000000000000100 #!
b0000000000000000000000000000000000000000000000000000000000000000 %!
b0000000000000000000000000000000000000000000000000000000000000000 '!
b0000000000000000000000000000000000000000000000000000000000000000 )!
b0000000000000000000000000000000000000000000000000000000000000000 +!
b0000000000000000000000000000000000000000000000000000000000000000 3!
17!
#110
07!
#115
b00000000000000000000000000000001 }
b00000000000000000000000000000001 "!
b0000000000000000000000000000000100000000000000000000000000000000 '!
b1111111111111111111111111111111100000000000000000000000000000000 +!
b0000000000000000000000000000000000000000000000000000000000000000 1!
b1111111111111111111111111111111100000000000000000000000000000000 3!
17!
#120
07!
#125
b00000000000000000000000000000010 }
b00000000000000000000000000000010 "!
b0000000000000000000000000000000100000000000000000000000000000000 %!
b0000000000000000000000000000000000000000000000000000000000000000 '!
b0000000000000000000000000000000000000000000000000000000000000000 +!
17!
#130
07!
#135
b0000000000000000000000000000000100000000000000000000000000000000 {
b00000000000000000000000000000011 }
b00000000000000000000000000000011 "!
b0000000000000000000000000000000100000000000000000000000000000000 '!
b0000000000000000000000000000000100000000000000000000000000000000 )!
b0000000000000000000000000000001100000000000000000000000000000000 +!
b0000000000000000000000000000001000000000000000000000000000000000 /!
b0000000000000000000000000000000100000000000000000000000000000000 1!
b0000000000000000000000000000000000000000000000000000000000000000 3!
17!
#140
07!
#145
0x
b0000000000000000000000000000000000000000000000000000000000000000 {
b00000000000000000000000000000000 }
b00000000000000000000000000000100 "!
b0000000000000000000000000000000000000000000000000000000000000000 %!
b0000000000000000000000000000000000000000000000000000000000000000 '!
b0000000000000000000000000000000000000000000000000000000000000000 )!
b0000000000000000000000000000000000000000000000000000000000000000 +!
17!
#150
07!
#155
b00000000000000000000000000000001 }
b00000000000000000000000000000001 #!
b0000000000000000000000000000000100000000000000000000000000000000 '!
b0000000000000000000000000000000100000000000000000000000000000000 )!
b0000000000000000000000000000000100000000000000000000000000000000 +!
b1111111111111111111111111111111100000000000000000000000000000000 -!
17!
#160
07!
#165
b00000000000000000000000000000010 }
b00000000000000000000000000000010 #!
b0000000000000000000000000000000100000000000000000000000000000000 %!
b0000000000000000000000000000000000000000000000000000000000000000 '!
b0000000000000000000000000000001000000000000000000000000000000000 +!
17!
#170
07!
#175
b0000000000000000000000000000000100000000000000000000000000000000 {
b00000000000000000000000000000011 }
b00000000000000000000000000000011 #!
b0000000000000000000000000000000100000000000000000000000000000000 '!
b0000000000000000000000000000001100000000000000000000000000000000 +!
b0000000000000000000000000000000000000000000000000000000000000000 -!
17!
#180
07!
#185
1x
b0000000000000000000000000000000000000000000000000000000000000000 {
b00000000000000000000000000000000 }
b00000000000000000000000000000010 !!
b00000000000000000000000000000100 #!
b0000000000000000000000000000000000000000000000000000000000000000 %!
b0000000000000000000000000000000000000000000000000000000000000000 '!
b0000000000000000000000000000000000000000000000000000000000000000 )!
b0000000000000000000000000000000000000000000000000000000000000000 +!
17!
#190
07!
#195
b00000000000000000000000000000001 }
b00000000000000000000000000000001 "!
b0000000000000000000000000000000100000000000000000000000000000000 '!
b1111111111111111111111111111111100000000000000000000000000000000 +!
b0000000000000000000000000000000000000000000000000000000000000000 1!
b1111111111111111111111111111111100000000000000000000000000000000 3!
17!
#200
07!
#205
b00000000000000000000000000000010 }
b00000000000000000000000000000010 "!
b0000000000000000000000000000000100000000000000000000000000000000 %!
b0000000000000000000000000000000000000000000000000000000000000000 '!
b0000000000000000000000000000000100000000000000000000000000000000 /!
b1111111111111111111111111111111000000000000000000000000000000000 3!
17!
#210
07!
#215
b0000000000000000000000000000000100000000000000000000000000000000 {
b00000000000000000000000000000011 }
b00000000000000000000000000000011 "!
b0000000000000000000000000000000100000000000000000000000000000000 '!
b0000000000000000000000000000000100000000000000000000000000000000 )!
b0000000000000000000000000000001000000000000000000000000000000000 +!
b0000000000000000000000000000001000000000000000000000000000000000 /!
b0000000000000000000000000000000100000000000000000000000000000000 1!
b1111111111111111111111111111111100000000000000000000000000000000 3!
17!
#220
07!
#225
0x
b0000000000000000000000000000000000000000000000000000000000000000 {
b00000000000000000000000000000000 }
b00000000000000000000000000000100 "!
b0000000000000000000000000000000000000000000000000000000000000000 %!
b0000000000000000000000000000000000000000000000000000000000000000 '!
b0000000000000000000000000000000000000000000000000000000000000000 )!
b1111111111111111111111111111111100000000000000000000000000000000 +!
17!
#230
07!
#235
b00000000000000000000000000000001 }
b00000000000000000000000000000001 #!
b0000000000000000000000000000000100000000000000000000000000000000 '!
b0000000000000000000000000000000000000000000000000000000000000000 +!
17!
#240
07!
#245
b00000000000000000000000000000010 }
b00000000000000000000000000000010 #!
b0000000000000000000000000000000100000000000000000000000000000000 %!
b0000000000000000000000000000000000000000000000000000000000000000 '!
b0000000000000000000000000000000100000000000000000000000000000000 )!
b0000000000000000000000000000000100000000000000000000000000000000 +!
b1111111111111111111111111111111100000000000000000000000000000000 -!
17!
#250
07!
#255
b0000000000000000000000000000000100000000000000000000000000000000 {
b00000000000000000000000000000011 }
b00000000000000000000000000000011 #!
b0000000000000000000000000000000100000000000000000000000000000000 '!
b0000000000000000000000000000001000000000000000000000000000000000 +!
b0000000000000000000000000000000000000000000000000000000000000000 -!
17!
#260
07!
#265
1x
b0000000000000000000000000000000000000000000000000000000000000000 {
b00000000000000000000000000000000 }
b00000000000000000000000000000011 !!
b00000000000000000000000000000100 #!
b0000000000000000000000000000000000000000000000000000000000000000 %!
b0000000000000000000000000000000000000000000000000000000000000000 '!
b0000000000000000000000000000000000000000000000000000000000000000 )!
b1111111111111111111111111111111100000000000000000000000000000000 +!
17!
#270
07!
#275
b00000000000000000000000000000001 }
b00000000000000000000000000000001 "!
b0000000000000000000000000000000100000000000000000000000000000000 '!
b0000000000000000000000000000000000000000000000000000000000000000 +!
17!
#280
07!
#285
b00000000000000000000000000000010 }
b00000000000000000000000000000010 "!
b0000000000000000000000000000000100000000000000000000000000000000 %!
b0000000000000000000000000000000000000000000000000000000000000000 '!
b1111111111111111111111111111111100000000000000000000000000000000 +!
b0000000000000000000000000000000100000000000000000000000000000000 /!
b1111111111111111111111111111111000000000000000000000000000000000 3!
17!
#290
07!
#295
b0000000000000000000000000000000100000000000000000000000000000000 {
b00000000000000000000000000000011 }
b00000000000000000000000000000011 "!
b0000000000000000000000000000000100000000000000000000000000000000 '!
b0000000000000000000000000000000100000000000000000000000000000000 )!
b0000000000000000000000000000001100000000000000000000000000000000 +!
b0000000000000000000000000000001000000000000000000000000000000000 /!
b0000000000000000000000000000001000000000000000000000000000000000 1!
b1111111111111111111111111111111100000000000000000000000000000000 3!
17!
#300
07!
#305
0x
b0000000000000000000000000000000000000000000000000000000000000000 {
b00000000000000000000000000000000 }
b00000000000000000000000000000100 "!
b0000000000000000000000000000000000000000000000000000000000000000 %!
b0000000000000000000000000000000000000000000000000000000000000000 '!
b0000000000000000000000000000000000000000000000000000000000000000 )!
b1111111111111111111111111111111100000000000000000000000000000000 +!
17!
#310
07!
#315
b00000000000000000000000000000001 }
b00000000000000000000000000000001 #!
b0000000000000000000000000000000100000000000000000000000000000000 '!
b0000000000000000000000000000000100000000000000000000000000000000 )!
b0000000000000000000000000000000100000000000000000000000000000000 +!
b1111111111111111111111111111111100000000000000000000000000000000 -!
17!
#320
07!
#325
b00000000000000000000000000000010 }
b00000000000000000000000000000010 #!
b0000000000000000000000000000000100000000000000000000000000000000 %!
b0000000000000000000000000000000000000000000000000000000000000000 '!
17!
#330
07!
#335
b0000000000000000000000000000000100000000000000000000000000000000 {
b00000000000000000000000000000011 }
b00000000000000000000000000000011 #!
b0000000000000000000000000000000100000000000000000000000000000000 '!
b0000000000000000000000000000001100000000000000000000000000000000 +!
b0000000000000000000000000000000000000000000000000000000000000000 -!
17!
#340
07!
#345
1x
b0000000000000000000000000000000000000000000000000000000000000000 {
b00000000000000000000000000000000 }
b00000000000000000000000000000100 !!
b00000000000000000000000000000100 #!
b0000000000000000000000000000000000000000000000000000000000000000 %!
b0000000000000000000000000000000000000000000000000000000000000000 '!
b0000000000000000000000000000000000000000000000000000000000000000 )!
b1111111111111111111111111111111100000000000000000000000000000000 +!
17!
#350
07!
#355
b00000000000000000000000000000001 }
b00000000000000000000000000000001 "!
b0000000000000000000000000000000100000000000000000000000000000000 '!
b0000000000000000000000000000000100000000000000000000000000000000 1!
b1111111111111111111111111111111000000000000000000000000000000000 3!
17!
#360
07!
#365
b00000000000000000000000000000010 }
b00000000000000000000000000000010 "!
b0000000000000000000000000000000100000000000000000000000000000000 %!
b0000000000000000000000000000000000000000000000000000000000000000 '!
b0000000000000000000000000000000000000000000000000000000000000000 +!
17!
#370
07!
#375
b0000000000000000000000000000000100000000000000000000000000000000 {
b00000000000000000000000000000011 }
b00000000000000000000000000000011 "!
b0000000000000000000000000000000100000000000000000000000000000000 '!
b0000000000000000000000000000000100000000000000000000000000000000 )!
b0000000000000000000000000000000100000000000000000000000000000000 +!
17!
#380
07!
#385
0x
b0000000000000000000000000000000000000000000000000000000000000000 {
b00000000000000000000000000000000 }
b00000000000000000000000000000100 "!
b0000000000000000000000000000000000000000000000000000000000000000 %!
b0000000000000000000000000000000000000000000000000000000000000000 '!
b0000000000000000000000000000000000000000000000000000000000000000 )!
b1111111111111111111111111111111000000000000000000000000000000000 +!
17!
#390
07!
#395
b00000000000000000000000000000001 }
b00000000000000000000000000000001 #!
b0000000000000000000000000000000100000000000000000000000000000000 '!
b1111111111111111111111111111111100000000000000000000000000000000 +!
17!
#400
07!
#405
b00000000000000000000000000000010 }
b00000000000000000000000000000010 #!
b0000000000000000000000000000000100000000000000000000000000000000 %!
b0000000000000000000000000000000000000000000000000000000000000000 '!
b0000000000000000000000000000000000000000000000000000000000000000 +!
17!
#410
07!
#415
b0000000000000000000000000000000100000000000000000000000000000000 {
b00000000000000000000000000000011 }
b00000000000000000000000000000011 #!
b0000000000000000000000000000000100000000000000000000000000000000 '!
b0000000000000000000000000000000100000000000000000000000000000000 )!
b0000000000000000000000000000000100000000000000000000000000000000 +!
17!
#420
07!
#425
1x
b0000000000000000000000000000000000000000000000000000000000000000 {
b00000000000000000000000000000000 }
b00000000000000000000000000000101 !!
b00000000000000000000000000000100 #!
b0000000000000000000000000000000000000000000000000000000000000000 %!
b0000000000000000000000000000000000000000000000000000000000000000 '!
b0000000000000000000000000000000000000000000000000000000000000000 )!
b1111111111111111111111111111111000000000000000000000000000000000 +!
17!
#430
07!
#435
b00000000000000000000000000000001 }
b00000000000000000000000000000001 "!
b0000000000000000000000000000000100000000000000000000000000000000 '!
b1111111111111111111111111111111100000000000000000000000000000000 +!
17!
#440
07!
#445
b00000000000000000000000000000010 }
b00000000000000000000000000000010 "!
b0000000000000000000000000000000100000000000000000000000000000000 %!
b0000000000000000000000000000000000000000000000000000000000000000 '!
b0000000000000000000000000000000000000000000000000000000000000000 +!
17!
#450
07!
#455
b0000000000000000000000000000000100000000000000000000000000000000 {
b00000000000000000000000000000011 }
b00000000000000000000000000000011 "!
b0000000000000000000000000000000100000000000000000000000000000000 '!
b0000000000000000000000000000000100000000000000000000000000000000 )!
b0000000000000000000000000000000100000000000000000000000000000000 +!
17!
#460
07!
#465
0x
b0000000000000000000000000000000000000000000000000000000000000000 {
b00000000000000000000000000000000 }
b00000000000000000000000000000100 "!
b0000000000000000000000000000000000000000000000000000000000000000 %!
b0000000000000000000000000000000000000000000000000000000000000000 '!
b0000000000000000000000000000000000000000000000000000000000000000 )!
b1111111111111111111111111111111000000000000000000000000000000000 +!
17!
#470
07!
#475
b00000000000000000000000000000001 }
b00000000000000000000000000000001 #!
b0000000000000000000000000000000100000000000000000000000000000000 '!
b1111111111111111111111111111111100000000000000000000000000000000 +!
17!
#480
07!
#485
b00000000000000000000000000000010 }
b00000000000000000000000000000010 #!
b0000000000000000000000000000000100000000000000000000000000000000 %!
b0000000000000000000000000000000000000000000000000000000000000000 '!
b0000000000000000000000000000000000000000000000000000000000000000 +!
17!
#490
07!
#495
b0000000000000000000000000000000100000000000000000000000000000000 {
b00000000000000000000000000000011 }
b00000000000000000000000000000011 #!
b0000000000000000000000000000000100000000000000000000000000000000 '!
b0000000000000000000000000000000100000000000000000000000000000000 )!
b0000000000000000000000000000000100000000000000000000000000000000 +!
17!
#500
07!
#505
1x
b0000000000000000000000000000000000000000000000000000000000000000 {
b00000000000000000000000000000000 }
b00000000000000000000000000000110 !!
b00000000000000000000000000000100 #!
b0000000000000000000000000000000000000000000000000000000000000000 %!
b0000000000000000000000000000000000000000000000000000000000000000 '!
b0000000000000000000000000000000000000000000000000000000000000000 )!
b1111111111111111111111111111111000000000000000000000000000000000 +!
17!
#510
07!
#515
b00000000000000000000000000000001 }
b00000000000000000000000000000001 "!
b0000000000000000000000000000000100000000000000000000000000000000 '!
b1111111111111111111111111111111100000000000000000000000000000000 +!
17!
#520
07!
#525
b00000000000000000000000000000010 }
b00000000000000000000000000000010 "!
b0000000000000000000000000000000100000000000000000000000000000000 %!
b0000000000000000000000000000000000000000000000000000000000000000 '!
b0000000000000000000000000000000000000000000000000000000000000000 +!
17!
#530
07!
#535
b0000000000000000000000000000000100000000000000000000000000000000 {
b00000000000000000000000000000011 }
b00000000000000000000000000000011 "!
b0000000000000000000000000000000100000000000000000000000000000000 '!
b0000000000000000000000000000000100000000000000000000000000000000 )!
b0000000000000000000000000000000100000000000000000000000000000000 +!
17!
#540
07!
#545
0x
b0000000000000000000000000000000000000000000000000000000000000000 {
b00000000000000000000000000000000 }
b00000000000000000000000000000100 "!
b0000000000000000000000000000000000000000000000000000000000000000 %!
b0000000000000000000000000000000000000000000000000000000000000000 '!
b0000000000000000000000000000000000000000000000000000000000000000 )!
b1111111111111111111111111111111000000000000000000000000000000000 +!
17!
#550
07!
#555
b00000000000000000000000000000001 }
b00000000000000000000000000000001 #!
b0000000000000000000000000000000100000000000000000000000000000000 '!
b1111111111111111111111111111111100000000000000000000000000000000 +!
17!
#560
07!
#565
b00000000000000000000000000000010 }
b00000000000000000000000000000010 #!
b0000000000000000000000000000000100000000000000000000000000000000 %!
b0000000000000000000000000000000000000000000000000000000000000000 '!
b0000000000000000000000000000000000000000000000000000000000000000 +!
17!
#570
07!
#575
b0000000000000000000000000000000100000000000000000000000000000000 {
b00000000000000000000000000000011 }
b00000000000000000000000000000011 #!
b0000000000000000000000000000000100000000000000000000000000000000 '!
b0000000000000000000000000000000100000000000000000000000000000000 )!
b0000000000000000000000000000000100000000000000000000000000000000 +!
17!
#580
07!
#585
1x
b0000000000000000000000000000000000000000000000000000000000000000 {
b00000000000000000000000000000000 }
b00000000000000000000000000000111 !!
b00000000000000000000000000000100 #!
b0000000000000000000000000000000000000000000000000000000000000000 %!
b0000000000000000000000000000000000000000000000000000000000000000 '!
b0000000000000000000000000000000000000000000000000000000000000000 )!
b1111111111111111111111111111111000000000000000000000000000000000 +!
17!
#590
07!
#595
b00000000000000000000000000000001 }
b00000000000000000000000000000001 "!
b0000000000000000000000000000000100000000000000000000000000000000 '!
b1111111111111111111111111111111100000000000000000000000000000000 +!
17!
#600
07!
#605
b00000000000000000000000000000010 }
b00000000000000000000000000000010 "!
b0000000000000000000000000000000100000000000000000000000000000000 %!
b0000000000000000000000000000000000000000000000000000000000000000 '!
b0000000000000000000000000000000000000000000000000000000000000000 +!
17!
#610
07!
#615
b0000000000000000000000000000000100000000000000000000000000000000 {
b00000000000000000000000000000011 }
b00000000000000000000000000000011 "!
b0000000000000000000000000000000100000000000000000000000000000000 '!
b0000000000000000000000000000000100000000000000000000000000000000 )!
b0000000000000000000000000000000100000000000000000000000000000000 +!
17!
#620
07!
#625
0x
b0000000000000000000000000000000000000000000000000000000000000000 {
b00000000000000000000000000000000 }
b00000000000000000000000000000100 "!
b0000000000000000000000000000000000000000000000000000000000000000 %!
b0000000000000000000000000000000000000000000000000000000000000000 '!
b0000000000000000000000000000000000000000000000000000000000000000 )!
b1111111111111111111111111111111000000000000000000000000000000000 +!
17!
#630
07!
#635
b00000000000000000000000000000001 }
b00000000000000000000000000000001 #!
b0000000000000000000000000000000100000000000000000000000000000000 '!
b1111111111111111111111111111111100000000000000000000000000000000 +!
17!
#640
07!
#645
b00000000000000000000000000000010 }
b00000000000000000000000000000010 #!
b0000000000000000000000000000000100000000000000000000000000000000 %!
b0000000000000000000000000000000000000000000000000000000000000000 '!
b0000000000000000000000000000000000000000000000000000000000000000 +!
17!
#650
07!
#655
b0000000000000000000000000000000100000000000000000000000000000000 {
b00000000000000000000000000000011 }
b00000000000000000000000000000011 #!
b0000000000000000000000000000000100000000000000000000000000000000 '!
b0000000000000000000000000000000100000000000000000000000000000000 )!
b0000000000000000000000000000000100000000000000000000000000000000 +!
17!
#660
07!
#665
1x
b0000000000000000000000000000000000000000000000000000000000000000 {
b00000000000000000000000000000000 }
b00000000000000000000000000001000 !!
b00000000000000000000000000000100 #!
b0000000000000000000000000000000000000000000000000000000000000000 %!
b0000000000000000000000000000000000000000000000000000000000000000 '!
b0000000000000000000000000000000000000000000000000000000000000000 )!
b1111111111111111111111111111111000000000000000000000000000000000 +!
17!
#670
07!
#675
b00000000000000000000000000000001 }
b00000000000000000000000000000001 "!
b0000000000000000000000000000000100000000000000000000000000000000 '!
b1111111111111111111111111111111100000000000000000000000000000000 +!
17!
#680
07!
#685
b00000000000000000000000000000010 }
b00000000000000000000000000000010 "!
b0000000000000000000000000000000100000000000000000000000000000000 %!
b0000000000000000000000000000000000000000000000000000000000000000 '!
b0000000000000000000000000000000000000000000000000000000000000000 +!
17!
#690
07!
#695
b0000000000000000000000000000000100000000000000000000000000000000 {
b00000000000000000000000000000011 }
b00000000000000000000000000000011 "!
b0000000000000000000000000000000100000000000000000000000000000000 '!
b0000000000000000000000000000000100000000000000000000000000000000 )!
b0000000000000000000000000000000100000000000000000000000000000000 +!
17!
#700
07!
#705
0x
b0000000000000000000000000000000000000000000000000000000000000000 {
b00000000000000000000000000000000 }
b00000000000000000000000000000100 "!
b0000000000000000000000000000000000000000000000000000000000000000 %!
b0000000000000000000000000000000000000000000000000000000000000000 '!
b0000000000000000000000000000000000000000000000000000000000000000 )!
b1111111111111111111111111111111000000000000000000000000000000000 +!
17!
#710
07!
#715
b00000000000000000000000000000001 }
b00000000000000000000000000000001 #!
b0000000000000000000000000000000100000000000000000000000000000000 '!
b1111111111111111111111111111111100000000000000000000000000000000 +!
17!
#720
07!
#725
b00000000000000000000000000000010 }
b00000000000000000000000000000010 #!
b0000000000000000000000000000000100000000000000000000000000000000 %!
b0000000000000000000000000000000000000000000000000000000000000000 '!
b0000000000000000000000000000000000000000000000000000000000000000 +!
17!
#730
07!
#735
b0000000000000000000000000000000100000000000000000000000000000000 {
b00000000000000000000000000000011 }
b00000000000000000000000000000011 #!
b0000000000000000000000000000000100000000000000000000000000000000 '!
b0000000000000000000000000000000100000000000000000000000000000000 )!
b0000000000000000000000000000000100000000000000000000000000000000 +!
17!
#740
07!
#745
1x
b0000000000000000000000000000000000000000000000000000000000000000 {
b00000000000000000000000000000000 }
b00000000000000000000000000001001 !!
b00000000000000000000000000000100 #!
b0000000000000000000000000000000000000000000000000000000000000000 %!
b0000000000000000000000000000000000000000000000000000000000000000 '!
b0000000000000000000000000000000000000000000000000000000000000000 )!
b1111111111111111111111111111111000000000000000000000000000000000 +!
17!
#750
07!
#755
b00000000000000000000000000000001 }
b00000000000000000000000000000001 "!
b0000000000000000000000000000000100000000000000000000000000000000 '!
b1111111111111111111111111111111100000000000000000000000000000000 +!
17!
#760
07!
#765
b00000000000000000000000000000010 }
b00000000000000000000000000000010 "!
b0000000000000000000000000000000100000000000000000000000000000000 %!
b0000000000000000000000000000000000000000000000000000000000000000 '!
b0000000000000000000000000000000000000000000000000000000000000000 +!
17!
#770
07!
