Standalone_Perceptron/sim.vcd
$version Generated by VerilatedVcd $end
$timescale 1ps $end
 $scope module $rootio $end
 $upscope $end
 $scope module FixedPoint $end
  $var wire 32 B frac_bits [31:0] $end
 $upscope $end
 $scope module BenchPerceptronIntroduction $end
  $var wire 32 @ input_units [31:0] $end
  $var wire 1 9 clk $end
  $var wire 1 # rst $end
  $var wire 64 $ values[0] [63:0] $end
  $var wire 64 & values[1] [63:0] $end
  $var wire 1 ( training $end
  $var wire 64 ) learning_rate [63:0] $end
  $var wire 64 : prediction [63:0] $end
  $var wire 64 + expected [63:0] $end
  $var wire 32 - correct [31:0] $end
  $var wire 64 . ONE [63:0] $end
  $scope module perceptron_i $end
   $var wire 32 @ input_units [31:0] $end
   $var wire 1 9 clk $end
   $var wire 1 # rst $end
   $var wire 64 $ values[0] [63:0] $end
   $var wire 64 & values[1] [63:0] $end
   $var wire 1 ( training $end
   $var wire 64 ) learning_rate [63:0] $end
   $var wire 64 + expected [63:0] $end
   $var wire 64 : prediction [63:0] $end
   $var wire 64 1 weights[0] [63:0] $end
   $var wire 64 3 weights[1] [63:0] $end
   $var wire 64 5 bias [63:0] $end
   $var wire 64 < sum [63:0] $end
   $var wire 64 > error [63:0] $end
   $scope module unnamedblk1 $end
    $var wire 32 A i [31:0] $end
   $upscope $end
   $scope module unnamedblk2 $end
    $var wire 32 7 i [31:0] $end
   $upscope $end
   $scope module unnamedblk3 $end
    $var wire 32 8 i [31:0] $end
   $upscope $end
  $upscope $end
  $scope module unnamedblk1 $end
   $var wire 32 0 epoch [31:0] $end
  $upscope $end
 $upscope $end
$enddefinitions $end


#0
1#
b0000000000000000000000000000000000000000000000000000000000000000 $
b0000000000000000000000000000000000000000000000000000000000000000 &
1(
b0000000000000000000000000000000100000000000000000000000000000000 )
b0000000000000000000000000000000000000000000000000000000000000000 +
b00000000000000000000000000000000 -
b0000000000000000000000000000000100000000000000000000000000000000 .
b00000000000000000000000000000000 0
b0000000000000000000000000000000000000000000000000000000000000000 1
b0000000000000000000000000000000000000000000000000000000000000000 3
b0000000000000000000000000000000000000000000000000000000000000000 5
b00000000000000000000000000000000 7
b00000000000000000000000000000000 8
09
b0000000000000000000000000000000000000000000000000000000000000000 :
b0000000000000000000000000000000000000000000000000000000000000000 <
b0000000000000000000000000000000000000000000000000000000000000000 >
b00000000000000000000000000000010 @
b00000000000000000000000000000010 A
b00000000000000000000000000100000 B
#5
b00000000000000000000000000000010 7
19
#10
09
#15
19
#20
09
#25
0#
b00000000000000000000000000000010 8
19
#30
09
#35
19
#40
09
#45
19
#50
09
#55
b0000000000000000000000000000000100000000000000000000000000000000 &
19
#60
09
#65
19
#70
09
#75
b0000000000000000000000000000000100000000000000000000000000000000 $
b0000000000000000000000000000000000000000000000000000000000000000 &
19
#80
09
#85
19
#90
09
#95
b0000000000000000000000000000000100000000000000000000000000000000 &
b0000000000000000000000000000000100000000000000000000000000000000 +
b0000000000000000000000000000000100000000000000000000000000000000 1
b0000000000000000000000000000000100000000000000000000000000000000 3
b0000000000000000000000000000000100000000000000000000000000000000 5
19
b0000000000000000000000000000000100000000000000000000000000000000 :
b0000000000000000000000000000001100000000000000000000000000000000 <
#100
09
#105
0(
19
#110
09
#115
b0000000000000000000000000000000000000000000000000000000000000000 $
b0000000000000000000000000000000000000000000000000000000000000000 &
b0000000000000000000000000000000000000000000000000000000000000000 +
19
b0000000000000000000000000000000100000000000000000000000000000000 <
b1111111111111111111111111111111100000000000000000000000000000000 >
#120
09
#125
19
#130
09
#135
b0000000000000000000000000000000100000000000000000000000000000000 &
19
b0000000000000000000000000000001000000000000000000000000000000000 <
#140
09
#145
19
#150
09
#155
b0000000000000000000000000000000100000000000000000000000000000000 $
b0000000000000000000000000000000000000000000000000000000000000000 &
19
#160
09
#165
19
#170
09
#175
b0000000000000000000000000000000100000000000000000000000000000000 &
b0000000000000000000000000000000100000000000000000000000000000000 +
19
b0000000000000000000000000000001100000000000000000000000000000000 <
b0000000000000000000000000000000000000000000000000000000000000000 >
#180
09
#185
1(
b00000000000000000000000000000001 0
19
#190
09
#195
b0000000000000000000000000000000000000000000000000000000000000000 $
b0000000000000000000000000000000000000000000000000000000000000000 &
b0000000000000000000000000000000000000000000000000000000000000000 +
b0000000000000000000000000000000000000000000000000000000000000000 5
19
b0000000000000000000000000000000000000000000000000000000000000000 :
b0000000000000000000000000000000000000000000000000000000000000000 <
#200
09
#205
19
#210
09
#215
b0000000000000000000000000000000100000000000000000000000000000000 &
b0000000000000000000000000000000000000000000000000000000000000000 3
b1111111111111111111111111111111100000000000000000000000000000000 5
19
b1111111111111111111111111111111100000000000000000000000000000000 <
#220
09
#225
19
#230
09
#235
b0000000000000000000000000000000100000000000000000000000000000000 $
b0000000000000000000000000000000000000000000000000000000000000000 &
19
b0000000000000000000000000000000000000000000000000000000000000000 <
#240
09
#245
19
#250
09
#255
b0000000000000000000000000000000100000000000000000000000000000000 &
b0000000000000000000000000000000100000000000000000000000000000000 +
b0000000000000000000000000000001000000000000000000000000000000000 1
b0000000000000000000000000000000100000000000000000000000000000000 3
b0000000000000000000000000000000000000000000000000000000000000000 5
19
b0000000000000000000000000000000100000000000000000000000000000000 :
b0000000000000000000000000000001100000000000000000000000000000000 <
#260
09
#265
0(
19
#270
09
#275
b0000000000000000000000000000000000000000000000000000000000000000 $
b0000000000000000000000000000000000000000000000000000000000000000 &
b0000000000000000000000000000000000000000000000000000000000000000 +
19
b0000000000000000000000000000000000000000000000000000000000000000 :
b0000000000000000000000000000000000000000000000000000000000000000 <
#280
09
#285
19
#290
09
#295
b0000000000000000000000000000000100000000000000000000000000000000 &
19
b0000000000000000000000000000000100000000000000000000000000000000 :
b0000000000000000000000000000000100000000000000000000000000000000 <
b1111111111111111111111111111111100000000000000000000000000000000 >
#300
09
#305
19
#310
09
#315
b0000000000000000000000000000000100000000000000000000000000000000 $
b0000000000000000000000000000000000000000000000000000000000000000 &
19
b0000000000000000000000000000001000000000000000000000000000000000 <
#320
09
#325
19
#330
09
#335
b0000000000000000000000000000000100000000000000000000000000000000 &
b0000000000000000000000000000000100000000000000000000000000000000 +
19
b0000000000000000000000000000001100000000000000000000000000000000 <
b0000000000000000000000000000000000000000000000000000000000000000 >
#340
09
#345
1(
b00000000000000000000000000000010 0
19
#350
09
#355
b0000000000000000000000000000000000000000000000000000000000000000 $
b0000000000000000000000000000000000000000000000000000000000000000 &
b0000000000000000000000000000000000000000000000000000000000000000 +
19
b0000000000000000000000000000000000000000000000000000000000000000 :
b0000000000000000000000000000000000000000000000000000000000000000 <
#360
09
#365
19
#370
09
#375
b0000000000000000000000000000000100000000000000000000000000000000 &
b0000000000000000000000000000000000000000000000000000000000000000 3
b1111111111111111111111111111111100000000000000000000000000000000 5
19
b1111111111111111111111111111111100000000000000000000000000000000 <
#380
09
#385
19
#390
09
#395
b0000000000000000000000000000000100000000000000000000000000000000 $
b0000000000000000000000000000000000000000000000000000000000000000 &
b0000000000000000000000000000000100000000000000000000000000000000 1
b1111111111111111111111111111111000000000000000000000000000000000 5
19
#400
09
#405
19
#410
09
#415
b0000000000000000000000000000000100000000000000000000000000000000 &
b0000000000000000000000000000000100000000000000000000000000000000 +
b0000000000000000000000000000001000000000000000000000000000000000 1
b0000000000000000000000000000000100000000000000000000000000000000 3
b1111111111111111111111111111111100000000000000000000000000000000 5
19
b0000000000000000000000000000000100000000000000000000000000000000 :
b0000000000000000000000000000001000000000000000000000000000000000 <
#420
09
#425
0(
19
#430
09
#435
b0000000000000000000000000000000000000000000000000000000000000000 $
b0000000000000000000000000000000000000000000000000000000000000000 &
b0000000000000000000000000000000000000000000000000000000000000000 +
19
b0000000000000000000000000000000000000000000000000000000000000000 :
b1111111111111111111111111111111100000000000000000000000000000000 <
#440
09
#445
19
#450
09
#455
b0000000000000000000000000000000100000000000000000000000000000000 &
19
b0000000000000000000000000000000000000000000000000000000000000000 <
#460
09
#465
19
#470
09
#475
b0000000000000000000000000000000100000000000000000000000000000000 $
b0000000000000000000000000000000000000000000000000000000000000000 &
19
b0000000000000000000000000000000100000000000000000000000000000000 :
b0000000000000000000000000000000100000000000000000000000000000000 <
b1111111111111111111111111111111100000000000000000000000000000000 >
#480
09
#485
19
#490
09
#495
b0000000000000000000000000000000100000000000000000000000000000000 &
b0000000000000000000000000000000100000000000000000000000000000000 +
19
b0000000000000000000000000000001000000000000000000000000000000000 <
b0000000000000000000000000000000000000000000000000000000000000000 >
#500
09
#505
1(
b00000000000000000000000000000011 0
19
#510
09
#515
b0000000000000000000000000000000000000000000000000000000000000000 $
b0000000000000000000000000000000000000000000000000000000000000000 &
b0000000000000000000000000000000000000000000000000000000000000000 +
19
b0000000000000000000000000000000000000000000000000000000000000000 :
b1111111111111111111111111111111100000000000000000000000000000000 <
#520
09
#525
19
#530
09
#535
b0000000000000000000000000000000100000000000000000000000000000000 &
19
b0000000000000000000000000000000000000000000000000000000000000000 <
#540
09
#545
19
#550
09
#555
b0000000000000000000000000000000100000000000000000000000000000000 $
b0000000000000000000000000000000000000000000000000000000000000000 &
b0000000000000000000000000000000100000000000000000000000000000000 1
b1111111111111111111111111111111000000000000000000000000000000000 5
19
b1111111111111111111111111111111100000000000000000000000000000000 <
#560
09
#565
19
#570
09
#575
b0000000000000000000000000000000100000000000000000000000000000000 &
b0000000000000000000000000000000100000000000000000000000000000000 +
b0000000000000000000000000000001000000000000000000000000000000000 1
b0000000000000000000000000000001000000000000000000000000000000000 3
b1111111111111111111111111111111100000000000000000000000000000000 5
19
b0000000000000000000000000000000100000000000000000000000000000000 :
b0000000000000000000000000000001100000000000000000000000000000000 <
#580
09
#585
0(
19
#590
09
#595
b0000000000000000000000000000000000000000000000000000000000000000 $
b0000000000000000000000000000000000000000000000000000000000000000 &
b0000000000000000000000000000000000000000000000000000000000000000 +
19
b0000000000000000000000000000000000000000000000000000000000000000 :
b1111111111111111111111111111111100000000000000000000000000000000 <
#600
09
#605
19
#610
09
#615
b0000000000000000000000000000000100000000000000000000000000000000 &
19
b0000000000000000000000000000000100000000000000000000000000000000 :
b0000000000000000000000000000000100000000000000000000000000000000 <
b1111111111111111111111111111111100000000000000000000000000000000 >
#620
09
#625
19
#630
09
#635
b0000000000000000000000000000000100000000000000000000000000000000 $
b0000000000000000000000000000000000000000000000000000000000000000 &
19
#640
09
#645
19
#650
09
#655
b0000000000000000000000000000000100000000000000000000000000000000 &
b0000000000000000000000000000000100000000000000000000000000000000 +
19
b0000000000000000000000000000001100000000000000000000000000000000 <
b0000000000000000000000000000000000000000000000000000000000000000 >
#660
09
#665
1(
b00000000000000000000000000000100 0
19
#670
09
#675
b0000000000000000000000000000000000000000000000000000000000000000 $
b0000000000000000000000000000000000000000000000000000000000000000 &
b0000000000000000000000000000000000000000000000000000000000000000 +
19
b0000000000000000000000000000000000000000000000000000000000000000 :
b1111111111111111111111111111111100000000000000000000000000000000 <
#680
09
#685
19
#690
09
#695
b0000000000000000000000000000000100000000000000000000000000000000 &
b0000000000000000000000000000000100000000000000000000000000000000 3
b1111111111111111111111111111111000000000000000000000000000000000 5
19
#700
09
#705
19
#710
09
#715
b0000000000000000000000000000000100000000000000000000000000000000 $
b0000000000000000000000000000000000000000000000000000000000000000 &
19
b0000000000000000000000000000000000000000000000000000000000000000 <
#720
09
#725
19
#730
09
#735
b0000000000000000000000000000000100000000000000000000000000000000 &
b0000000000000000000000000000000100000000000000000000000000000000 +
19
b0000000000000000000000000000000100000000000000000000000000000000 :
b0000000000000000000000000000000100000000000000000000000000000000 <
#740
09
#745
0(
19
#750
09
#755
b0000000000000000000000000000000000000000000000000000000000000000 $
b0000000000000000000000000000000000000000000000000000000000000000 &
b0000000000000000000000000000000000000000000000000000000000000000 +
19
b0000000000000000000000000000000000000000000000000000000000000000 :
b1111111111111111111111111111111000000000000000000000000000000000 <
#760
09
#765
19
#770
09
#775
b0000000000000000000000000000000100000000000000000000000000000000 &
19
b1111111111111111111111111111111100000000000000000000000000000000 <
#780
09
#785
19
#790
09
#795
b0000000000000000000000000000000100000000000000000000000000000000 $
b0000000000000000000000000000000000000000000000000000000000000000 &
19
b0000000000000000000000000000000000000000000000000000000000000000 <
#800
09
#805
19
#810
09
#815
b0000000000000000000000000000000100000000000000000000000000000000 &
b0000000000000000000000000000000100000000000000000000000000000000 +
19
b0000000000000000000000000000000100000000000000000000000000000000 :
b0000000000000000000000000000000100000000000000000000000000000000 <
#820
09
#825
1(
b00000000000000000000000000000101 0
19
#830
09
#835
b0000000000000000000000000000000000000000000000000000000000000000 $
b0000000000000000000000000000000000000000000000000000000000000000 &
b0000000000000000000000000000000000000000000000000000000000000000 +
19
b0000000000000000000000000000000000000000000000000000000000000000 :
b1111111111111111111111111111111000000000000000000000000000000000 <
#840
09
#845
19
#850
09
#855
b0000000000000000000000000000000100000000000000000000000000000000 &
19
b1111111111111111111111111111111100000000000000000000000000000000 <
#860
09
#865
19
#870
09
#875
b0000000000000000000000000000000100000000000000000000000000000000 $
b0000000000000000000000000000000000000000000000000000000000000000 &
19
b0000000000000000000000000000000000000000000000000000000000000000 <
#880
09
#885
19
#890
09
#895
b0000000000000000000000000000000100000000000000000000000000000000 &
b0000000000000000000000000000000100000000000000000000000000000000 +
19
b0000000000000000000000000000000100000000000000000000000000000000 :
b0000000000000000000000000000000100000000000000000000000000000000 <
#900
09
#905
0(
19
#910
09
#915
b0000000000000000000000000000000000000000000000000000000000000000 $
b0000000000000000000000000000000000000000000000000000000000000000 &
b0000000000000000000000000000000000000000000000000000000000000000 +
19
b0000000000000000000000000000000000000000000000000000000000000000 :
b1111111111111111111111111111111000000000000000000000000000000000 <
#920
09
#925
19
#930
09
#935
b0000000000000000000000000000000100000000000000000000000000000000 &
19
b1111111111111111111111111111111100000000000000000000000000000000 <
#940
09
#945
19
#950
09
#955
b0000000000000000000000000000000100000000000000000000000000000000 $
b0000000000000000000000000000000000000000000000000000000000000000 &
19
b0000000000000000000000000000000000000000000000000000000000000000 <
#960
09
#965
19
#970
09
#975
b0000000000000000000000000000000100000000000000000000000000000000 &
b0000000000000000000000000000000100000000000000000000000000000000 +
19
b0000000000000000000000000000000100000000000000000000000000000000 :
b0000000000000000000000000000000100000000000000000000000000000000 <
#980
09
#985
1(
b00000000000000000000000000000110 0
19
#990
09
#995
b0000000000000000000000000000000000000000000000000000000000000000 $
b0000000000000000000000000000000000000000000000000000000000000000 &
b0000000000000000000000000000000000000000000000000000000000000000 +
19
b0000000000000000000000000000000000000000000000000000000000000000 :
b1111111111111111111111111111111000000000000000000000000000000000 <
#1000
09
#1005
19
#1010
09
#1015
b0000000000000000000000000000000100000000000000000000000000000000 &
19
b1111111111111111111111111111111100000000000000000000000000000000 <
#1020
09
#1025
19
#1030
09
#1035
b0000000000000000000000000000000100000000000000000000000000000000 $
b0000000000000000000000000000000000000000000000000000000000000000 &
19
b0000000000000000000000000000000000000000000000000000000000000000 <
#1040
09
#1045
19
#1050
09
#1055
b0000000000000000000000000000000100000000000000000000000000000000 &
b0000000000000000000000000000000100000000000000000000000000000000 +
19
b0000000000000000000000000000000100000000000000000000000000000000 :
b0000000000000000000000000000000100000000000000000000000000000000 <
#1060
09
#1065
0(
19
#1070
09
#1075
b0000000000000000000000000000000000000000000000000000000000000000 $
b0000000000000000000000000000000000000000000000000000000000000000 &
b0000000000000000000000000000000000000000000000000000000000000000 +
19
b0000000000000000000000000000000000000000000000000000000000000000 :
b1111111111111111111111111111111000000000000000000000000000000000 <
#1080
09
#1085
19
#1090
09
#1095
b0000000000000000000000000000000100000000000000000000000000000000 &
19
b1111111111111111111111111111111100000000000000000000000000000000 <
#1100
09
#1105
19
#1110
09
#1115
b0000000000000000000000000000000100000000000000000000000000000000 $
b0000000000000000000000000000000000000000000000000000000000000000 &
19
b0000000000000000000000000000000000000000000000000000000000000000 <
#1120
09
#1125
19
#1130
09
#1135
b0000000000000000000000000000000100000000000000000000000000000000 &
b0000000000000000000000000000000100000000000000000000000000000000 +
19
b0000000000000000000000000000000100000000000000000000000000000000 :
b0000000000000000000000000000000100000000000000000000000000000000 <
#1140
09
#1145
1(
b00000000000000000000000000000111 0
19
#1150
09
#1155
b0000000000000000000000000000000000000000000000000000000000000000 $
b0000000000000000000000000000000000000000000000000000000000000000 &
b0000000000000000000000000000000000000000000000000000000000000000 +
19
b0000000000000000000000000000000000000000000000000000000000000000 :
b1111111111111111111111111111111000000000000000000000000000000000 <
#1160
09
#1165
19
#1170
09
#1175
b0000000000000000000000000000000100000000000000000000000000000000 &
19
b1111111111111111111111111111111100000000000000000000000000000000 <
#1180
09
#1185
19
#1190
09
#1195
b0000000000000000000000000000000100000000000000000000000000000000 $
b0000000000000000000000000000000000000000000000000000000000000000 &
19
b0000000000000000000000000000000000000000000000000000000000000000 <
#1200
09
#1205
19
#1210
09
#1215
b0000000000000000000000000000000100000000000000000000000000000000 &
b0000000000000000000000000000000100000000000000000000000000000000 +
19
b0000000000000000000000000000000100000000000000000000000000000000 :
b0000000000000000000000000000000100000000000000000000000000000000 <
#1220
09
#1225
0(
19
#1230
09
#1235
b0000000000000000000000000000000000000000000000000000000000000000 $
b0000000000000000000000000000000000000000000000000000000000000000 &
b0000000000000000000000000000000000000000000000000000000000000000 +
19
b0000000000000000000000000000000000000000000000000000000000000000 :
b1111111111111111111111111111111000000000000000000000000000000000 <
#1240
09
#1245
19
#1250
09
#1255
b0000000000000000000000000000000100000000000000000000000000000000 &
19
b1111111111111111111111111111111100000000000000000000000000000000 <
#1260
09
#1265
19
#1270
09
#1275
b0000000000000000000000000000000100000000000000000000000000000000 $
b0000000000000000000000000000000000000000000000000000000000000000 &
19
b0000000000000000000000000000000000000000000000000000000000000000 <
#1280
09
#1285
19
#1290
09
#1295
b0000000000000000000000000000000100000000000000000000000000000000 &
b0000000000000000000000000000000100000000000000000000000000000000 +
19
b0000000000000000000000000000000100000000000000000000000000000000 :
b0000000000000000000000000000000100000000000000000000000000000000 <
#1300
09
#1305
1(
b00000000000000000000000000001000 0
19
#1310
09
#1315
b0000000000000000000000000000000000000000000000000000000000000000 $
b0000000000000000000000000000000000000000000000000000000000000000 &
b0000000000000000000000000000000000000000000000000000000000000000 +
19
b0000000000000000000000000000000000000000000000000000000000000000 :
b1111111111111111111111111111111000000000000000000000000000000000 <
#1320
09
#1325
19
#1330
09
#1335
b0000000000000000000000000000000100000000000000000000000000000000 &
19
b1111111111111111111111111111111100000000000000000000000000000000 <
#1340
09
#1345
19
#1350
09
#1355
b0000000000000000000000000000000100000000000000000000000000000000 $
b0000000000000000000000000000000000000000000000000000000000000000 &
19
b0000000000000000000000000000000000000000000000000000000000000000 <
#1360
09
#1365
19
#1370
09
#1375
b0000000000000000000000000000000100000000000000000000000000000000 &
b0000000000000000000000000000000100000000000000000000000000000000 +
19
b0000000000000000000000000000000100000000000000000000000000000000 :
b0000000000000000000000000000000100000000000000000000000000000000 <
#1380
09
#1385
0(
19
#1390
09
#1395
b0000000000000000000000000000000000000000000000000000000000000000 $
b0000000000000000000000000000000000000000000000000000000000000000 &
b0000000000000000000000000000000000000000000000000000000000000000 +
19
b0000000000000000000000000000000000000000000000000000000000000000 :
b1111111111111111111111111111111000000000000000000000000000000000 <
#1400
09
#1405
19
#1410
09
#1415
b0000000000000000000000000000000100000000000000000000000000000000 &
19
b1111111111111111111111111111111100000000000000000000000000000000 <
#1420
09
#1425
19
#1430
09
#1435
b0000000000000000000000000000000100000000000000000000000000000000 $
b0000000000000000000000000000000000000000000000000000000000000000 &
19
b0000000000000000000000000000000000000000000000000000000000000000 <
#1440
09
#1445
19
#1450
09
#1455
b0000000000000000000000000000000100000000000000000000000000000000 &
b0000000000000000000000000000000100000000000000000000000000000000 +
19
b0000000000000000000000000000000100000000000000000000000000000000 :
b0000000000000000000000000000000100000000000000000000000000000000 <
#1460
09
#1465
1(
b00000000000000000000000000001001 0
19
#1470
09
#1475
b0000000000000000000000000000000000000000000000000000000000000000 $
b0000000000000000000000000000000000000000000000000000000000000000 &
b0000000000000000000000000000000000000000000000000000000000000000 +
19
b0000000000000000000000000000000000000000000000000000000000000000 :
b1111111111111111111111111111111000000000000000000000000000000000 <
#1480
09
#1485
19
#1490
09
#1495
b0000000000000000000000000000000100000000000000000000000000000000 &
19
b1111111111111111111111111111111100000000000000000000000000000000 <
#1500
09
#1505
19
#1510
09
#1515
b0000000000000000000000000000000100000000000000000000000000000000 $
b0000000000000000000000000000000000000000000000000000000000000000 &
19
b0000000000000000000000000000000000000000000000000000000000000000 <
#1520
09
#1525
19
#1530
09
#1535
b0000000000000000000000000000000100000000000000000000000000000000 &
b0000000000000000000000000000000100000000000000000000000000000000 +
19
b0000000000000000000000000000000100000000000000000000000000000000 :
b0000000000000000000000000000000100000000000000000000000000000000 <
#1540
09
#1545
0(
19
#1550
09
#1555
b0000000000000000000000000000000000000000000000000000000000000000 $
b0000000000000000000000000000000000000000000000000000000000000000 &
b0000000000000000000000000000000000000000000000000000000000000000 +
19
b0000000000000000000000000000000000000000000000000000000000000000 :
b1111111111111111111111111111111000000000000000000000000000000000 <
#1560
09
#1565
19
#1570
09
#1575
b0000000000000000000000000000000100000000000000000000000000000000 &
19
b1111111111111111111111111111111100000000000000000000000000000000 <
#1580
09
#1585
19
#1590
09
#1595
b0000000000000000000000000000000100000000000000000000000000000000 $
b0000000000000000000000000000000000000000000000000000000000000000 &
19
b0000000000000000000000000000000000000000000000000000000000000000 <
#1600
09
#1605
19
#1610
09
#1615
b0000000000000000000000000000000100000000000000000000000000000000 &
b0000000000000000000000000000000100000000000000000000000000000000 +
19
b0000000000000000000000000000000100000000000000000000000000000000 :
b0000000000000000000000000000000100000000000000000000000000000000 <
#1620
09
#1625
b00000000000000000000000000001010 0
19
#1630
09
#1635
b0000000000000000000000000000000000000000000000000000000000000000 $
b0000000000000000000000000000000000000000000000000000000000000000 &
b0000000000000000000000000000000000000000000000000000000000000000 +
19
b0000000000000000000000000000000000000000000000000000000000000000 :
b1111111111111111111111111111111000000000000000000000000000000000 <
#1640
09
#1645
19
#1650
09
#1655
b0000000000000000000000000000000100000000000000000000000000000000 &
19
b1111111111111111111111111111111100000000000000000000000000000000 <
#1660
09
#1665
19
#1670
09
#1675
b0000000000000000000000000000000100000000000000000000000000000000 $
b0000000000000000000000000000000000000000000000000000000000000000 &
19
b0000000000000000000000000000000000000000000000000000000000000000 <
#1680
09
#1685
19
#1690
09
#1695
b0000000000000000000000000000000100000000000000000000000000000000 &
b0000000000000000000000000000000100000000000000000000000000000000 +
19
b0000000000000000000000000000000100000000000000000000000000000000 :
b0000000000000000000000000000000100000000000000000000000000000000 <
#1700
09
#1705
19
#1710
09
#1715
b0000000000000000000000000000000000000000000000000000000000000000 $
b0000000000000000000000000000000000000000000000000000000000000000 &
b0000000000000000000000000000000000000000000000000000000000000000 +
19
b0000000000000000000000000000000000000000000000000000000000000000 :
b1111111111111111111111111111111000000000000000000000000000000000 <
#1720
09
#1725
b00000000000000000000000000000001 -
19
#1730
09
#1735
b0000000000000000000000000000000100000000000000000000000000000000 &
19
b1111111111111111111111111111111100000000000000000000000000000000 <
#1740
09
#1745
b00000000000000000000000000000010 -
19
#1750
09
#1755
b0000000000000000000000000000000100000000000000000000000000000000 $
b0000000000000000000000000000000000000000000000000000000000000000 &
19
b0000000000000000000000000000000000000000000000000000000000000000 <
#1760
09
#1765
b00000000000000000000000000000011 -
19
#1770
09
#1775
b0000000000000000000000000000000100000000000000000000000000000000 &
b0000000000000000000000000000000100000000000000000000000000000000 +
19
b0000000000000000000000000000000100000000000000000000000000000000 :
b0000000000000000000000000000000100000000000000000000000000000000 <
#1780
09
#1785
b00000000000000000000000000000100 -
19
