Full_MLP/sim.vcd
$version Generated by VerilatedVcd $end
$timescale 1ps $end
 $scope module $rootio $end
 $upscope $end
 $scope module FixedPoint $end
  $var wire 32 X frac_bits [31:0] $end
  $var wire 64 Y epsilon [63:0] $end
  $var wire 64 # ONE [63:0] $end
  $var wire 64 [ HALF [63:0] $end
 $upscope $end
 $scope module BenchPerceptron $end
  $var wire 32 U input_units [31:0] $end
  $var wire 32 V output_units [31:0] $end
  $var wire 1 T clk $end
  $var wire 1 % rst $end
  $var wire 64 & values[0] [63:0] $end
  $var wire 64 ( values[1] [63:0] $end
  $var wire 32 * activation [31:0] $end
  $var wire 1 + training $end
  $var wire 64 , learning_rate [63:0] $end
  $var wire 64 . next_layer_weights[0] [63:0] $end
  $var wire 64 6 error_gradient_next_layer[0] [63:0] $end
  $var wire 64 8 prediction [63:0] $end
  $var wire 64 : error_gradient [63:0] $end
  $var wire 64 H current_weights[0] [63:0] $end
  $var wire 64 J current_weights[1] [63:0] $end
  $var wire 64 0 expected [63:0] $end
  $var wire 64 2 threshold [63:0] $end
  $var wire 32 4 correct [31:0] $end
  $scope module perceptron $end
   $var wire 32 U input_units [31:0] $end
   $var wire 32 V output_units [31:0] $end
   $var wire 1 T clk $end
   $var wire 1 % rst $end
   $var wire 64 & values[0] [63:0] $end
   $var wire 64 ( values[1] [63:0] $end
   $var wire 32 * activation [31:0] $end
   $var wire 1 + training $end
   $var wire 64 , learning_rate [63:0] $end
   $var wire 64 . next_layer_weights[0] [63:0] $end
   $var wire 64 6 error_gradient_next_layer[0] [63:0] $end
   $var wire 64 8 prediction [63:0] $end
   $var wire 64 : error_gradient [63:0] $end
   $var wire 64 H current_weights[0] [63:0] $end
   $var wire 64 J current_weights[1] [63:0] $end
   $var wire 64 L weights[0] [63:0] $end
   $var wire 64 N weights[1] [63:0] $end
   $var wire 64 P bias [63:0] $end
   $var wire 64 < sum [63:0] $end
   $var wire 64 > weight_gradient[0] [63:0] $end
   $var wire 64 @ weight_gradient[1] [63:0] $end
   $var wire 64 B bias_gradient [63:0] $end
   $var wire 64 : local_error_gradient [63:0] $end
   $scope module predict $end
    $var wire 32 * activation [31:0] $end
    $var wire 64 < sum [63:0] $end
    $var wire 64 8 prediction [63:0] $end
   $upscope $end
   $scope module unnamedblk1 $end
    $var wire 32 W i [31:0] $end
   $upscope $end
   $scope module unnamedblk2 $end
    $var wire 32 W i [31:0] $end
   $upscope $end
   $scope module unnamedblk3 $end
    $var wire 32 D i [31:0] $end
   $upscope $end
   $scope module unnamedblk4 $end
    $var wire 32 E i [31:0] $end
   $upscope $end
   $scope module unnamedblk5 $end
    $var wire 32 F i [31:0] $end
   $upscope $end
   $scope module unnamedblk6 $end
    $var wire 32 G i [31:0] $end
   $upscope $end
   $scope module unnamedblk7 $end
    $var wire 32 R i [31:0] $end
   $upscope $end
   $scope module unnamedblk8 $end
    $var wire 32 S i [31:0] $end
   $upscope $end
  $upscope $end
  $scope module unnamedblk1 $end
   $var wire 32 5 epoch [31:0] $end
  $upscope $end
 $upscope $end
$enddefinitions $end


#0
b0000000000000000000000000000000100000000000000000000000000000000 #
1%
b0000000000000000000000000000000000000000000000000000000000000000 &
b0000000000000000000000000000000000000000000000000000000000000000 (
b00000000000000000000000000000001 *
1+
b0000000000000000000000000000000100000000000000000000000000000000 ,
b0000000000000000000000000000000100000000000000000000000000000000 .
b0000000000000000000000000000000000000000000000000000000000000000 0
b0000000000000000000000000000000000000000000000000000000000000000 2
b00000000000000000000000000000000 4
b00000000000000000000000000000000 5
b0000000000000000000000000000001000000000000000000000000010101000 6
b0000000000000000000000000000000010000000000000000000000000000000 8
b0000000000000000000000000000000010000000000000000000000000101010 :
b0000000000000000000000000000000000000000000000000000000000000000 <
b0000000000000000000000000000000000000000000000000000000000000000 >
b0000000000000000000000000000000000000000000000000000000000000000 @
b0000000000000000000000000000000010000000000000000000000000101010 B
b00000000000000000000000000000001 D
b00000000000000000000000000000000 E
b00000000000000000000000000000000 F
b00000000000000000000000000000010 G
b0000000000000000000000000000000000000000000000000000000000000000 H
b0000000000000000000000000000000000000000000000000000000000000000 J
b0000000000000000000000000000000000000000000000000000000000000000 L
b0000000000000000000000000000000000000000000000000000000000000000 N
b0000000000000000000000000000000000000000000000000000000000000000 P
b00000000000000000000000000000000 R
b00000000000000000000000000000000 S
0T
b00000000000000000000000000000010 U
b00000000000000000000000000000001 V
b00000000000000000000000000000010 W
b00000000000000000000000000100000 X
b0000000000000000000000000000000000000000000000000000000000101010 Y
b0000000000000000000000000000000010000000000000000000000000000000 [
#5
b0000000000000000000000000000001000010100110011010101000001111101 6
b0000000000000000000000000000000010000100111111110101100101101111 8
b0000000000000000000000000000000010000100111111110101100110011011 :
b0000000000000000000000000000000000010100000000000000000000000000 <
b0000000000000000000000000000000010000100111111110101100110011011 B
b1111111111111111111111111111111111111100000000000000000000000000 H
b0000000000000000000000000000000000100100000000000000000000000000 J
b1111111111111111111111111111111111111100000000000000000000000000 L
b0000000000000000000000000000000000100100000000000000000000000000 N
b0000000000000000000000000000000000010100000000000000000000000000 P
b00000000000000000000000000000010 R
1T
#10
0T
#15
b0000000000000000000000000000001010011001000101100011101111101100 6
b0000000000000000000000000000000010011101011101100110010111001111 8
b0000000000000000000000000000000010011101011101100110011000010001 :
b0000000000000000000000000000000001111000000000000000000000000000 <
b0000000000000000000000000000000010011101011101100110011000010001 B
b1111111111111111111111111111111110100110000000000000000000000000 H
b0000000000000000000000000000000000111000000000000000000000000000 J
b1111111111111111111111111111111110100110000000000000000000000000 L
b0000000000000000000000000000000000111000000000000000000000000000 N
b0000000000000000000000000000000001111000000000000000000000000000 P
1T
#20
0T
#25
0%
b0000000000000000000000000000000111011101001001100100111101011000 6
b0000000000000000000000000000000001110110101001101010101101111100 8
b0000000000000000000000000000000001110110101001101010101110011110 :
b1111111111111111111111111111111111011010100010011001100111101111 <
b0000000000000000000000000000000001110110101001101010101110011110 B
b1111111111111111111111111111111111011010100010011001100111101111 P
b00000000000000000000000000000010 S
1T
#30
0T
#35
b0000000000000000000000000000000100000000000000000000000000000000 (
b0000000000000000000000000000000101100001101001101010010001101101 6
b0000000000000000000000000000000001000110101011111111010011101000 8
b0000000000000000000000000000000001000110101011111111010011110111 :
b1111111111111111111111111111111100001001010001011101010111101001 <
b0000000000000000000000000000000001000110101011111111010011110111 @
b0000000000000000000000000000000001000110101011111111010011110111 B
b1111111111111111111111111111111110110011010111100001110111111101 J
b1111111111111111111111111111111110110011010111100001110111111101 N
b1111111111111111111111111111111101010101111001111011011111101100 P
1T
#40
0T
#45
b0000000000000000000000000000000100000000000000000000000000000000 &
b0000000000000000000000000000000000000000000000000000000000000000 (
b0000000000000000000000000000000100110110011101110010010010011000 6
b0000000000000000000000000000000000101100111010010001001110000100 8
b0000000000000000000000000000000000101100111010010001001110001100 :
b1111111111111111111111111111111001110011110011111011010111110100 <
b0000000000000000000000000000000000101100111010010001001110001100 >
b0000000000000000000000000000000000000000000000000000000000000000 @
b0000000000000000000000000000000000101100111010010001001110001100 B
b1111111111111111111111111111111101100001111100111111111100000100 H
b1111111111111111111111111111111101100001111100111111111100000100 L
b1111111111111111111111111111111100010001110110111011011011110000 P
1T
#50
0T
#55
b0000000000000000000000000000000100000000000000000000000000000000 (
b0000000000000000000000000000000100000000000000000000000000000000 0
b1111111111111111111111111111111010000110011000111001111001111111 6
b0000000000000000000000000000000010101101100011011110100001011011 8
b1111111111111111111111111111111110101101100011011110100001101111 :
b0000000000000000000000000000000010111110100011011100101100110110 <
b1111111111111111111111111111111110101101100011011110100001101111 >
b1111111111111111111111111111111110101101100011011110100001101111 @
b1111111111111111111111111111111110101101100011011110100001101111 B
b0000000000000000000000000000000000111111000100111111110000011011 H
b0000000000000000000000000000000010010000011111100001101100010100 J
b0000000000000000000000000000000000111111000100111111110000011011 L
b0000000000000000000000000000000010010000011111100001101100010100 N
b1111111111111111111111111111111111101110111110111011010000000111 P
1T
#60
0T
#65
b0000000000000000000000000000000000000000000000000000000000000000 &
b0000000000000000000000000000000000000000000000000000000000000000 (
0+
b0000000000000000000000000000000000000000000000000000000000000000 0
b0000000000000000000000000000000111101111100010010101010111110000 6
b0000000000000000000000000000000001111011101111110101001110011111 8
b0000000000000000000000000000000001111011101111110101001111000101 :
b1111111111111111111111111111111111101110111110111011010000000111 <
b0000000000000000000000000000000000000000000000000000000000000000 >
b0000000000000000000000000000000000000000000000000000000000000000 @
b0000000000000000000000000000000001111011101111110101001111000101 B
1T
#70
0T
#75
b0000000000000000000000000000000100000000000000000000000000000000 (
b0000000000000000000000000000001010100101001101011001010110011111 6
b0000000000000000000000000000000010011111001110011111001110010010 8
b0000000000000000000000000000000010011111001110011111001111010110 :
b0000000000000000000000000000000001111111011110011100111100011011 <
b0000000000000000000000000000000010011111001110011111001111010110 @
b0000000000000000000000000000000010011111001110011111001111010110 B
1T
#80
0T
#85
b0000000000000000000000000000000100000000000000000000000000000000 &
b0000000000000000000000000000000000000000000000000000000000000000 (
b0000000000000000000000000000001000110010011101110001101001110100 6
b0000000000000000000000000000000010001011011110111111111010100111 8
b0000000000000000000000000000000010001011011110111111111011010111 :
b0000000000000000000000000000000000101110000011111011000000100010 <
b0000000000000000000000000000000010001011011110111111111011010111 >
b0000000000000000000000000000000000000000000000000000000000000000 @
b0000000000000000000000000000000010001011011110111111111011010111 B
1T
#90
0T
#95
b0000000000000000000000000000000100000000000000000000000000000000 (
b0000000000000000000000000000000100000000000000000000000000000000 0
b1111111111111111111111111111111010000110011000111001111001111111 6
b0000000000000000000000000000000010101101100011011110100001011011 8
b1111111111111111111111111111111110101101100011011110100001101111 :
b0000000000000000000000000000000010111110100011011100101100110110 <
b1111111111111111111111111111111110101101100011011110100001101111 >
b1111111111111111111111111111111110101101100011011110100001101111 @
b1111111111111111111111111111111110101101100011011110100001101111 B
1T
#100
0T
#105
b0000000000000000000000000000000000000000000000000000000000000000 &
b0000000000000000000000000000000000000000000000000000000000000000 (
1+
b0000000000000000000000000000000000000000000000000000000000000000 0
b00000000000000000000000000000001 5
b0000000000000000000000000000000110010011101110000100011101100010 6
b0000000000000000000000000000000001011101101010110110101100111010 8
b0000000000000000000000000000000001011101101010110110101101010001 :
b1111111111111111111111111111111101110011001111000110000001000010 <
b0000000000000000000000000000000000000000000000000000000000000000 >
b0000000000000000000000000000000000000000000000000000000000000000 @
b0000000000000000000000000000000001011101101010110110101101010001 B
b1111111111111111111111111111111101110011001111000110000001000010 P
1T
#110
0T
#115
b0000000000000000000000000000000100000000000000000000000000000000 (
b0000000000000000000000000000000101011110110111011000111100001111 6
b0000000000000000000000000000000001000101001101110101010111011100 8
b0000000000000000000000000000000001000101001101110101010111101010 :
b1111111111111111111111111111111100000001110111010011111110000010 <
b0000000000000000000000000000000001000101001101110101010111101010 @
b0000000000000000000000000000000001000101001101110101010111101010 B
b0000000000000000000000000000000000001111100011110111110100101010 J
b0000000000000000000000000000000000001111100011110111110100101010 N
b1111111111111111111111111111111011110010010011011100001001011000 P
1T
#120
0T
#125
b0000000000000000000000000000000100000000000000000000000000000000 &
b0000000000000000000000000000000000000000000000000000000000000000 (
b0000000000000000000000000000000100111101100111111101101101011001 6
b0000000000000000000000000000000000110001101010110001001110100111 8
b0000000000000000000000000000000000110001101010110001001110101111 :
b1111111111111111111111111111111010010011011011001111000011001001 <
b0000000000000000000000000000000000110001101010110001001110101111 >
b0000000000000000000000000000000000000000000000000000000000000000 @
b0000000000000000000000000000000000110001101010110001001110101111 B
b1111111111111111111111111111111111110000000110011001010101000110 H
b1111111111111111111111111111111111110000000110011001010101000110 L
b1111111111111111111111111111111010100011010100110101101110000011 P
1T
#130
0T
#135
b0000000000000000000000000000000100000000000000000000000000000000 (
b0000000000000000000000000000000100000000000000000000000000000000 0
b1111111111111111111111111111111010100100001100110100010100010111 6
b0000000000000000000000000000000010111100011011100010011010101101 8
b1111111111111111111111111111111110111100011011100010011010111100 :
b0000000000000000000000000000000100000110100010111010000100001101 <
b1111111111111111111111111111111110111100011011100010011010111100 >
b1111111111111111111111111111111110111100011011100010011010111100 @
b1111111111111111111111111111111110111100011011100010011010111100 B
b0000000000000000000000000000000010111011111100111111101110100100 H
b0000000000000000000000000000000011011011011010011110001110001000 J
b0000000000000000000000000000000010111011111100111111101110100100 L
b0000000000000000000000000000000011011011011010011110001110001000 N
b1111111111111111111111111111111101101111001011011100000111100001 P
1T
#140
0T
#145
b0000000000000000000000000000000000000000000000000000000000000000 &
b0000000000000000000000000000000000000000000000000000000000000000 (
0+
b0000000000000000000000000000000000000000000000000000000000000000 0
b0000000000000000000000000000000110010001011001011011000000100100 6
b0000000000000000000000000000000001011100101110101111010101011010 8
b0000000000000000000000000000000001011100101110101111010101110000 :
b1111111111111111111111111111111101101111001011011100000111100001 <
b0000000000000000000000000000000000000000000000000000000000000000 >
b0000000000000000000000000000000000000000000000000000000000000000 @
b0000000000000000000000000000000001011100101110101111010101110000 B
1T
#150
0T
#155
b0000000000000000000000000000000100000000000000000000000000000000 (
b0000000000000000000000000000001001010110100110001100000010011001 6
b0000000000000000000000000000000010010010100001000110101110011011 8
b0000000000000000000000000000000010010010100001000110101111010011 :
b0000000000000000000000000000000001001010100101111010010101101001 <
b0000000000000000000000000000000010010010100001000110101111010011 @
b0000000000000000000000000000000010010010100001000110101111010011 B
1T
#160
0T
#165
b0000000000000000000000000000000100000000000000000000000000000000 &
b0000000000000000000000000000000000000000000000000000000000000000 (
b0000000000000000000000000000001000101110111110100110111110010001 6
b0000000000000000000000000000000010001010110000011110110001110000 8
b0000000000000000000000000000000010001010110000011110110010011111 :
b0000000000000000000000000000000000101011001000011011110110000101 <
b0000000000000000000000000000000010001010110000011110110010011111 >
b0000000000000000000000000000000000000000000000000000000000000000 @
b0000000000000000000000000000000010001010110000011110110010011111 B
1T
#170
0T
#175
b0000000000000000000000000000000100000000000000000000000000000000 (
b0000000000000000000000000000000100000000000000000000000000000000 0
b1111111111111111111111111111111010100100001100110100010100010111 6
b0000000000000000000000000000000010111100011011100010011010101101 8
b1111111111111111111111111111111110111100011011100010011010111100 :
b0000000000000000000000000000000100000110100010111010000100001101 <
b1111111111111111111111111111111110111100011011100010011010111100 >
b1111111111111111111111111111111110111100011011100010011010111100 @
b1111111111111111111111111111111110111100011011100010011010111100 B
1T
#180
0T
#185
b0000000000000000000000000000000000000000000000000000000000000000 &
b0000000000000000000000000000000000000000000000000000000000000000 (
1+
b0000000000000000000000000000000000000000000000000000000000000000 0
b00000000000000000000000000000010 5
b0000000000000000000000000000000101100101001101101110011100101010 6
b0000000000000000000000000000000001001000100010010011011000100011 8
b0000000000000000000000000000000001001000100010010011011000110010 :
b1111111111111111111111111111111100010010011100101100110001110001 <
b0000000000000000000000000000000000000000000000000000000000000000 >
b0000000000000000000000000000000000000000000000000000000000000000 @
b0000000000000000000000000000000001001000100010010011011000110010 B
b1111111111111111111111111111111100010010011100101100110001110001 P
1T
#190
0T
#195
b0000000000000000000000000000000100000000000000000000000000000000 (
b0000000000000000000000000000000101011010111001011101110101100011 6
b0000000000000000000000000000000001000011000101000111000111011000 8
b0000000000000000000000000000000001000011000101000111000111100101 :
b1111111111111111111111111111111011110110111011010101111100110001 <
b0000000000000000000000000000000001000011000101000111000111100101 @
b0000000000000000000000000000000001000011000101000111000111100101 B
b0000000000000000000000000000000001011111111100100011101100100100 J
b0000000000000000000000000000000001011111111100100011101100100100 N
b1111111111111111111111111111111010010110111110110010010000001101 P
1T
#200
0T
#205
b0000000000000000000000000000000100000000000000000000000000000000 &
b0000000000000000000000000000000000000000000000000000000000000000 (
b0000000000000000000000000000000101000010010101111111001111011111 6
b0000000000000000000000000000000000110100101100000110000010011111 8
b0000000000000000000000000000000000110100101100000110000010101001 :
b1111111111111111111111111111111010100110010100001011100110010101 <
b0000000000000000000000000000000000110100101100000110000010101001 >
b0000000000000000000000000000000000000000000000000000000000000000 @
b0000000000000000000000000000000000110100101100000110000010101001 B
b0000000000000000000000000000000001100101101001001100100010010110 H
b0000000000000000000000000000000001100101101001001100100010010110 L
b1111111111111111111111111111111001000000101010111111000011111111 P
1T
#210
0T
#215
b0000000000000000000000000000000100000000000000000000000000000000 (
b0000000000000000000000000000000100000000000000000000000000000000 0
b1111111111111111111111111111111010110011001000101000111011100110 6
b0000000000000000000000000000000011000100111000100111011000110101 8
b1111111111111111111111111111111111000100111000100111011001000010 :
b0000000000000000000000000000000100110100000000000001101111011011 <
b1111111111111111111111111111111111000100111000100111011001000010 >
b1111111111111111111111111111111111000100111000100111011001000010 @
b1111111111111111111111111111111111000100111000100111011001000010 B
b0000000000000000000000000000000100011111100011101000000001001100 H
b0000000000000000000000000000000100011001110110111111001011011010 J
b0000000000000000000000000000000100011111100011101000000001001100 L
b0000000000000000000000000000000100011001110110111111001011011010 N
b1111111111111111111111111111111011111010100101011010100010110101 P
1T
#220
0T
#225
b0000000000000000000000000000000000000000000000000000000000000000 &
b0000000000000000000000000000000000000000000000000000000000000000 (
0+
b0000000000000000000000000000000000000000000000000000000000000000 0
b0000000000000000000000000000000101011100001101001011001011001000 6
b0000000000000000000000000000000001000011110010100001110000010011 8
b0000000000000000000000000000000001000011110010100001110000100001 :
b1111111111111111111111111111111011111010100101011010100010110101 <
b0000000000000000000000000000000000000000000000000000000000000000 >
b0000000000000000000000000000000000000000000000000000000000000000 @
b0000000000000000000000000000000001000011110010100001110000100001 B
1T
#230
0T
#235
b0000000000000000000000000000000100000000000000000000000000000000 (
b0000000000000000000000000000001000010101010010000100001010010110 6
b0000000000000000000000000000000010000101000110111011010011111110 8
b0000000000000000000000000000000010000101000110111011010100101010 :
b0000000000000000000000000000000000010100011100011001101110001111 <
b0000000000000000000000000000000010000101000110111011010100101010 @
b0000000000000000000000000000000010000101000110111011010100101010 B
1T
#240
0T
#245
b0000000000000000000000000000000100000000000000000000000000000000 &
b0000000000000000000000000000000000000000000000000000000000000000 (
b0000000000000000000000000000001000011011100001011100011101100000 6
b0000000000000000000000000000000010000110100001111001011001111001 8
b0000000000000000000000000000000010000110100001111001011010100110 :
b0000000000000000000000000000000000011010001001000010100100000001 <
b0000000000000000000000000000000010000110100001111001011010100110 >
b0000000000000000000000000000000000000000000000000000000000000000 @
b0000000000000000000000000000000010000110100001111001011010100110 B
1T
#250
0T
#255
b0000000000000000000000000000000100000000000000000000000000000000 (
b0000000000000000000000000000000100000000000000000000000000000000 0
b1111111111111111111111111111111010110011001000101000111011100110 6
b0000000000000000000000000000000011000100111000100111011000110101 8
b1111111111111111111111111111111111000100111000100111011001000010 :
b0000000000000000000000000000000100110100000000000001101111011011 <
b1111111111111111111111111111111111000100111000100111011001000010 >
b1111111111111111111111111111111111000100111000100111011001000010 @
b1111111111111111111111111111111111000100111000100111011001000010 B
1T
#260
0T
#265
b0000000000000000000000000000000000000000000000000000000000000000 &
b0000000000000000000000000000000000000000000000000000000000000000 (
1+
b0000000000000000000000000000000000000000000000000000000000000000 0
b00000000000000000000000000000011 5
b0000000000000000000000000000000101000110110000010011110100001110 6
b0000000000000000000000000000000000110111011011110000100010010011 8
b0000000000000000000000000000000000110111011011110000100010011101 :
b1111111111111111111111111111111010110110110010111000110010010100 <
b0000000000000000000000000000000000000000000000000000000000000000 >
b0000000000000000000000000000000000000000000000000000000000000000 @
b0000000000000000000000000000000000110111011011110000100010011101 B
b1111111111111111111111111111111010110110110010111000110010010100 P
1T
#270
0T
#275
b0000000000000000000000000000000100000000000000000000000000000000 (
b0000000000000000000000000000000101010101110101100001101111000100 6
b0000000000000000000000000000000001000000010010000101010000101011 8
b0000000000000000000000000000000001000000010010000101010000111000 :
b1111111111111111111111111111111011101000010000101000100001101000 <
b0000000000000000000000000000000001000000010010000101010000111000 @
b0000000000000000000000000000000001000000010010000101010000111000 B
b0000000000000000000000000000000010100101101010010111011101010111 J
b0000000000000000000000000000000010100101101010010111011101010111 N
b1111111111111111111111111111111001000010100110010001000100010001 P
1T
#280
0T
#285
b0000000000000000000000000000000100000000000000000000000000000000 &
b0000000000000000000000000000000000000000000000000000000000000000 (
b0000000000000000000000000000000101000100100010110100010010011010 6
b0000000000000000000000000000000000110110000100010100010001011111 8
b0000000000000000000000000000000000110110000100010100010001101001 :
b1111111111111111111111111111111010101110101010110001111011111011 <
b0000000000000000000000000000000000110110000100010100010001101001 >
b0000000000000000000000000000000000000000000000000000000000000000 @
b0000000000000000000000000000000000110110000100010100010001101001 B
b0000000000000000000000000000000011000101110100000100011100011011 H
b0000000000000000000000000000000011000101110100000100011100011011 L
b1111111111111111111111111111110111101000110110101101011111100000 P
1T
#290
0T
#295
b0000000000000000000000000000000100000000000000000000000000000000 (
b0000000000000000000000000000000100000000000000000000000000000000 0
b1111111111111111111111111111111010111011001110010100000110111101 6
b0000000000000000000000000000000011001001110010011100000010011101 8
b1111111111111111111111111111111111001001110010011100000010101000 :
b0000000000000000000000000000000101010000011101110001111000000111 <
b1111111111111111111111111111111111001001110010011100000010101000 >
b1111111111111111111111111111111111001001110010011100000010101000 @
b1111111111111111111111111111111111001001110010011100000010101000 B
b0000000000000000000000000000000101101111001100010001111100000010 H
b0000000000000000000000000000000101001111000010100100111100111110 J
b0000000000000000000000000000000101101111001100010001111100000010 L
b0000000000000000000000000000000101001111000010100100111100111110 N
b1111111111111111111111111111111010010010001110111010111111000111 P
1T
#300
0T
#305
b0000000000000000000000000000000000000000000000000000000000000000 &
b0000000000000000000000000000000000000000000000000000000000000000 (
0+
b0000000000000000000000000000000000000000000000000000000000000000 0
b0000000000000000000000000000000100111101010101101000101111111101 6
b0000000000000000000000000000000000110001011110110110100100110100 8
b0000000000000000000000000000000000110001011110110110100100111100 :
b1111111111111111111111111111111010010010001110111010111111000111 <
b0000000000000000000000000000000000000000000000000000000000000000 >
b0000000000000000000000000000000000000000000000000000000000000000 @
b0000000000000000000000000000000000110001011110110110100100111100 B
1T
#310
0T
#315
b0000000000000000000000000000000100000000000000000000000000000000 (
b0000000000000000000000000000000111100011000010111011101000000100 6
b0000000000000000000000000000000001111000010100111101101101000001 8
b0000000000000000000000000000000001111000010100111101101101100101 :
b1111111111111111111111111111111111100001010001011111111100000101 <
b0000000000000000000000000000000001111000010100111101101101100101 @
b0000000000000000000000000000000001111000010100111101101101100101 B
1T
#320
0T
#325
b0000000000000000000000000000000100000000000000000000000000000000 &
b0000000000000000000000000000000000000000000000000000000000000000 (
b0000000000000000000000000000001000000001011011011101001111011000 6
b0000000000000000000000000000000010000000010110110011001110100010 8
b0000000000000000000000000000000010000000010110110011001111001011 :
b0000000000000000000000000000000000000001011011001100111011001001 <
b0000000000000000000000000000000010000000010110110011001111001011 >
b0000000000000000000000000000000000000000000000000000000000000000 @
b0000000000000000000000000000000010000000010110110011001111001011 B
1T
#330
0T
#335
b0000000000000000000000000000000100000000000000000000000000000000 (
b0000000000000000000000000000000100000000000000000000000000000000 0
b1111111111111111111111111111111010111011001110010100000110111101 6
b0000000000000000000000000000000011001001110010011100000010011101 8
b1111111111111111111111111111111111001001110010011100000010101000 :
b0000000000000000000000000000000101010000011101110001111000000111 <
b1111111111111111111111111111111111001001110010011100000010101000 >
b1111111111111111111111111111111111001001110010011100000010101000 @
b1111111111111111111111111111111111001001110010011100000010101000 B
1T
#340
0T
#345
b0000000000000000000000000000000000000000000000000000000000000000 &
b0000000000000000000000000000000000000000000000000000000000000000 (
1+
b0000000000000000000000000000000000000000000000000000000000000000 0
b00000000000000000000000000000100 5
b0000000000000000000000000000000100110010100011101011100010101010 6
b0000000000000000000000000000000000101010001110000011010010010010 8
b0000000000000000000000000000000000101010001110000011010010011010 :
b1111111111111111111111111111111001100000110000000100011010001011 <
b0000000000000000000000000000000000000000000000000000000000000000 >
b0000000000000000000000000000000000000000000000000000000000000000 @
b0000000000000000000000000000000000101010001110000011010010011010 B
b1111111111111111111111111111111001100000110000000100011010001011 P
1T
#350
0T
#355
b0000000000000000000000000000000100000000000000000000000000000000 (
b0000000000000000000000000000000101010000011010110100010110111111 6
b0000000000000000000000000000000000111101001100100000000010111011 8
b0000000000000000000000000000000000111101001100100000000011000111 :
b1111111111111111111111111111111011010111100100100001111011110111 <
b0000000000000000000000000000000000111101001100100000000011000111 @
b0000000000000000000000000000000000111101001100100000000011000111 B
b0000000000000000000000000000000011100010111011100001001111010101 J
b0000000000000000000000000000000011100010111011100001001111010101 N
b1111111111111111111111111111110111110100101001000000101100100010 P
1T
#360
0T
#365
b0000000000000000000000000000000100000000000000000000000000000000 &
b0000000000000000000000000000000000000000000000000000000000000000 (
b0000000000000000000000000000000101000100110010011111101001111111 6
b0000000000000000000000000000000000110110001110000100000110100010 8
b0000000000000000000000000000000000110110001110000100000110101100 :
b1111111111111111111111111111111010101111100101001110101010011000 <
b0000000000000000000000000000000000110110001110000100000110101100 >
b0000000000000000000000000000000000000000000000000000000000000000 @
b0000000000000000000000000000000000110110001110000100000110101100 B
b0000000000000000000000000000000100010101000100001111111100111100 H
b0000000000000000000000000000000100010101000100001111111100111100 L
b1111111111111111111111111111110110011010100000111110101101011100 P
1T
#370
0T
#375
b0000000000000000000000000000000100000000000000000000000000000000 (
b0000000000000000000000000000000100000000000000000000000000000000 0
b1111111111111111111111111111111011000000001000000111000000010010 6
b0000000000000000000000000000000011001100111000011001000101011000 8
b1111111111111111111111111111111111001100111000011001000101100011 :
b0000000000000000000000000000000101100011011001100001000000011000 <
b1111111111111111111111111111111111001100111000011001000101100011 >
b1111111111111111111111111111111111001100111000011001000101100011 @
b1111111111111111111111111111111111001100111000011001000101100011 B
b0000000000000000000000000000000110110000000001110101101001110101 H
b0000000000000000000000000000000101111101111001000110111100001110 J
b0000000000000000000000000000000110110000000001110101101001110101 L
b0000000000000000000000000000000101111101111001000110111100001110 N
b1111111111111111111111111111111000110101011110100100011010010101 P
1T
#380
0T
#385
b0000000000000000000000000000000000000000000000000000000000000000 &
b0000000000000000000000000000000000000000000000000000000000000000 (
0+
b0000000000000000000000000000000000000000000000000000000000000000 0
b0000000000000000000000000000000100101010101100011101011100110001 6
b0000000000000000000000000000000000100100100101111000111000100011 8
b0000000000000000000000000000000000100100100101111000111000101001 :
b1111111111111111111111111111111000110101011110100100011010010101 <
b0000000000000000000000000000000000000000000000000000000000000000 >
b0000000000000000000000000000000000000000000000000000000000000000 @
b0000000000000000000000000000000000100100100101111000111000101001 B
1T
#390
0T
#395
b0000000000000000000000000000000100000000000000000000000000000000 (
b0000000000000000000000000000000110111101110001101000001000011011 6
b0000000000000000000000000000000001101100111110111111100011010110 8
b0000000000000000000000000000000001101100111110111111100011110100 :
b1111111111111111111111111111111110110011010111101011010110100011 <
b0000000000000000000000000000000001101100111110111111100011110100 @
b0000000000000000000000000000000001101100111110111111100011110100 B
1T
#400
0T
#405
b0000000000000000000000000000000100000000000000000000000000000000 &
b0000000000000000000000000000000000000000000000000000000000000000 (
b0000000000000000000000000000000111100110110101001100100110100110 6
b0000000000000000000000000000000001111001011000011110101101000100 8
b0000000000000000000000000000000001111001011000011110101101101000 :
b1111111111111111111111111111111111100101100000011010000100001010 <
b0000000000000000000000000000000001111001011000011110101101101000 >
b0000000000000000000000000000000000000000000000000000000000000000 @
b0000000000000000000000000000000001111001011000011110101101101000 B
1T
#410
0T
#415
b0000000000000000000000000000000100000000000000000000000000000000 (
b0000000000000000000000000000000100000000000000000000000000000000 0
b1111111111111111111111111111111011000000001000000111000000010010 6
b0000000000000000000000000000000011001100111000011001000101011000 8
b1111111111111111111111111111111111001100111000011001000101100011 :
b0000000000000000000000000000000101100011011001100001000000011000 <
b1111111111111111111111111111111111001100111000011001000101100011 >
b1111111111111111111111111111111111001100111000011001000101100011 @
b1111111111111111111111111111111111001100111000011001000101100011 B
1T
#420
0T
#425
b0000000000000000000000000000000000000000000000000000000000000000 &
b0000000000000000000000000000000000000000000000000000000000000000 (
1+
b0000000000000000000000000000000000000000000000000000000000000000 0
b00000000000000000000000000000101 5
b0000000000000000000000000000000100100101000000100001001101010101 6
b0000000000000000000000000000000000100000010101010111010111111100 8
b0000000000000000000000000000000000100000010101010111011000000001 :
b1111111111111111111111111111111000010000111000101011100001101100 <
b0000000000000000000000000000000000000000000000000000000000000000 >
b0000000000000000000000000000000000000000000000000000000000000000 @
b0000000000000000000000000000000000100000010101010111011000000001 B
b1111111111111111111111111111111000010000111000101011100001101100 P
1T
#430
0T
#435
b0000000000000000000000000000000100000000000000000000000000000000 (
b0000000000000000000000000000000101001011001110100000001111001100 6
b0000000000000000000000000000000000111010001001000011100110100010 8
b0000000000000000000000000000000000111010001001000011100110101101 :
b1111111111111111111111111111111011000110011110111101111110110010 <
b0000000000000000000000000000000000111010001001000011100110101101 @
b0000000000000000000000000000000000111010001001000011100110101101 B
b0000000000000000000000000000000100011001101111101100101100101010 J
b0000000000000000000000000000000100011001101111101100101100101010 N
b1111111111111111111111111111110110101100101111010001010010001000 P
1T
#440
0T
#445
b0000000000000000000000000000000100000000000000000000000000000000 &
b0000000000000000000000000000000000000000000000000000000000000000 (
b0000000000000000000000000000000101000011110000101100001110011111 6
b0000000000000000000000000000000000110101100101000011011000000101 8
b0000000000000000000000000000000000110101100101000011011000001111 :
b1111111111111111111111111111111010101011101110011111011001110011 <
b0000000000000000000000000000000000110101100101000011011000001111 >
b0000000000000000000000000000000000000000000000000000000000000000 @
b0000000000000000000000000000000000110101100101000011011000001111 B
b0000000000000000000000000000000101010111100000100001111000110000 H
b0000000000000000000000000000000101010111100000100001111000110000 L
b1111111111111111111111111111110101010100001101111101100001000011 P
1T
#450
0T
