Full_MLP/sim.vcd
$version Generated by VerilatedVcd $end
$timescale 1ps $end
 $scope module $rootio $end
 $upscope $end
 $scope module FixedPoint $end
  $var wire 32 K" frac_bits [31:0] $end
  $var wire 64 L" e [63:0] $end
  $var wire 64 N" epsilon [63:0] $end
 $upscope $end
 $scope module Common $end
  $var real 64 P" e $end
  $var real 64 R" epsilon $end
 $upscope $end
 $scope module BenchMLP $end
  $var wire 32 -" inputs [31:0] $end
  $var wire 32 ." hidden_layer_size [31:0] $end
  $var wire 32 /" outputs [31:0] $end
  $var wire 1 (" clk $end
  $var wire 1 # rst $end
  $var real 64 $ values[0] $end
  $var real 64 & values[1] $end
  $var real 64 ( expected[0] $end
  $var wire 32 * hidden_activation [31:0] $end
  $var wire 32 + output_activation [31:0] $end
  $var wire 1 , training $end
  $var real 64 - learning_rate $end
  $var real 64 3 prediction[0] $end
  $var real 64 / threshold $end
  $var wire 32 1 correct [31:0] $end
  $var real 64 )" cost $end
  $scope module mlp $end
   $var wire 32 -" inputs [31:0] $end
   $var wire 32 ." hidden_layer_size [31:0] $end
   $var wire 32 /" outputs [31:0] $end
   $var wire 1 (" clk $end
   $var wire 1 # rst $end
   $var real 64 $ values[0] $end
   $var real 64 & values[1] $end
   $var real 64 ( expected[0] $end
   $var wire 32 * hidden_activation [31:0] $end
   $var wire 32 + output_activation [31:0] $end
   $var wire 1 , training $end
   $var real 64 - learning_rate $end
   $var real 64 3 prediction[0] $end
   $var real 64 5 hidden_predictions[0] $end
   $var real 64 7 hidden_predictions[1] $end
   $var real 64 9 hidden_predictions[2] $end
   $var real 64 ; hidden_predictions[3] $end
   $var real 64 0" hidden_error_gradients[0] $end
   $var real 64 2" hidden_error_gradients[1] $end
   $var real 64 4" hidden_error_gradients[2] $end
   $var real 64 6" hidden_error_gradients[3] $end
   $var real 64 8" hidden_weights[0][0] $end
   $var real 64 :" hidden_weights[0][1] $end
   $var real 64 <" hidden_weights[1][0] $end
   $var real 64 >" hidden_weights[1][1] $end
   $var real 64 @" hidden_weights[2][0] $end
   $var real 64 B" hidden_weights[2][1] $end
   $var real 64 D" hidden_weights[3][0] $end
   $var real 64 F" hidden_weights[3][1] $end
   $var real 64 = output_error_gradients[0] $end
   $var real 64 2! output_weights[0][0] $end
   $var real 64 4! output_weights[0][1] $end
   $var real 64 6! output_weights[0][2] $end
   $var real 64 8! output_weights[0][3] $end
   $scope module gen_hidden_layer[0] $end
    $var real 64 :! next_layer_weights_for_hidden[0] $end
    $scope module hidden_perceptron $end
     $var wire 32 -" input_units [31:0] $end
     $var wire 32 /" output_units [31:0] $end
     $var wire 1 (" clk $end
     $var wire 1 # rst $end
     $var real 64 $ values[0] $end
     $var real 64 & values[1] $end
     $var wire 32 * activation [31:0] $end
     $var wire 1 , training $end
     $var real 64 - learning_rate $end
     $var real 64 :! next_layer_weights[0] $end
     $var real 64 = error_gradient_next_layer[0] $end
     $var real 64 ? prediction $end
     $var real 64 A error_gradient $end
     $var real 64 <! current_weights[0] $end
     $var real 64 >! current_weights[1] $end
     $var real 64 @! weights[0] $end
     $var real 64 B! weights[1] $end
     $var real 64 D! bias $end
     $var real 64 C sum $end
     $var real 64 E weight_gradient[0] $end
     $var real 64 G weight_gradient[1] $end
     $var real 64 I bias_gradient $end
     $var real 64 A local_error_gradient $end
     $scope module predict $end
      $var wire 32 * activation [31:0] $end
      $var real 64 C sum $end
      $var real 64 ? prediction $end
     $upscope $end
     $scope module unnamedblk1 $end
      $var wire 32 H" i [31:0] $end
     $upscope $end
     $scope module unnamedblk2 $end
      $var wire 32 H" i [31:0] $end
     $upscope $end
     $scope module unnamedblk3 $end
      $var wire 32 K i [31:0] $end
     $upscope $end
     $scope module unnamedblk4 $end
      $var wire 32 L i [31:0] $end
     $upscope $end
     $scope module unnamedblk5 $end
      $var wire 32 M i [31:0] $end
     $upscope $end
     $scope module unnamedblk6 $end
      $var wire 32 H" i [31:0] $end
     $upscope $end
     $scope module unnamedblk7 $end
      $var wire 32 F! i [31:0] $end
     $upscope $end
     $scope module unnamedblk8 $end
      $var wire 32 G! i [31:0] $end
     $upscope $end
    $upscope $end
    $scope module unnamedblk1 $end
     $var wire 32 I" i [31:0] $end
    $upscope $end
   $upscope $end
   $scope module gen_hidden_layer[1] $end
    $var real 64 H! next_layer_weights_for_hidden[0] $end
    $scope module hidden_perceptron $end
     $var wire 32 -" input_units [31:0] $end
     $var wire 32 /" output_units [31:0] $end
     $var wire 1 (" clk $end
     $var wire 1 # rst $end
     $var real 64 $ values[0] $end
     $var real 64 & values[1] $end
     $var wire 32 * activation [31:0] $end
     $var wire 1 , training $end
     $var real 64 - learning_rate $end
     $var real 64 H! next_layer_weights[0] $end
     $var real 64 = error_gradient_next_layer[0] $end
     $var real 64 N prediction $end
     $var real 64 P error_gradient $end
     $var real 64 J! current_weights[0] $end
     $var real 64 L! current_weights[1] $end
     $var real 64 N! weights[0] $end
     $var real 64 P! weights[1] $end
     $var real 64 R! bias $end
     $var real 64 R sum $end
     $var real 64 T weight_gradient[0] $end
     $var real 64 V weight_gradient[1] $end
     $var real 64 X bias_gradient $end
     $var real 64 P local_error_gradient $end
     $scope module predict $end
      $var wire 32 * activation [31:0] $end
      $var real 64 R sum $end
      $var real 64 N prediction $end
     $upscope $end
     $scope module unnamedblk1 $end
      $var wire 32 H" i [31:0] $end
     $upscope $end
     $scope module unnamedblk2 $end
      $var wire 32 H" i [31:0] $end
     $upscope $end
     $scope module unnamedblk3 $end
      $var wire 32 Z i [31:0] $end
     $upscope $end
     $scope module unnamedblk4 $end
      $var wire 32 [ i [31:0] $end
     $upscope $end
     $scope module unnamedblk5 $end
      $var wire 32 \ i [31:0] $end
     $upscope $end
     $scope module unnamedblk6 $end
      $var wire 32 H" i [31:0] $end
     $upscope $end
     $scope module unnamedblk7 $end
      $var wire 32 T! i [31:0] $end
     $upscope $end
     $scope module unnamedblk8 $end
      $var wire 32 U! i [31:0] $end
     $upscope $end
    $upscope $end
    $scope module unnamedblk1 $end
     $var wire 32 I" i [31:0] $end
    $upscope $end
   $upscope $end
   $scope module gen_hidden_layer[2] $end
    $var real 64 V! next_layer_weights_for_hidden[0] $end
    $scope module hidden_perceptron $end
     $var wire 32 -" input_units [31:0] $end
     $var wire 32 /" output_units [31:0] $end
     $var wire 1 (" clk $end
     $var wire 1 # rst $end
     $var real 64 $ values[0] $end
     $var real 64 & values[1] $end
     $var wire 32 * activation [31:0] $end
     $var wire 1 , training $end
     $var real 64 - learning_rate $end
     $var real 64 V! next_layer_weights[0] $end
     $var real 64 = error_gradient_next_layer[0] $end
     $var real 64 ] prediction $end
     $var real 64 _ error_gradient $end
     $var real 64 X! current_weights[0] $end
     $var real 64 Z! current_weights[1] $end
     $var real 64 \! weights[0] $end
     $var real 64 ^! weights[1] $end
     $var real 64 `! bias $end
     $var real 64 a sum $end
     $var real 64 c weight_gradient[0] $end
     $var real 64 e weight_gradient[1] $end
     $var real 64 g bias_gradient $end
     $var real 64 _ local_error_gradient $end
     $scope module predict $end
      $var wire 32 * activation [31:0] $end
      $var real 64 a sum $end
      $var real 64 ] prediction $end
     $upscope $end
     $scope module unnamedblk1 $end
      $var wire 32 H" i [31:0] $end
     $upscope $end
     $scope module unnamedblk2 $end
      $var wire 32 H" i [31:0] $end
     $upscope $end
     $scope module unnamedblk3 $end
      $var wire 32 i i [31:0] $end
     $upscope $end
     $scope module unnamedblk4 $end
      $var wire 32 j i [31:0] $end
     $upscope $end
     $scope module unnamedblk5 $end
      $var wire 32 k i [31:0] $end
     $upscope $end
     $scope module unnamedblk6 $end
      $var wire 32 H" i [31:0] $end
     $upscope $end
     $scope module unnamedblk7 $end
      $var wire 32 b! i [31:0] $end
     $upscope $end
     $scope module unnamedblk8 $end
      $var wire 32 c! i [31:0] $end
     $upscope $end
    $upscope $end
    $scope module unnamedblk1 $end
     $var wire 32 I" i [31:0] $end
    $upscope $end
   $upscope $end
   $scope module gen_hidden_layer[3] $end
    $var real 64 d! next_layer_weights_for_hidden[0] $end
    $scope module hidden_perceptron $end
     $var wire 32 -" input_units [31:0] $end
     $var wire 32 /" output_units [31:0] $end
     $var wire 1 (" clk $end
     $var wire 1 # rst $end
     $var real 64 $ values[0] $end
     $var real 64 & values[1] $end
     $var wire 32 * activation [31:0] $end
     $var wire 1 , training $end
     $var real 64 - learning_rate $end
     $var real 64 d! next_layer_weights[0] $end
     $var real 64 = error_gradient_next_layer[0] $end
     $var real 64 l prediction $end
     $var real 64 n error_gradient $end
     $var real 64 f! current_weights[0] $end
     $var real 64 h! current_weights[1] $end
     $var real 64 j! weights[0] $end
     $var real 64 l! weights[1] $end
     $var real 64 n! bias $end
     $var real 64 p sum $end
     $var real 64 r weight_gradient[0] $end
     $var real 64 t weight_gradient[1] $end
     $var real 64 v bias_gradient $end
     $var real 64 n local_error_gradient $end
     $scope module predict $end
      $var wire 32 * activation [31:0] $end
      $var real 64 p sum $end
      $var real 64 l prediction $end
     $upscope $end
     $scope module unnamedblk1 $end
      $var wire 32 H" i [31:0] $end
     $upscope $end
     $scope module unnamedblk2 $end
      $var wire 32 H" i [31:0] $end
     $upscope $end
     $scope module unnamedblk3 $end
      $var wire 32 x i [31:0] $end
     $upscope $end
     $scope module unnamedblk4 $end
      $var wire 32 y i [31:0] $end
     $upscope $end
     $scope module unnamedblk5 $end
      $var wire 32 z i [31:0] $end
     $upscope $end
     $scope module unnamedblk6 $end
      $var wire 32 H" i [31:0] $end
     $upscope $end
     $scope module unnamedblk7 $end
      $var wire 32 p! i [31:0] $end
     $upscope $end
     $scope module unnamedblk8 $end
      $var wire 32 q! i [31:0] $end
     $upscope $end
    $upscope $end
    $scope module unnamedblk1 $end
     $var wire 32 I" i [31:0] $end
    $upscope $end
   $upscope $end
   $scope module gen_output_layer[0] $end
    $scope module output_perceptron $end
     $var wire 32 ." input_units [31:0] $end
     $var wire 32 /" output_units [31:0] $end
     $var wire 1 (" clk $end
     $var wire 1 # rst $end
     $var real 64 5 values[0] $end
     $var real 64 7 values[1] $end
     $var real 64 9 values[2] $end
     $var real 64 ; values[3] $end
     $var wire 32 + activation [31:0] $end
     $var wire 1 , training $end
     $var real 64 - learning_rate $end
     $var real 64 +" next_layer_weights[0] $end
     $var real 64 { error_gradient_next_layer[0] $end
     $var real 64 } prediction $end
     $var real 64 !! error_gradient $end
     $var real 64 r! current_weights[0] $end
     $var real 64 t! current_weights[1] $end
     $var real 64 v! current_weights[2] $end
     $var real 64 x! current_weights[3] $end
     $var real 64 z! weights[0] $end
     $var real 64 |! weights[1] $end
     $var real 64 ~! weights[2] $end
     $var real 64 "" weights[3] $end
     $var real 64 $" bias $end
     $var real 64 #! sum $end
     $var real 64 %! weight_gradient[0] $end
     $var real 64 '! weight_gradient[1] $end
     $var real 64 )! weight_gradient[2] $end
     $var real 64 +! weight_gradient[3] $end
     $var real 64 -! bias_gradient $end
     $var real 64 !! local_error_gradient $end
     $scope module predict $end
      $var wire 32 + activation [31:0] $end
      $var real 64 #! sum $end
      $var real 64 } prediction $end
     $upscope $end
     $scope module unnamedblk1 $end
      $var wire 32 J" i [31:0] $end
     $upscope $end
     $scope module unnamedblk2 $end
      $var wire 32 J" i [31:0] $end
     $upscope $end
     $scope module unnamedblk3 $end
      $var wire 32 /! i [31:0] $end
     $upscope $end
     $scope module unnamedblk4 $end
      $var wire 32 0! i [31:0] $end
     $upscope $end
     $scope module unnamedblk5 $end
      $var wire 32 1! i [31:0] $end
     $upscope $end
     $scope module unnamedblk6 $end
      $var wire 32 J" i [31:0] $end
     $upscope $end
     $scope module unnamedblk7 $end
      $var wire 32 &" i [31:0] $end
     $upscope $end
     $scope module unnamedblk8 $end
      $var wire 32 '" i [31:0] $end
     $upscope $end
    $upscope $end
   $upscope $end
   $scope module unnamedblk2 $end
    $var wire 32 I" i [31:0] $end
   $upscope $end
  $upscope $end
  $scope module unnamedblk1 $end
   $var wire 32 2 epoch [31:0] $end
  $upscope $end
 $upscope $end
$enddefinitions $end


#0
1#
r0 $
r0 &
r0 (
b00000000000000000000000000000011 *
b00000000000000000000000000000001 +
1,
r0.1 -
r0 /
b00000000000000000000000000000000 1
b00000000000000000000000000000000 2
r0.5 3
r0 5
r0 7
r0 9
r0 ;
r1.999999960000001 =
r0 ?
r0 A
r0 C
r0 E
r0 G
r0 I
b00000000000000000000000000000000 K
b00000000000000000000000000000000 L
b00000000000000000000000000000001 M
r0 N
r0 P
r0 R
r0 T
r0 V
r0 X
b00000000000000000000000000000000 Z
b00000000000000000000000000000000 [
b00000000000000000000000000000001 \
r0 ]
r0 _
r0 a
r0 c
r0 e
r0 g
b00000000000000000000000000000000 i
b00000000000000000000000000000000 j
b00000000000000000000000000000001 k
r0 l
r0 n
r0 p
r0 r
r0 t
r0 v
b00000000000000000000000000000000 x
b00000000000000000000000000000000 y
b00000000000000000000000000000001 z
r1.999999960000001 {
r0.5 }
r0.4999999900000002 !!
r0 #!
r0 %!
r0 '!
r0 )!
r0 +!
r0.4999999900000002 -!
b00000000000000000000000000000001 /!
b00000000000000000000000000000000 0!
b00000000000000000000000000000000 1!
r0 2!
r0 4!
r0 6!
r0 8!
r0 :!
r0 <!
r0 >!
r0 @!
r0 B!
r0 D!
b00000000000000000000000000000000 F!
b00000000000000000000000000000000 G!
r0 H!
r0 J!
r0 L!
r0 N!
r0 P!
r0 R!
b00000000000000000000000000000000 T!
b00000000000000000000000000000000 U!
r0 V!
r0 X!
r0 Z!
r0 \!
r0 ^!
r0 `!
b00000000000000000000000000000000 b!
b00000000000000000000000000000000 c!
r0 d!
r0 f!
r0 h!
r0 j!
r0 l!
r0 n!
b00000000000000000000000000000000 p!
b00000000000000000000000000000000 q!
r0 r!
r0 t!
r0 v!
r0 x!
r0 z!
r0 |!
r0 ~!
r0 ""
r0 $"
b00000000000000000000000000000000 &"
b00000000000000000000000000000000 '"
0("
r0.6931471605599454 )"
r1 +"
b00000000000000000000000000000010 -"
b00000000000000000000000000000100 ."
b00000000000000000000000000000001 /"
r0 0"
r0 2"
r0 4"
r0 6"
r0 8"
r0 :"
r0 <"
r0 >"
r0 @"
r0 B"
r0 D"
r0 F"
b00000000000000000000000000000010 H"
b00000000000000000000000000000001 I"
b00000000000000000000000000000100 J"
b00000000000000000000000000100000 K"
b0000000000000000000000000000001010110111111000010101000101100000 L"
b0000000000000000000000000000000000000000000000000000000000101010 N"
r2.718281828 P"
r1e-08 R"
#5
r0.5719961329195292 3
r0.35 9
r0.3 ;
r2.336427433371091 =
r-0.31 C
r-0.49 R
r0.35 ]
r-1.121485168018123 _
r0.35 a
r-1.121485168018123 g
r0.3 l
r0.6074711326764836 n
r0.3 p
r0.6074711326764836 v
r2.336427433371091 {
r0.5719961329195292 }
r0.5719961195552548 !!
r0.29 #!
r0.2001986418443392 )!
r0.1715988358665765 +!
r0.5719961195552548 -!
r-0.24 2!
r-0.35 4!
r-0.48 6!
r0.26 8!
r-0.24 :!
r-0.26 <!
r-0.07000000000000001 >!
r-0.26 @!
r-0.07000000000000001 B!
r-0.31 D!
b00000000000000000000000000000010 F!
r-0.35 H!
r0.49 J!
r-0.08000000000000002 L!
r0.49 N!
r-0.08000000000000002 P!
r-0.49 R!
b00000000000000000000000000000010 T!
r-0.48 V!
r0.04000000000000004 X!
r0.49 Z!
r0.04000000000000004 \!
r0.49 ^!
r0.35 `!
b00000000000000000000000000000010 b!
r0.26 d!
r0.1899999999999999 f!
r-0.44 h!
r0.1899999999999999 j!
r-0.44 l!
r0.3 n!
b00000000000000000000000000000010 p!
r-0.24 r!
r-0.35 t!
r-0.48 v!
r0.26 x!
r-0.24 z!
r-0.35 |!
r-0.48 ~!
r0.26 ""
r0.38 $"
b00000000000000000000000000000100 &"
1("
r0.8486230248421384 )"
#10
0("
#15
r0.4206757478644204 3
r0.32 7
r0 9
r0 ;
r1.726149007317027 =
r-0.08000000000000002 C
r0.32 N
r-0.4315372518292567 P
r0.32 R
r-0.4315372518292567 X
r0 ]
r0 _
r-0.43 a
r0 g
r0 l
r0 n
r-0.02000000000000002 p
r0 v
r1.726149007317027 {
r0.4206757478644204 }
r0.4206757406029301 !!
r-0.32 #!
r0.1346162369929376 '!
r0 )!
r0 +!
r0.4206757406029301 -!
r-0.18 2!
r-0.25 4!
r0.06999999999999995 6!
r0.24 8!
r-0.18 :!
r0.27 <!
r0.15 >!
r0.27 @!
r0.15 B!
r-0.08000000000000002 D!
r-0.25 H!
r-0.04999999999999999 J!
r-0.09999999999999998 L!
r-0.04999999999999999 N!
r-0.09999999999999998 P!
r0.32 R!
r0.06999999999999995 V!
r-0.11 X!
r-0.19 Z!
r-0.11 \!
r-0.19 ^!
r-0.43 `!
r0.24 d!
r-0.02000000000000002 f!
r-0.19 h!
r-0.02000000000000002 j!
r-0.19 l!
r-0.02000000000000002 n!
r-0.18 r!
r-0.25 t!
r0.06999999999999995 v!
r0.24 x!
r-0.18 z!
r-0.25 |!
r0.06999999999999995 ~!
r0.24 ""
r-0.24 $"
1("
r0.5458929199413179 )"
#20
0("
#25
0#
r0.4066709764488702 3
r0.3631537251829256 7
r1.685405472263689 =
r0.3631537251829256 N
r-0.4440396623142664 P
r0.3631537251829256 R
r-0.4440396623142664 X
r1.685405472263689 {
r0.4066709764488702 }
r0.4066709695948152 !!
r-0.3777446441494337 #!
r0.1476840775321094 '!
r0.4066709695948152 -!
r-0.2634616236992938 4!
b00000000000000000000000000000010 G!
r-0.2634616236992938 H!
r0.3631537251829256 R!
b00000000000000000000000000000010 U!
b00000000000000000000000000000010 c!
b00000000000000000000000000000010 q!
r-0.2634616236992938 t!
r-0.2634616236992938 |!
r-0.282067574060293 $"
b00000000000000000000000000000100 '"
1("
r0.5220061712143127 )"
#30
0("
#35
r0.3926636268580989 3
r0.4075576914143523 7
r1.64653399295256 =
r0.4075576914143523 N
r-0.4581152046468088 P
r0.4075576914143523 R
r-0.4581152046468088 X
r1.64653399295256 {
r0.3926636268580989 }
r0.3926636203927588 !!
r-0.4361294603206999 #!
r0.1600330786296743 '!
r0.3926636203927588 -!
r-0.2782300314525047 4!
r-0.2782300314525047 H!
r0.4075576914143523 R!
r-0.2782300314525047 t!
r-0.2782300314525047 |!
r-0.3227346710197745 $"
1("
r0.498672468204256 )"
#40
0("
#45
r0.3786229119832042 3
r0.4533692118790332 7
r1.609328704246789 =
r0.4533692118790332 N
r-0.4735181587067746 P
r0.4533692118790332 R
r-0.4735181587067746 X
r1.609328704246789 {
r0.3786229119832042 }
r0.378622905889917 !!
r-0.4953973702130421 #!
r0.171655968442661 '!
r0.378622905889917 -!
r-0.2942333393154721 4!
r-0.2942333393154721 H!
r0.4533692118790332 R!
r-0.2942333393154721 t!
r-0.2942333393154721 |!
r-0.3620010330590503 $"
1("
r0.475817138162949 )"
#50
0("
#55
r1 &
r1 (
r0.4122619133187449 3
r0.199557467810546 7
r-2.42564239731361 =
r-0.02409577445145701 C
r0.199557467810546 N
r0.6607836357843022 P
r0.199557467810546 R
r0.6607836357843022 V
r0.6607836357843022 X
r-0.62 a
r-0.21 p
r-2.42564239731361 {
r0.4122619133187449 }
r-0.5877380724248309 !!
r-0.3546225586015583 #!
r-0.1172875214689506 '!
r-0.5877380724248309 -!
r-0.175678122429108 2!
r-0.2724159325859895 4!
r-0.175678122429108 :!
r0.1029521127742715 >!
r0.1029521127742715 B!
r-0.1270478872257285 D!
r-0.2724159325859895 H!
r-0.1769058720342436 L!
r-0.1769058720342436 P!
r0.3764633398447896 R!
r-0.175678122429108 r!
r-0.2724159325859895 t!
r-0.175678122429108 z!
r-0.2724159325859895 |!
r-0.3002599249034499 $"
1("
r0.8860963954167238 )"
#60
0("
#65
r0.4355956243841711 3
r0.06740074065368556 7
r-2.295707121614667 =
r0.06740074065368556 N
r0.5984614166476766 P
r0.06740074065368556 R
r0.5984614166476766 V
r0.5984614166476766 X
r-2.295707121614667 {
r0.4355956243841711 }
r-0.5644043626587575 !!
r-0.2590566267014827 #!
r-0.0380412720713716 '!
r-0.5644043626587575 -!
r-0.2606871804390944 4!
r-0.2606871804390944 H!
r-0.2429842356126738 L!
r-0.2429842356126738 P!
r0.3103849762663594 R!
r-0.2606871804390944 t!
r-0.2606871804390944 |!
r-0.2414861176609668 $"
1("
r0.8310409100484586 )"
#70
0("
#75
r1 $
r0 &
r0.443672406664037 3
r0.05872458008142878 5
r0.1354005006274009 7
r-2.253915191570794 =
r0.05872458008142878 ?
r0.377184090885321 A
r0.05872458008142878 C
r0.377184090885321 E
r0.377184090885321 I
r0.1354005006274009 N
r0.5533602422538281 P
r0.1354005006274009 R
r0.5533602422538281 T
r0 V
r0.5533602422538281 X
r-0.54 a
r-0.04000000000000004 p
r-2.253915191570794 {
r0.443672406664037 }
r-0.5563275807968109 !!
r-0.2262708501497588 #!
r-0.03267010357000986 %!
r-0.07532703295271902 '!
r-0.5563275807968109 -!
r-0.1673461771303182 2!
r-0.2455106759665529 4!
r-0.1673461771303182 :!
r0.2278862336535787 <!
r0.2278862336535787 @!
r-0.1691616535721499 D!
r-0.2455106759665529 H!
r-0.1124922378194792 J!
r-0.1124922378194792 N!
r0.2478927384468801 R!
r-0.1673461771303182 r!
r-0.2455106759665529 t!
r-0.1673461771303182 z!
r-0.2455106759665529 |!
r-0.1832012477343056 $"
1("
r0.812668789164729 )"
#80
0("
#85
r0.4666860989850695 3
r0 5
r0.02472845217663527 7
r-2.142767870624563 =
r0 ?
r0 A
r-0.01671223809563543 C
r0 E
r0 I
r0.02472845217663527 N
r0.5099315537563911 P
r0.02472845217663527 R
r0.5099315537563911 T
r0.5099315537563911 X
r-2.142767870624563 {
r0.4666860989850695 }
r-0.5333138895872516 !!
r-0.1334533165709189 #!
r-0 %!
r-0.0131880270137937 '!
r-0.5333138895872516 -!
r-0.1640791667733172 2!
r-0.237977972671281 4!
r-0.1640791667733172 :!
r0.1901678245650466 <!
r0.1901678245650466 @!
r-0.206880062660682 D!
r-0.237977972671281 H!
r-0.167828262044862 J!
r-0.167828262044862 N!
r0.1925567142214973 R!
r-0.1640791667733172 r!
r-0.237977972671281 t!
r-0.1640791667733172 z!
r-0.237977972671281 |!
r-0.1275684896546245 $"
1("
r0.7620983908038752 )"
#90
0("
#95
r1 &
r0 (
r0.4491806959083898 3
r0.1781832120369217 5
r0 7
r1.81547737055873 =
r0.1781832120369217 ?
r-0.3051565577186964 A
r0.1781832120369217 C
r-0.3051565577186964 E
r-0.3051565577186964 G
r-0.3051565577186964 I
r0 N
r0 P
r-0.2182557834360385 R
r0 T
r0 X
r-0.73 a
r-0.23 p
r1.81547737055873 {
r0.4491806959083898 }
r0.4491806877536159 !!
r-0.2039815660845821 #!
r0.08003645772889285 %!
r0 '!
r0.4491806877536159 -!
r-0.1680861258131693 2!
r-0.1680861258131693 :!
r0.2208156036844751 <!
r0.1335998918937001 >!
r0.2208156036844751 @!
r0.1335998918937001 B!
r-0.1762322835412534 D!
r-0.1680861258131693 r!
r-0.1680861258131693 z!
r-0.1740314402883495 $"
1("
r0.5963484472166192 )"
#100
0("
#105
0,
1("
#110
0("
#115
r0 $
r0 &
r0.445256407972845 3
r0 5
r0.1925567142214973 7
r1.80263457991364 =
r0 ?
r0 A
r-0.1762322835412534 C
r0 E
r0 G
r0 I
r0.1925567142214973 N
r-0.4289873227949942 P
r0.1925567142214973 R
r-0.4289873227949942 X
r-0.43 a
r-0.02000000000000002 p
r1.80263457991364 {
r0.445256407972845 }
r0.445256399946499 !!
r-0.2198556967630246 #!
r0 %!
r0.08573710935979072 '!
r0.445256399946499 -!
1("
r0.5892492503100184 )"
#120
0("
#125
1("
#130
0("
#135
r1 &
r1 (
r0.4566016183740769 3
r0 7
r-2.190092934098642 =
r-0.04263239164755339 C
r0 N
r0 P
r-0.05042752139117648 R
r0 X
r-0.62 a
r-0.21 p
r-2.190092934098642 {
r0.4566016183740769 }
r-0.5433983697249936 !!
r-0.1740314402883495 #!
r-0 '!
r-0.5433983697249936 -!
1("
r0.7839439785895229 )"
#140
0("
#145
1("
#150
0("
#155
r1 $
r0 &
r0.4532841255538768 3
r0.04458332014322164 5
r0.02472845217663527 7
r-2.206121771233137 =
r0.04458332014322164 ?
r0.3708184615986649 A
r0.04458332014322164 C
r0.3708184615986649 E
r0.3708184615986649 I
r0.02472845217663527 N
r0.5250083865840375 P
r0.02472845217663527 R
r0.5250083865840375 T
r0.5250083865840375 X
r-0.54 a
r-0.04000000000000004 p
r-2.206121771233137 {
r0.4532841255538768 }
r-0.5467158623849052 !!
r-0.1874101047634062 #!
r-0.02437440832008373 %!
r-0.01351943705719304 '!
r-0.5467158623849052 -!
1("
r0.7912361193228672 )"
#160
0("
#165
1("
#170
0("
#175
r1 &
r0 (
r0.4491806959083898 3
r0.1781832120369217 5
r0 7
r1.81547737055873 =
r0.1781832120369217 ?
r-0.3051565577186964 A
r0.1781832120369217 C
r-0.3051565577186964 E
r-0.3051565577186964 G
r-0.3051565577186964 I
r0 N
r0 P
r-0.2182557834360385 R
r0 T
r0 X
r-0.73 a
r-0.23 p
r1.81547737055873 {
r0.4491806959083898 }
r0.4491806877536159 !!
r-0.2039815660845821 #!
r0.08003645772889285 %!
r0 '!
r0.4491806877536159 -!
1("
r0.5963484472166192 )"
#180
0("
#185
1,
b00000000000000000000000000000001 2
r0.4337797463869181 3
r0.2697301793525306 5
r1.766097160880372 =
r0.2697301793525306 ?
r-0.3109916456582112 A
r0.2697301793525306 C
r-0.3109916456582112 E
r-0.3109916456582112 G
r-0.3109916456582112 I
r1.766097160880372 {
r0.4337797463869181 }
r0.4337797387259462 !!
r-0.2664462347357648 #!
r0.1170034867260434 %!
r0.4337797387259462 -!
r-0.1760897715860585 2!
r-0.1760897715860585 :!
r0.2513312594563447 <!
r0.1641155476655697 >!
r0.2513312594563447 @!
r0.1641155476655697 B!
r-0.1457166277693838 D!
r-0.1760897715860585 r!
r-0.1760897715860585 z!
r-0.2189495090637111 $"
1("
r0.5687721181544164 )"
#190
0("
#195
r0 $
r0 &
r0.4206358643272815 3
r0 5
r0.2346164534192088 7
r1.726030178893565 =
r0 ?
r0 A
r-0.1457166277693838 C
r0 E
r0 G
r0 I
r0.2346164534192088 N
r-0.4251878639924715 P
r0.2346164534192088 R
r-0.4251878639924715 X
r-0.43 a
r-0.02000000000000002 p
r1.726030178893565 {
r0.4206358643272815 }
r0.4206358570669795 !!
r-0.3201636553176107 #!
r0 %!
r0.09868809296600398 '!
r0.4206358570669795 -!
r-0.2463386035724063 4!
r-0.2463386035724063 H!
r0.2346164534192088 R!
r-0.2463386035724063 t!
r-0.2463386035724063 |!
r-0.2623685658072122 $"
1("
r0.5458240773829807 )"
#200
0("
#205
r0.4072280868986067 3
r0.277135239818456 7
r1.686989482848617 =
r0.277135239818456 N
r-0.4322192109378679 P
r0.277135239818456 R
r-0.4322192109378679 X
r1.686989482848617 {
r0.4072280868986067 }
r0.4072280800287117 !!
r-0.3754362543226285 #!
r0.1128572516195664 '!
r0.4072280800287117 -!
r-0.2562074128690067 4!
r-0.2562074128690067 H!
r0.277135239818456 R!
r-0.2562074128690067 t!
r-0.2562074128690067 |!
r-0.3044321515139102 $"
1("
r0.5229455693112136 )"
#210
0("
#215
r1 &
r1 (
r0.4386637428390688 3
r0 7
r-2.279650400854676 =
r-0.06514542164811421 C
r0 N
r0 P
r-0.08740449225557201 R
r0 X
r-0.62 a
r-0.21 p
r-2.279650400854676 {
r0.4386637428390688 }
r-0.5613362443644269 !!
r-0.246586956946779 #!
r-0 '!
r-0.5613362443644269 -!
r-0.1750254824848386 2!
r-0.2542319413860603 4!
r-0.1750254824848386 :!
r0.1223433768934196 >!
r0.1223433768934196 B!
r-0.1874887985415339 D!
r-0.2542319413860603 H!
r-0.3037619838433509 L!
r-0.3037619838433509 P!
r0.2163574915877789 R!
r-0.1750254824848386 r!
r-0.2542319413860603 t!
r-0.1750254824848386 z!
r-0.2542319413860603 |!
r-0.246586956946779 $"
1("
r0.8240220982511743 )"
#220
0("
#225
r0.4525300678592251 3
r-2.209797865217445 =
r-2.209797865217445 {
r0.4525300678592251 }
r-0.547469920042796 !!
r-0.1904533325103363 #!
r-0.547469920042796 -!
r-0.1904533325103363 $"
1("
r0.7929010476440885 )"
#230
0("
#235
r1 $
r0 &
r0.4662701757648277 3
r-2.144679266506586 =
r-0.01451922492055088 C
r-0.06529444480081356 R
r-0.54 a
r-0.04000000000000004 p
r-2.144679266506586 {
r0.4662701757648277 }
r-0.5337298127883795 !!
r-0.1351245213837717 #!
r-0.5337298127883795 -!
r-0.1714931550230279 2!
r-0.2515468768105626 4!
r-0.1714931550230279 :!
r0.2121504165386638 <!
r0.2121504165386638 @!
r-0.2266696414592147 D!
r-0.2515468768105626 H!
r-0.2247400992167272 J!
r-0.2247400992167272 N!
r0.1594456544159137 R!
r-0.1714931550230279 r!
r-0.2515468768105626 t!
r-0.1714931550230279 z!
r-0.2515468768105626 |!
r-0.1351245213837717 $"
1("
r0.762990015095682 )"
#240
0("
#245
r0.4795734901090356 3
r-2.085186107599024 =
r-2.085186107599024 {
r0.4795734901090356 }
r-0.5204264990391031 !!
r-0.08175154010493378 #!
r-0.5204264990391031 -!
r-0.08175154010493378 $"
1("
r0.7348581115066466 )"
#250
0("
