Full_MLP/sim.vcd
$version Generated by VerilatedVcd $end
$timescale 1ps $end
 $scope module $rootio $end
 $upscope $end
 $scope module FixedPoint $end
  $var wire 32 R! frac_bits [31:0] $end
  $var wire 64 S! epsilon [63:0] $end
  $var wire 64 % ONE [63:0] $end
  $var wire 64 U! HALF [63:0] $end
  $var wire 32 L! lcg_next__Vstatic__current [31:0] $end
 $upscope $end
 $scope module BenchMLP $end
  $var wire 32 N! inputs [31:0] $end
  $var wire 32 N! hidden_layer_size [31:0] $end
  $var wire 32 O! outputs [31:0] $end
  $var wire 1 M! clk $end
  $var wire 1 ' rst $end
  $var wire 64 ( values[0] [63:0] $end
  $var wire 64 * values[1] [63:0] $end
  $var wire 64 , expected[0] [63:0] $end
  $var wire 32 . hidden_activation [31:0] $end
  $var wire 32 / output_activation [31:0] $end
  $var wire 1 0 training $end
  $var wire 64 1 learning_rate [63:0] $end
  $var wire 64 7 prediction[0] [63:0] $end
  $var wire 64 3 threshold [63:0] $end
  $var wire 32 5 correct [31:0] $end
  $scope module mlp $end
   $var wire 32 N! inputs [31:0] $end
   $var wire 32 N! hidden_layer_size [31:0] $end
   $var wire 32 O! outputs [31:0] $end
   $var wire 1 M! clk $end
   $var wire 1 ' rst $end
   $var wire 64 ( values[0] [63:0] $end
   $var wire 64 * values[1] [63:0] $end
   $var wire 64 , expected[0] [63:0] $end
   $var wire 32 . hidden_activation [31:0] $end
   $var wire 32 / output_activation [31:0] $end
   $var wire 1 0 training $end
   $var wire 64 1 learning_rate [63:0] $end
   $var wire 64 7 prediction[0] [63:0] $end
   $var wire 64 9 hidden_predictions[0] [63:0] $end
   $var wire 64 ; hidden_predictions[1] [63:0] $end
   $var wire 64 z next_layer_weights[0][0] [63:0] $end
   $var wire 64 | next_layer_weights[1][0] [63:0] $end
   $var wire 64 = output_error_gradients[0] [63:0] $end
   $var wire 64 ~ output_weights[0][0] [63:0] $end
   $var wire 64 "! output_weights[0][1] [63:0] $end
   $var wire 64 ? activation_gradients[0] [63:0] $end
   $scope module gen_hidden_layer[0] $end
    $scope module hidden_perceptron $end
     $var wire 32 N! input_units [31:0] $end
     $var wire 32 O! output_units [31:0] $end
     $var wire 1 M! clk $end
     $var wire 1 ' rst $end
     $var wire 64 ( values[0] [63:0] $end
     $var wire 64 * values[1] [63:0] $end
     $var wire 32 . activation [31:0] $end
     $var wire 1 0 training $end
     $var wire 64 1 learning_rate [63:0] $end
     $var wire 64 $! next_layer_weights[0] [63:0] $end
     $var wire 64 = error_gradient_next_layer[0] [63:0] $end
     $var wire 64 A prediction [63:0] $end
     $var wire 64 C error_gradient [63:0] $end
     $var wire 64 &! current_weights[0] [63:0] $end
     $var wire 64 (! current_weights[1] [63:0] $end
     $var wire 64 *! weights[0] [63:0] $end
     $var wire 64 ,! weights[1] [63:0] $end
     $var wire 64 .! bias [63:0] $end
     $var wire 64 E sum [63:0] $end
     $var wire 64 G weight_gradient[0] [63:0] $end
     $var wire 64 I weight_gradient[1] [63:0] $end
     $var wire 64 K bias_gradient [63:0] $end
     $var wire 64 M local_error_gradient [63:0] $end
     $scope module predict $end
      $var wire 32 . activation [31:0] $end
      $var wire 64 E sum [63:0] $end
      $var wire 64 A prediction [63:0] $end
     $upscope $end
     $scope module unnamedblk1 $end
      $var wire 32 P! i [31:0] $end
     $upscope $end
     $scope module unnamedblk2 $end
      $var wire 32 P! i [31:0] $end
     $upscope $end
     $scope module unnamedblk3 $end
      $var wire 32 O i [31:0] $end
     $upscope $end
     $scope module unnamedblk4 $end
      $var wire 32 P i [31:0] $end
     $upscope $end
     $scope module unnamedblk5 $end
      $var wire 32 Q i [31:0] $end
     $upscope $end
     $scope module unnamedblk6 $end
      $var wire 32 R i [31:0] $end
     $upscope $end
     $scope module unnamedblk7 $end
      $var wire 32 0! i [31:0] $end
     $upscope $end
     $scope module unnamedblk8 $end
      $var wire 32 1! i [31:0] $end
     $upscope $end
    $upscope $end
    $scope module unnamedblk1 $end
     $var wire 32 Q! i [31:0] $end
    $upscope $end
   $upscope $end
   $scope module gen_hidden_layer[1] $end
    $scope module hidden_perceptron $end
     $var wire 32 N! input_units [31:0] $end
     $var wire 32 O! output_units [31:0] $end
     $var wire 1 M! clk $end
     $var wire 1 ' rst $end
     $var wire 64 ( values[0] [63:0] $end
     $var wire 64 * values[1] [63:0] $end
     $var wire 32 . activation [31:0] $end
     $var wire 1 0 training $end
     $var wire 64 1 learning_rate [63:0] $end
     $var wire 64 2! next_layer_weights[0] [63:0] $end
     $var wire 64 = error_gradient_next_layer[0] [63:0] $end
     $var wire 64 S prediction [63:0] $end
     $var wire 64 U error_gradient [63:0] $end
     $var wire 64 4! current_weights[0] [63:0] $end
     $var wire 64 6! current_weights[1] [63:0] $end
     $var wire 64 8! weights[0] [63:0] $end
     $var wire 64 :! weights[1] [63:0] $end
     $var wire 64 <! bias [63:0] $end
     $var wire 64 W sum [63:0] $end
     $var wire 64 Y weight_gradient[0] [63:0] $end
     $var wire 64 [ weight_gradient[1] [63:0] $end
     $var wire 64 ] bias_gradient [63:0] $end
     $var wire 64 _ local_error_gradient [63:0] $end
     $scope module predict $end
      $var wire 32 . activation [31:0] $end
      $var wire 64 W sum [63:0] $end
      $var wire 64 S prediction [63:0] $end
     $upscope $end
     $scope module unnamedblk1 $end
      $var wire 32 P! i [31:0] $end
     $upscope $end
     $scope module unnamedblk2 $end
      $var wire 32 P! i [31:0] $end
     $upscope $end
     $scope module unnamedblk3 $end
      $var wire 32 a i [31:0] $end
     $upscope $end
     $scope module unnamedblk4 $end
      $var wire 32 b i [31:0] $end
     $upscope $end
     $scope module unnamedblk5 $end
      $var wire 32 c i [31:0] $end
     $upscope $end
     $scope module unnamedblk6 $end
      $var wire 32 d i [31:0] $end
     $upscope $end
     $scope module unnamedblk7 $end
      $var wire 32 >! i [31:0] $end
     $upscope $end
     $scope module unnamedblk8 $end
      $var wire 32 ?! i [31:0] $end
     $upscope $end
    $upscope $end
    $scope module unnamedblk1 $end
     $var wire 32 Q! i [31:0] $end
    $upscope $end
   $upscope $end
   $scope module gen_output_layer[0] $end
    $scope module output_perceptron $end
     $var wire 32 N! input_units [31:0] $end
     $var wire 32 O! output_units [31:0] $end
     $var wire 1 M! clk $end
     $var wire 1 ' rst $end
     $var wire 64 9 values[0] [63:0] $end
     $var wire 64 ; values[1] [63:0] $end
     $var wire 32 / activation [31:0] $end
     $var wire 1 0 training $end
     $var wire 64 1 learning_rate [63:0] $end
     $var wire 64 # next_layer_weights[0] [63:0] $end
     $var wire 64 e error_gradient_next_layer[0] [63:0] $end
     $var wire 64 g prediction [63:0] $end
     $var wire 64 i error_gradient [63:0] $end
     $var wire 64 @! current_weights[0] [63:0] $end
     $var wire 64 B! current_weights[1] [63:0] $end
     $var wire 64 D! weights[0] [63:0] $end
     $var wire 64 F! weights[1] [63:0] $end
     $var wire 64 H! bias [63:0] $end
     $var wire 64 k sum [63:0] $end
     $var wire 64 m weight_gradient[0] [63:0] $end
     $var wire 64 o weight_gradient[1] [63:0] $end
     $var wire 64 q bias_gradient [63:0] $end
     $var wire 64 s local_error_gradient [63:0] $end
     $scope module predict $end
      $var wire 32 / activation [31:0] $end
      $var wire 64 k sum [63:0] $end
      $var wire 64 g prediction [63:0] $end
     $upscope $end
     $scope module unnamedblk1 $end
      $var wire 32 P! i [31:0] $end
     $upscope $end
     $scope module unnamedblk2 $end
      $var wire 32 P! i [31:0] $end
     $upscope $end
     $scope module unnamedblk3 $end
      $var wire 32 u i [31:0] $end
     $upscope $end
     $scope module unnamedblk4 $end
      $var wire 32 v i [31:0] $end
     $upscope $end
     $scope module unnamedblk5 $end
      $var wire 32 w i [31:0] $end
     $upscope $end
     $scope module unnamedblk6 $end
      $var wire 32 x i [31:0] $end
     $upscope $end
     $scope module unnamedblk7 $end
      $var wire 32 J! i [31:0] $end
     $upscope $end
     $scope module unnamedblk8 $end
      $var wire 32 K! i [31:0] $end
     $upscope $end
    $upscope $end
   $upscope $end
   $scope module unnamedblk2 $end
    $var wire 32 y i [31:0] $end
   $upscope $end
  $upscope $end
  $scope module unnamedblk1 $end
   $var wire 32 6 epoch [31:0] $end
  $upscope $end
 $upscope $end
$enddefinitions $end


#0
b0000000000000000000000000000000100000000000000000000000000000000 #
b0000000000000000000000000000000100000000000000000000000000000000 %
1'
b0000000000000000000000000000000000000000000000000000000000000000 (
b0000000000000000000000000000000000000000000000000000000000000000 *
b0000000000000000000000000000000000000000000000000000000000000000 ,
b00000000000000000000000000000011 .
b00000000000000000000000000000001 /
10
b0000000000000000000000000000000000011001100110011001100110011010 1
b0000000000000000000000000000000000000000000000000000000000000000 3
b00000000000000000000000000000000 5
b00000000000000000000000000000000 6
b0000000000000000000000000000000010000000000000000000000000000000 7
b0000000000000000000000000000000000000000000000000000000000000000 9
b0000000000000000000000000000000000000000000000000000000000000000 ;
b0000000000000000000000000000000010000000000000000000000000101010 =
b0000000000000000000000000000001000000000000000000000000010101000 ?
b0000000000000000000000000000000000000000000000000000000000000000 A
b0000000000000000000000000000000000000000000000000000000000000000 C
b0000000000000000000000000000000000000000000000000000000000000000 E
b0000000000000000000000000000000000000000000000000000000000000000 G
b0000000000000000000000000000000000000000000000000000000000000000 I
b0000000000000000000000000000000000000000000000000000000000000000 K
b0000000000000000000000000000000000000000000000000000000000000000 M
b00000000000000000000000000000000 O
b00000000000000000000000000000000 P
b00000000000000000000000000000001 Q
b00000000000000000000000000000010 R
b0000000000000000000000000000000000000000000000000000000000000000 S
b0000000000000000000000000000000000000000000000000000000000000000 U
b0000000000000000000000000000000000000000000000000000000000000000 W
b0000000000000000000000000000000000000000000000000000000000000000 Y
b0000000000000000000000000000000000000000000000000000000000000000 [
b0000000000000000000000000000000000000000000000000000000000000000 ]
b0000000000000000000000000000000000000000000000000000000000000000 _
b00000000000000000000000000000000 a
b00000000000000000000000000000000 b
b00000000000000000000000000000001 c
b00000000000000000000000000000010 d
b0000000000000000000000000000001000000000000000000000000010101000 e
b0000000000000000000000000000000010000000000000000000000000000000 g
b0000000000000000000000000000000010000000000000000000000000101010 i
b0000000000000000000000000000000000000000000000000000000000000000 k
b0000000000000000000000000000000000000000000000000000000000000000 m
b0000000000000000000000000000000000000000000000000000000000000000 o
b0000000000000000000000000000000010000000000000000000000000101010 q
b0000000000000000000000000000000010000000000000000000000000101010 s
b00000000000000000000000000000001 u
b00000000000000000000000000000000 v
b00000000000000000000000000000000 w
b00000000000000000000000000000010 x
b00000000000000000000000000000001 y
b0000000000000000000000000000000000000000000000000000000000000000 z
b0000000000000000000000000000000000000000000000000000000000000000 |
b0000000000000000000000000000000000000000000000000000000000000000 ~
b0000000000000000000000000000000000000000000000000000000000000000 "!
b0000000000000000000000000000000000000000000000000000000000000000 $!
b0000000000000000000000000000000000000000000000000000000000000000 &!
b0000000000000000000000000000000000000000000000000000000000000000 (!
b0000000000000000000000000000000000000000000000000000000000000000 *!
b0000000000000000000000000000000000000000000000000000000000000000 ,!
b0000000000000000000000000000000000000000000000000000000000000000 .!
b00000000000000000000000000000000 0!
b00000000000000000000000000000000 1!
b0000000000000000000000000000000000000000000000000000000000000000 2!
b0000000000000000000000000000000000000000000000000000000000000000 4!
b0000000000000000000000000000000000000000000000000000000000000000 6!
b0000000000000000000000000000000000000000000000000000000000000000 8!
b0000000000000000000000000000000000000000000000000000000000000000 :!
b0000000000000000000000000000000000000000000000000000000000000000 <!
b00000000000000000000000000000000 >!
b00000000000000000000000000000000 ?!
b0000000000000000000000000000000000000000000000000000000000000000 @!
b0000000000000000000000000000000000000000000000000000000000000000 B!
b0000000000000000000000000000000000000000000000000000000000000000 D!
b0000000000000000000000000000000000000000000000000000000000000000 F!
b0000000000000000000000000000000000000000000000000000000000000000 H!
b00000000000000000000000000000000 J!
b00000000000000000000000000000000 K!
b00000000000000000000000000000001 L!
0M!
b00000000000000000000000000000010 N!
b00000000000000000000000000000001 O!
b00000000000000000000000000000010 P!
b00000000000000000000000000000001 Q!
b00000000000000000000000000100000 R!
b0000000000000000000000000000000000000000000000000000000000101010 S!
b0000000000000000000000000000000010000000000000000000000000000000 U!
#5
b0000000000000000000000000000000001100001101101110000110111011110 7
b0000000000000000000000000000000000000001000101100000000101111110 9
b0000000000000000000000000000000001100001101101110000110111110110 =
b0000000000000000000000000000000110011110000010011100001001001001 ?
b0000000000000000000000000000000000000001000101100000000101111110 A
b0000000000000000000000000000000000011010110110010011010111100010 C
b0000000000000000000000000000000000000001000101100000000101111110 E
b0000000000000000000000000000000000011010110110010011010111100010 K
b0000000000000000000000000000000000011010110110010011010111100010 M
b1111111111111111111111111111111111011110100110001100000100111111 W
b0000000000000000000000000000000110011110000010011100001001001001 e
b0000000000000000000000000000000001100001101101110000110111011110 g
b0000000000000000000000000000000001100001101101110000110111110110 i
b1111111111111111111111111111111110000100100001010100100101010001 k
b0000000000000000000000000000000000000000011010100001110101011010 m
b0000000000000000000000000000000001100001101101110000110111110110 q
b0000000000000000000000000000000001100001101101110000110111110110 s
b0000000000000000000000000000000001000110010101101101110110010010 z
b0000000000000000000000000000000000001110011000100101111111001001 |
b0000000000000000000000000000000001000110010101101101110110010010 ~
b0000000000000000000000000000000000001110011000100101111111001001 "!
b0000000000000000000000000000000001000110010101101101110110010010 $!
b1111111111111111111111111111111110111100100010000101100101101100 &!
b1111111111111111111111111111111111011110100010001000010111011011 (!
b1111111111111111111111111111111110111100100010000101100101101100 *!
b1111111111111111111111111111111111011110100010001000010111011011 ,!
b0000000000000000000000000000000000000001000101100000000101111110 .!
b00000000000000000000000000000010 0!
b0000000000000000000000000000000000001110011000100101111111001001 2!
b0000000000000000000000000000000000110100011100110011101011000101 4!
b1111111111111111111111111111111110001100111100000110110101100000 6!
b0000000000000000000000000000000000110100011100110011101011000101 8!
b1111111111111111111111111111111110001100111100000110110101100000 :!
b1111111111111111111111111111111111011110100110001100000100111111 <!
b00000000000000000000000000000010 >!
b0000000000000000000000000000000001000110010101101101110110010010 @!
b0000000000000000000000000000000000001110011000100101111111001001 B!
b0000000000000000000000000000000001000110010101101101110110010010 D!
b0000000000000000000000000000000000001110011000100101111111001001 F!
b1111111111111111111111111111111110000100001110001110011010010100 H!
b00000000000000000000000000000010 J!
b00000100001110001110011010010100 L!
1M!
#10
0M!
#15
b0000000000000000000000000000000001110100111100101001011101110111 7
b0000000000000000000000000000000000000000000000000000000000000000 9
b0000000000000000000000000000000001110100111100101001011110011001 =
b0000000000000000000000000000000111010111010011011110111100111001 ?
b0000000000000000000000000000000000000000000000000000000000000000 A
b0000000000000000000000000000000000000000000000000000000000000000 C
b1111111111111111111111111111111111101100001000001111001100001101 E
b0000000000000000000000000000000000000000000000000000000000000000 K
b0000000000000000000000000000000000000000000000000000000000000000 M
b1111111111111111111111111111111110111100001011011110111101111010 W
b0000000000000000000000000000000111010111010011011110111100111001 e
b0000000000000000000000000000000001110100111100101001011101110111 g
b0000000000000000000000000000000001110100111100101001011110011001 i
b1111111111111111111111111111111111010011101011100001110011101011 k
b0000000000000000000000000000000000000000000000000000000000000000 m
b0000000000000000000000000000000001110100111100101001011110011001 q
b0000000000000000000000000000000001110100111100101001011110011001 s
b0000000000000000000000000000000001111011000110001011100010010001 z
b0000000000000000000000000000000001011100011000110001100010111100 |
b0000000000000000000000000000000001111011000110001011100010010001 ~
b0000000000000000000000000000000001011100011000110001100010111100 "!
b0000000000000000000000000000000001111011000110001011100010010001 $!
b0000000000000000000000000000000000100011101001011010000011100011 &!
b1111111111111111111111111111111111000000000111011001000011100110 (!
b0000000000000000000000000000000000100011101001011010000011100011 *!
b1111111111111111111111111111111111000000000111011001000011100110 ,!
b1111111111111111111111111111111111101100001000001111001100001101 .!
b0000000000000000000000000000000001011100011000110001100010111100 2!
b0000000000000000000000000000000000010111001101110111100100001000 4!
b0000000000000000000000000000000001010110010000010100100011000111 6!
b0000000000000000000000000000000000010111001101110111100100001000 8!
b0000000000000000000000000000000001010110010000010100100011000111 :!
b1111111111111111111111111111111110111100001011011110111101111010 <!
b0000000000000000000000000000000001111011000110001011100010010001 @!
b0000000000000000000000000000000001011100011000110001100010111100 B!
b0000000000000000000000000000000001111011000110001011100010010001 D!
b0000000000000000000000000000000001011100011000110001100010111100 F!
b1111111111111111111111111111111111010011101011100001110011101011 H!
b01010011101011100001110011101011 L!
1M!
#20
0M!
#25
0'
b0000000000000000000000000000000001110010000011010100110001010101 7
b0000000000000000000000000000000001110010000011010100110001110101 =
b0000000000000000000000000000000111001101101100001010010110111011 ?
b0000000000000000000000000000000111001101101100001010010110111011 e
b0000000000000000000000000000000001110010000011010100110001010101 g
b0000000000000000000000000000000001110010000011010100110001110101 i
b1111111111111111111111111111111111000111111111000100000011110110 k
b0000000000000000000000000000000001110010000011010100110001110101 q
b0000000000000000000000000000000001110010000011010100110001110101 s
b00000000000000000000000000000010 1!
b00000000000000000000000000000010 ?!
b1111111111111111111111111111111111000111111111000100000011110110 H!
b00000000000000000000000000000010 K!
1M!
#30
0M!
#35
b0000000000000000000000000000000100000000000000000000000000000000 *
b0000000000000000000000000000000100000000000000000000000000000000 ,
b0000000000000000000000000000000001111000000111100111000000000001 7
b0000000000000000000000000000000000011100100011111010010101000001 ;
b1111111111111111111111111111111101111000000111100111000000110010 =
b1111111111111111111111111111110111011110011010000100000111001010 ?
b1111111111111111111111111111111110101100001111101000001111110011 E
b0000000000000000000000000000000000011100100011111010010101000001 S
b1111111111111111111111111111111111001110011011010000111010110101 U
b0000000000000000000000000000000000011100100011111010010101000001 W
b1111111111111111111111111111111111001110011011010000111010110101 [
b1111111111111111111111111111111111001110011011010000111010110101 ]
b1111111111111111111111111111111111001110011011010000111010110101 _
b1111111111111111111111111111110111011110011010000100000111001010 e
b0000000000000000000000000000000001111000000111100111000000000001 g
b1111111111111111111111111111111101111000000111100111000000110010 i
b1111111111111111111111111111111111100000011011111000011101010110 k
b1111111111111111111111111111111111110000110101110001010110001111 o
b1111111111111111111111111111111101111000000111100111000000110010 q
b1111111111111111111111111111111101111000000111100111000000110010 s
b0000000000000000000000000000000001011101011001011011110010000011 |
b0000000000000000000000000000000001011101011001011011110010000011 "!
b0000000000000000000000000000000001011101011001011011110010000011 2!
b0000000000000000000000000000000001011011010100010111111101000111 6!
b0000000000000000000000000000000001011011010100010111111101000111 :!
b1111111111111111111111111111111111000001001111100010010111111010 <!
b0000000000000000000000000000000001011101011001011011110010000011 B!
b0000000000000000000000000000000001011101011001011011110010000011 F!
b1111111111111111111111111111111111010110000000111111111010011010 H!
1M!
#40
0M!
#45
b0000000000000000000000000000000100000000000000000000000000000000 (
b0000000000000000000000000000000000000000000000000000000000000000 *
b0000000000000000000000000000000001111100011010110011000100110011 7
b0000000000000000000000000000000000011100111010010100000000001010 9
b0000000000000000000000000000000000000000000000000000000000000000 ;
b1111111111111111111111111111111101111100011010110011000101100000 =
b1111111111111111111111111111110111110001010000110011011010101001 ?
b0000000000000000000000000000000000011100111010010100000000001010 A
b1111111111111111111111111111111111000000010011000000101101101010 C
b0000000000000000000000000000000000011100111010010100000000001010 E
b1111111111111111111111111111111111000000010011000000101101101010 G
b1111111111111111111111111111111111000000010011000000101101101010 K
b1111111111111111111111111111111111000000010011000000101101101010 M
b0000000000000000000000000000000000000000000000000000000000000000 S
b0000000000000000000000000000000000000000000000000000000000000000 U
b1111111111111111111111111111111111011000011101011001111100000010 W
b0000000000000000000000000000000000000000000000000000000000000000 [
b0000000000000000000000000000000000000000000000000000000000000000 ]
b0000000000000000000000000000000000000000000000000000000000000000 _
b1111111111111111111111111111110111110001010000110011011010101001 e
b0000000000000000000000000000000001111100011010110011000100110011 g
b1111111111111111111111111111111101111100011010110011000101100000 i
b1111111111111111111111111111111111110001101010111100111110110101 k
b1111111111111111111111111111111111110001001000111101011000001100 m
b0000000000000000000000000000000000000000000000000000000000000000 o
b1111111111111111111111111111111101111100011010110011000101100000 q
b1111111111111111111111111111111101111100011010110011000101100000 s
b0000000000000000000000000000000001111011111100000011001000110010 z
b0000000000000000000000000000000001111011111100000011001000110010 ~
b0000000000000000000000000000000001111011111100000011001000110010 $!
b0000000000000000000000000000000000101010001101101111011011110000 &!
b0000000000000000000000000000000000101010001101101111011011110000 *!
b1111111111111111111111111111111111110010101100100100100100011010 .!
b0000000000000000000000000000000001111011111100000011001000110010 @!
b0000000000000000000000000000000001111011111100000011001000110010 D!
b1111111111111111111111111111111111100011101011001001110110011001 H!
1M!
#50
0M!
#55
b0000000000000000000000000000000100000000000000000000000000000000 *
b0000000000000000000000000000000000000000000000000000000000000000 ,
b0000000000000000000000000000000001111001001010000111001111001111 7
b0000000000000000000000000000000000000000000000000000000000000000 9
b0000000000000000000000000000000000100110000001101011111001100101 ;
b0000000000000000000000000000000001111001001010000111001111110010 =
b0000000000000000000000000000000111100110000001010100111110100111 ?
b0000000000000000000000000000000000000000000000000000000000000000 A
b0000000000000000000000000000000000000000000000000000000000000000 C
b1111111111111111111111111111111111011101000001101101000011110000 E
b0000000000000000000000000000000000000000000000000000000000000000 G
b0000000000000000000000000000000000000000000000000000000000000000 K
b0000000000000000000000000000000000000000000000000000000000000000 M
b0000000000000000000000000000000000100110000001101011111001100101 S
b0000000000000000000000000000000000101010111111111111010110110111 U
b0000000000000000000000000000000000100110000001101011111001100101 W
b0000000000000000000000000000000000101010111111111111010110110111 Y
b0000000000000000000000000000000000101010111111111111010110110111 [
b0000000000000000000000000000000000101010111111111111010110110111 ]
b0000000000000000000000000000000000101010111111111111010110110111 _
b0000000000000000000000000000000111100110000001010100111110100111 e
b0000000000000000000000000000000001111001001010000111001111001111 g
b0000000000000000000000000000000001111001001010000111001111110010 i
b1111111111111111111111111111111111100100100110110010000000010101 k
b0000000000000000000000000000000000000000000000000000000000000000 m
b0000000000000000000000000000000000010001111111110011001001000100 o
b0000000000000000000000000000000001111001001010000111001111110010 q
b0000000000000000000000000000000001111001001010000111001111110010 s
b0000000000000000000000000000000001011010110110110011000101010110 |
b0000000000000000000000000000000001011010110110110011000101010110 "!
b0000000000000000000000000000000001011010110110110011000101010110 2!
b0000000000000000000000000000000000010010101000100000001110111100 4!
b0000000000000000000000000000000001010110101111000000100111111011 6!
b0000000000000000000000000000000000010010101000100000001110111100 8!
b0000000000000000000000000000000001010110101111000000100111111011 :!
b1111111111111111111111111111111110111100101010001011000010101110 <!
b0000000000000000000000000000000001011010110110110011000101010110 B!
b0000000000000000000000000000000001011010110110110011000101010110 F!
b1111111111111111111111111111111111010111000111000011001000001101 H!
1M!
#60
0M!
#65
b0000000000000000000000000000000000000000000000000000000000000000 (
b0000000000000000000000000000000000000000000000000000000000000000 *
00
b0000000000000000000000000000000001110101110011001001100100110100 7
b0000000000000000000000000000000000000000000000000000000000000000 ;
b0000000000000000000000000000000001110101110011001001100101010101 =
b0000000000000000000000000000000111011010001101010110011001111100 ?
b1111111111111111111111111111111111110010101100100100100100011010 E
b0000000000000000000000000000000000000000000000000000000000000000 S
b0000000000000000000000000000000000000000000000000000000000000000 U
b1111111111111111111111111111111110111100101010001011000010101110 W
b0000000000000000000000000000000000000000000000000000000000000000 Y
b0000000000000000000000000000000000000000000000000000000000000000 [
b0000000000000000000000000000000000000000000000000000000000000000 ]
b0000000000000000000000000000000000000000000000000000000000000000 _
b0000000000000000000000000000000111011010001101010110011001111100 e
b0000000000000000000000000000000001110101110011001001100100110100 g
b0000000000000000000000000000000001110101110011001001100101010101 i
b1111111111111111111111111111111111010111000111000011001000001101 k
b0000000000000000000000000000000000000000000000000000000000000000 o
b0000000000000000000000000000000001110101110011001001100101010101 q
b0000000000000000000000000000000001110101110011001001100101010101 s
1M!
#70
0M!
#75
b0000000000000000000000000000000100000000000000000000000000000000 *
b0000000000000000000000000000000100000000000000000000000000000000 ,
b0000000000000000000000000000000001110111100000101011111110001010 7
b0000000000000000000000000000000000010011011001001011101010101001 ;
b1111111111111111111111111111111101110111100000101011111110111011 =
b1111111111111111111111111111110111011011101000011000000001000111 ?
b1111111111111111111111111111111110110010110011111101101000000000 E
b0000000000000000000000000000000000010011011001001011101010101001 S
b1111111111111111111111111111111111001111100011110001100111110011 U
b0000000000000000000000000000000000010011011001001011101010101001 W
b1111111111111111111111111111111111001111100011110001100111110011 [
b1111111111111111111111111111111111001111100011110001100111110011 ]
b1111111111111111111111111111111111001111100011110001100111110011 _
b1111111111111111111111111111110111011011101000011000000001000111 e
b0000000000000000000000000000000001110111100000101011111110001010 g
b1111111111111111111111111111111101110111100000101011111110111011 i
b1111111111111111111111111111111111011101111111100011011010010100 k
b1111111111111111111111111111111111110101101010001111111111001000 o
b1111111111111111111111111111111101110111100000101011111110111011 q
b1111111111111111111111111111111101110111100000101011111110111011 s
1M!
#80
0M!
#85
b0000000000000000000000000000000100000000000000000000000000000000 (
b0000000000000000000000000000000000000000000000000000000000000000 *
b0000000000000000000000000000000001111001010010000110110111001101 7
b0000000000000000000000000000000000011100111010010100000000001010 9
b0000000000000000000000000000000000000000000000000000000000000000 ;
b1111111111111111111111111111111101111001010010000110110111111100 =
b1111111111111111111111111111110111100011101001001100011001100011 ?
b0000000000000000000000000000000000011100111010010100000000001010 A
b1111111111111111111111111111111110111110110001110110011001010101 C
b0000000000000000000000000000000000011100111010010100000000001010 E
b1111111111111111111111111111111110111110110001110110011001010101 G
b1111111111111111111111111111111110111110110001110110011001010101 K
b1111111111111111111111111111111110111110110001110110011001010101 M
b0000000000000000000000000000000000000000000000000000000000000000 S
b0000000000000000000000000000000000000000000000000000000000000000 U
b1111111111111111111111111111111111001111010010101011010001101010 W
b0000000000000000000000000000000000000000000000000000000000000000 [
b0000000000000000000000000000000000000000000000000000000000000000 ]
b0000000000000000000000000000000000000000000000000000000000000000 _
b1111111111111111111111111111110111100011101001001100011001100011 e
b0000000000000000000000000000000001111001010010000110110111001101 g
b1111111111111111111111111111111101111001010010000110110111111100 i
b1111111111111111111111111111111111100101000110110110010000101001 k
b1111111111111111111111111111111111110000110010010010110101000000 m
b0000000000000000000000000000000000000000000000000000000000000000 o
b1111111111111111111111111111111101111001010010000110110111111100 q
b1111111111111111111111111111111101111001010010000110110111111100 s
1M!
#90
0M!
#95
b0000000000000000000000000000000100000000000000000000000000000000 *
b0000000000000000000000000000000000000000000000000000000000000000 ,
b0000000000000000000000000000000001111001001010000111001111001111 7
b0000000000000000000000000000000000000000000000000000000000000000 9
b0000000000000000000000000000000000100110000001101011111001100101 ;
b0000000000000000000000000000000001111001001010000111001111110010 =
b0000000000000000000000000000000111100110000001010100111110100111 ?
b0000000000000000000000000000000000000000000000000000000000000000 A
b0000000000000000000000000000000000000000000000000000000000000000 C
b1111111111111111111111111111111111011101000001101101000011110000 E
b0000000000000000000000000000000000000000000000000000000000000000 G
b0000000000000000000000000000000000000000000000000000000000000000 K
b0000000000000000000000000000000000000000000000000000000000000000 M
b0000000000000000000000000000000000100110000001101011111001100101 S
b0000000000000000000000000000000000101010111111111111010110110111 U
b0000000000000000000000000000000000100110000001101011111001100101 W
b0000000000000000000000000000000000101010111111111111010110110111 Y
b0000000000000000000000000000000000101010111111111111010110110111 [
b0000000000000000000000000000000000101010111111111111010110110111 ]
b0000000000000000000000000000000000101010111111111111010110110111 _
b0000000000000000000000000000000111100110000001010100111110100111 e
b0000000000000000000000000000000001111001001010000111001111001111 g
b0000000000000000000000000000000001111001001010000111001111110010 i
b1111111111111111111111111111111111100100100110110010000000010101 k
b0000000000000000000000000000000000000000000000000000000000000000 m
b0000000000000000000000000000000000010001111111110011001001000100 o
b0000000000000000000000000000000001111001001010000111001111110010 q
b0000000000000000000000000000000001111001001010000111001111110010 s
1M!
#100
0M!
#105
b0000000000000000000000000000000000000000000000000000000000000000 (
b0000000000000000000000000000000000000000000000000000000000000000 *
10
b00000000000000000000000000000001 6
b0000000000000000000000000000000001110010111000001111100101110001 7
b0000000000000000000000000000000000000000000000000000000000000000 ;
b0000000000000000000000000000000001110010111000001111100110010001 =
b0000000000000000000000000000000111010000011001010010101000000111 ?
b1111111111111111111111111111111111110010101100100100100100011010 E
b0000000000000000000000000000000000000000000000000000000000000000 S
b0000000000000000000000000000000000000000000000000000000000000000 U
b1111111111111111111111111111111110111100101010001011000010101110 W
b0000000000000000000000000000000000000000000000000000000000000000 Y
b0000000000000000000000000000000000000000000000000000000000000000 [
b0000000000000000000000000000000000000000000000000000000000000000 ]
b0000000000000000000000000000000000000000000000000000000000000000 _
b0000000000000000000000000000000111010000011001010010101000000111 e
b0000000000000000000000000000000001110010111000001111100101110001 g
b0000000000000000000000000000000001110010111000001111100110010001 i
b1111111111111111111111111111111111001011010101001000100100011110 k
b0000000000000000000000000000000000000000000000000000000000000000 o
b0000000000000000000000000000000001110010111000001111100110010001 q
b0000000000000000000000000000000001110010111000001111100110010001 s
b1111111111111111111111111111111111001011010101001000100100011110 H!
1M!
#110
0M!
