Full_MLP/sim.vcd
$version Generated by VerilatedVcd $end
$timescale 1ps $end
 $scope module $rootio $end
 $upscope $end
 $scope module FixedPoint $end
  $var wire 32 3" frac_bits [31:0] $end
  $var wire 64 4" e [63:0] $end
  $var wire 64 6" epsilon [63:0] $end
 $upscope $end
 $scope module Common $end
  $var real 64 8" e $end
  $var real 64 :" epsilon $end
 $upscope $end
 $scope module BenchMLP $end
  $var wire 32 -" inputs [31:0] $end
  $var wire 32 ." hidden_layer_size [31:0] $end
  $var wire 32 /" outputs [31:0] $end
  $var wire 1 (" clk $end
  $var wire 1 # rst $end
  $var real 64 $ values[0] $end
  $var real 64 & values[1] $end
  $var real 64 ( expected[0] $end
  $var wire 32 * hidden_activation [31:0] $end
  $var wire 32 + output_activation [31:0] $end
  $var wire 1 , training $end
  $var real 64 - learning_rate $end
  $var real 64 3 prediction[0] $end
  $var real 64 / threshold $end
  $var wire 32 1 correct [31:0] $end
  $var real 64 )" cost $end
  $scope module mlp $end
   $var wire 32 -" inputs [31:0] $end
   $var wire 32 ." hidden_layer_size [31:0] $end
   $var wire 32 /" outputs [31:0] $end
   $var wire 1 (" clk $end
   $var wire 1 # rst $end
   $var real 64 $ values[0] $end
   $var real 64 & values[1] $end
   $var real 64 ( expected[0] $end
   $var wire 32 * hidden_activation [31:0] $end
   $var wire 32 + output_activation [31:0] $end
   $var wire 1 , training $end
   $var real 64 - learning_rate $end
   $var real 64 3 prediction[0] $end
   $var real 64 5 hidden_predictions[0] $end
   $var real 64 7 hidden_predictions[1] $end
   $var real 64 9 hidden_predictions[2] $end
   $var real 64 ; hidden_predictions[3] $end
   $var real 64 = output_error_gradients[0] $end
   $var real 64 2! output_weights[0][0] $end
   $var real 64 4! output_weights[0][1] $end
   $var real 64 6! output_weights[0][2] $end
   $var real 64 8! output_weights[0][3] $end
   $scope module gen_hidden_layer[0] $end
    $var real 64 :! next_layer_weights_for_hidden[0] $end
    $scope module hidden_perceptron $end
     $var wire 32 -" input_units [31:0] $end
     $var wire 32 /" output_units [31:0] $end
     $var wire 1 (" clk $end
     $var wire 1 # rst $end
     $var real 64 $ values[0] $end
     $var real 64 & values[1] $end
     $var wire 32 * activation [31:0] $end
     $var wire 1 , training $end
     $var real 64 - learning_rate $end
     $var real 64 :! next_layer_weights[0] $end
     $var real 64 = error_gradient_next_layer[0] $end
     $var real 64 ? prediction $end
     $var real 64 A error_gradient $end
     $var real 64 <! current_weights[0] $end
     $var real 64 >! current_weights[1] $end
     $var real 64 @! weights[0] $end
     $var real 64 B! weights[1] $end
     $var real 64 D! bias $end
     $var real 64 C sum $end
     $var real 64 E weight_gradient[0] $end
     $var real 64 G weight_gradient[1] $end
     $var real 64 I bias_gradient $end
     $scope module predict $end
      $var wire 32 * activation [31:0] $end
      $var real 64 C sum $end
      $var real 64 ? prediction $end
     $upscope $end
     $scope module unnamedblk1 $end
      $var wire 32 0" i [31:0] $end
     $upscope $end
     $scope module unnamedblk2 $end
      $var wire 32 0" i [31:0] $end
     $upscope $end
     $scope module unnamedblk3 $end
      $var wire 32 K i [31:0] $end
     $upscope $end
     $scope module unnamedblk4 $end
      $var wire 32 L i [31:0] $end
     $upscope $end
     $scope module unnamedblk5 $end
      $var wire 32 M i [31:0] $end
     $upscope $end
     $scope module unnamedblk6 $end
      $var wire 32 0" i [31:0] $end
     $upscope $end
     $scope module unnamedblk7 $end
      $var wire 32 F! i [31:0] $end
     $upscope $end
     $scope module unnamedblk8 $end
      $var wire 32 G! i [31:0] $end
     $upscope $end
    $upscope $end
    $scope module unnamedblk1 $end
     $var wire 32 1" i [31:0] $end
    $upscope $end
   $upscope $end
   $scope module gen_hidden_layer[1] $end
    $var real 64 H! next_layer_weights_for_hidden[0] $end
    $scope module hidden_perceptron $end
     $var wire 32 -" input_units [31:0] $end
     $var wire 32 /" output_units [31:0] $end
     $var wire 1 (" clk $end
     $var wire 1 # rst $end
     $var real 64 $ values[0] $end
     $var real 64 & values[1] $end
     $var wire 32 * activation [31:0] $end
     $var wire 1 , training $end
     $var real 64 - learning_rate $end
     $var real 64 H! next_layer_weights[0] $end
     $var real 64 = error_gradient_next_layer[0] $end
     $var real 64 N prediction $end
     $var real 64 P error_gradient $end
     $var real 64 J! current_weights[0] $end
     $var real 64 L! current_weights[1] $end
     $var real 64 N! weights[0] $end
     $var real 64 P! weights[1] $end
     $var real 64 R! bias $end
     $var real 64 R sum $end
     $var real 64 T weight_gradient[0] $end
     $var real 64 V weight_gradient[1] $end
     $var real 64 X bias_gradient $end
     $scope module predict $end
      $var wire 32 * activation [31:0] $end
      $var real 64 R sum $end
      $var real 64 N prediction $end
     $upscope $end
     $scope module unnamedblk1 $end
      $var wire 32 0" i [31:0] $end
     $upscope $end
     $scope module unnamedblk2 $end
      $var wire 32 0" i [31:0] $end
     $upscope $end
     $scope module unnamedblk3 $end
      $var wire 32 Z i [31:0] $end
     $upscope $end
     $scope module unnamedblk4 $end
      $var wire 32 [ i [31:0] $end
     $upscope $end
     $scope module unnamedblk5 $end
      $var wire 32 \ i [31:0] $end
     $upscope $end
     $scope module unnamedblk6 $end
      $var wire 32 0" i [31:0] $end
     $upscope $end
     $scope module unnamedblk7 $end
      $var wire 32 T! i [31:0] $end
     $upscope $end
     $scope module unnamedblk8 $end
      $var wire 32 U! i [31:0] $end
     $upscope $end
    $upscope $end
    $scope module unnamedblk1 $end
     $var wire 32 1" i [31:0] $end
    $upscope $end
   $upscope $end
   $scope module gen_hidden_layer[2] $end
    $var real 64 V! next_layer_weights_for_hidden[0] $end
    $scope module hidden_perceptron $end
     $var wire 32 -" input_units [31:0] $end
     $var wire 32 /" output_units [31:0] $end
     $var wire 1 (" clk $end
     $var wire 1 # rst $end
     $var real 64 $ values[0] $end
     $var real 64 & values[1] $end
     $var wire 32 * activation [31:0] $end
     $var wire 1 , training $end
     $var real 64 - learning_rate $end
     $var real 64 V! next_layer_weights[0] $end
     $var real 64 = error_gradient_next_layer[0] $end
     $var real 64 ] prediction $end
     $var real 64 _ error_gradient $end
     $var real 64 X! current_weights[0] $end
     $var real 64 Z! current_weights[1] $end
     $var real 64 \! weights[0] $end
     $var real 64 ^! weights[1] $end
     $var real 64 `! bias $end
     $var real 64 a sum $end
     $var real 64 c weight_gradient[0] $end
     $var real 64 e weight_gradient[1] $end
     $var real 64 g bias_gradient $end
     $scope module predict $end
      $var wire 32 * activation [31:0] $end
      $var real 64 a sum $end
      $var real 64 ] prediction $end
     $upscope $end
     $scope module unnamedblk1 $end
      $var wire 32 0" i [31:0] $end
     $upscope $end
     $scope module unnamedblk2 $end
      $var wire 32 0" i [31:0] $end
     $upscope $end
     $scope module unnamedblk3 $end
      $var wire 32 i i [31:0] $end
     $upscope $end
     $scope module unnamedblk4 $end
      $var wire 32 j i [31:0] $end
     $upscope $end
     $scope module unnamedblk5 $end
      $var wire 32 k i [31:0] $end
     $upscope $end
     $scope module unnamedblk6 $end
      $var wire 32 0" i [31:0] $end
     $upscope $end
     $scope module unnamedblk7 $end
      $var wire 32 b! i [31:0] $end
     $upscope $end
     $scope module unnamedblk8 $end
      $var wire 32 c! i [31:0] $end
     $upscope $end
    $upscope $end
    $scope module unnamedblk1 $end
     $var wire 32 1" i [31:0] $end
    $upscope $end
   $upscope $end
   $scope module gen_hidden_layer[3] $end
    $var real 64 d! next_layer_weights_for_hidden[0] $end
    $scope module hidden_perceptron $end
     $var wire 32 -" input_units [31:0] $end
     $var wire 32 /" output_units [31:0] $end
     $var wire 1 (" clk $end
     $var wire 1 # rst $end
     $var real 64 $ values[0] $end
     $var real 64 & values[1] $end
     $var wire 32 * activation [31:0] $end
     $var wire 1 , training $end
     $var real 64 - learning_rate $end
     $var real 64 d! next_layer_weights[0] $end
     $var real 64 = error_gradient_next_layer[0] $end
     $var real 64 l prediction $end
     $var real 64 n error_gradient $end
     $var real 64 f! current_weights[0] $end
     $var real 64 h! current_weights[1] $end
     $var real 64 j! weights[0] $end
     $var real 64 l! weights[1] $end
     $var real 64 n! bias $end
     $var real 64 p sum $end
     $var real 64 r weight_gradient[0] $end
     $var real 64 t weight_gradient[1] $end
     $var real 64 v bias_gradient $end
     $scope module predict $end
      $var wire 32 * activation [31:0] $end
      $var real 64 p sum $end
      $var real 64 l prediction $end
     $upscope $end
     $scope module unnamedblk1 $end
      $var wire 32 0" i [31:0] $end
     $upscope $end
     $scope module unnamedblk2 $end
      $var wire 32 0" i [31:0] $end
     $upscope $end
     $scope module unnamedblk3 $end
      $var wire 32 x i [31:0] $end
     $upscope $end
     $scope module unnamedblk4 $end
      $var wire 32 y i [31:0] $end
     $upscope $end
     $scope module unnamedblk5 $end
      $var wire 32 z i [31:0] $end
     $upscope $end
     $scope module unnamedblk6 $end
      $var wire 32 0" i [31:0] $end
     $upscope $end
     $scope module unnamedblk7 $end
      $var wire 32 p! i [31:0] $end
     $upscope $end
     $scope module unnamedblk8 $end
      $var wire 32 q! i [31:0] $end
     $upscope $end
    $upscope $end
    $scope module unnamedblk1 $end
     $var wire 32 1" i [31:0] $end
    $upscope $end
   $upscope $end
   $scope module gen_output_layer[0] $end
    $scope module output_perceptron $end
     $var wire 32 ." input_units [31:0] $end
     $var wire 32 /" output_units [31:0] $end
     $var wire 1 (" clk $end
     $var wire 1 # rst $end
     $var real 64 5 values[0] $end
     $var real 64 7 values[1] $end
     $var real 64 9 values[2] $end
     $var real 64 ; values[3] $end
     $var wire 32 + activation [31:0] $end
     $var wire 1 , training $end
     $var real 64 - learning_rate $end
     $var real 64 +" next_layer_weights[0] $end
     $var real 64 { error_gradient_next_layer[0] $end
     $var real 64 } prediction $end
     $var real 64 !! error_gradient $end
     $var real 64 r! current_weights[0] $end
     $var real 64 t! current_weights[1] $end
     $var real 64 v! current_weights[2] $end
     $var real 64 x! current_weights[3] $end
     $var real 64 z! weights[0] $end
     $var real 64 |! weights[1] $end
     $var real 64 ~! weights[2] $end
     $var real 64 "" weights[3] $end
     $var real 64 $" bias $end
     $var real 64 #! sum $end
     $var real 64 %! weight_gradient[0] $end
     $var real 64 '! weight_gradient[1] $end
     $var real 64 )! weight_gradient[2] $end
     $var real 64 +! weight_gradient[3] $end
     $var real 64 -! bias_gradient $end
     $scope module predict $end
      $var wire 32 + activation [31:0] $end
      $var real 64 #! sum $end
      $var real 64 } prediction $end
     $upscope $end
     $scope module unnamedblk1 $end
      $var wire 32 2" i [31:0] $end
     $upscope $end
     $scope module unnamedblk2 $end
      $var wire 32 2" i [31:0] $end
     $upscope $end
     $scope module unnamedblk3 $end
      $var wire 32 /! i [31:0] $end
     $upscope $end
     $scope module unnamedblk4 $end
      $var wire 32 0! i [31:0] $end
     $upscope $end
     $scope module unnamedblk5 $end
      $var wire 32 1! i [31:0] $end
     $upscope $end
     $scope module unnamedblk6 $end
      $var wire 32 2" i [31:0] $end
     $upscope $end
     $scope module unnamedblk7 $end
      $var wire 32 &" i [31:0] $end
     $upscope $end
     $scope module unnamedblk8 $end
      $var wire 32 '" i [31:0] $end
     $upscope $end
    $upscope $end
   $upscope $end
   $scope module unnamedblk2 $end
    $var wire 32 1" i [31:0] $end
   $upscope $end
  $upscope $end
  $scope module unnamedblk1 $end
   $var wire 32 2 epoch [31:0] $end
  $upscope $end
 $upscope $end
$enddefinitions $end


#0
1#
r0 $
r0 &
r0 (
b00000000000000000000000000000011 *
b00000000000000000000000000000001 +
1,
r0.1 -
r0 /
b00000000000000000000000000000000 1
b00000000000000000000000000000000 2
r0.5 3
r0 5
r0 7
r0 9
r0 ;
r1.999999960000001 =
r0 ?
r0 A
r0 C
r0 E
r0 G
r0 I
b00000000000000000000000000000000 K
b00000000000000000000000000000000 L
b00000000000000000000000000000001 M
r0 N
r0 P
r0 R
r0 T
r0 V
r0 X
b00000000000000000000000000000000 Z
b00000000000000000000000000000000 [
b00000000000000000000000000000001 \
r0 ]
r0 _
r0 a
r0 c
r0 e
r0 g
b00000000000000000000000000000000 i
b00000000000000000000000000000000 j
b00000000000000000000000000000001 k
r0 l
r0 n
r0 p
r0 r
r0 t
r0 v
b00000000000000000000000000000000 x
b00000000000000000000000000000000 y
b00000000000000000000000000000001 z
r1.999999960000001 {
r0.5 }
r0.4999999900000002 !!
r0 #!
r0 %!
r0 '!
r0 )!
r0 +!
r0.4999999900000002 -!
b00000000000000000000000000000001 /!
b00000000000000000000000000000000 0!
b00000000000000000000000000000000 1!
r0 2!
r0 4!
r0 6!
r0 8!
r0 :!
r0 <!
r0 >!
r0 @!
r0 B!
r0 D!
b00000000000000000000000000000000 F!
b00000000000000000000000000000000 G!
r0 H!
r0 J!
r0 L!
r0 N!
r0 P!
r0 R!
b00000000000000000000000000000000 T!
b00000000000000000000000000000000 U!
r0 V!
r0 X!
r0 Z!
r0 \!
r0 ^!
r0 `!
b00000000000000000000000000000000 b!
b00000000000000000000000000000000 c!
r0 d!
r0 f!
r0 h!
r0 j!
r0 l!
r0 n!
b00000000000000000000000000000000 p!
b00000000000000000000000000000000 q!
r0 r!
r0 t!
r0 v!
r0 x!
r0 z!
r0 |!
r0 ~!
r0 ""
r0 $"
b00000000000000000000000000000000 &"
b00000000000000000000000000000000 '"
0("
r0.6931471605599454 )"
r1 +"
b00000000000000000000000000000010 -"
b00000000000000000000000000000100 ."
b00000000000000000000000000000001 /"
b00000000000000000000000000000010 0"
b00000000000000000000000000000001 1"
b00000000000000000000000000000100 2"
b00000000000000000000000000100000 3"
b0000000000000000000000000000001010110111111000010101000101100000 4"
b0000000000000000000000000000000000000000000000000000000000101010 6"
r2.718281828 8"
r1e-08 :"
#5
r0.5719961329195292 3
r0.35 9
r0.3 ;
r2.336427433371091 =
r-0.31 C
r-0.49 R
r0.35 ]
r-1.121485168018123 _
r0.35 a
r-1.121485168018123 g
r0.3 l
r0.6074711326764836 n
r0.3 p
r0.6074711326764836 v
r2.336427433371091 {
r0.5719961329195292 }
r0.5719961195552548 !!
r0.29 #!
r0.2001986418443392 )!
r0.1715988358665765 +!
r0.5719961195552548 -!
r-0.24 2!
r-0.35 4!
r-0.48 6!
r0.26 8!
r-0.24 :!
r-0.26 <!
r-0.07000000000000001 >!
r-0.26 @!
r-0.07000000000000001 B!
r-0.31 D!
b00000000000000000000000000000010 F!
r-0.35 H!
r0.49 J!
r-0.08000000000000002 L!
r0.49 N!
r-0.08000000000000002 P!
r-0.49 R!
b00000000000000000000000000000010 T!
r-0.48 V!
r0.04000000000000004 X!
r0.49 Z!
r0.04000000000000004 \!
r0.49 ^!
r0.35 `!
b00000000000000000000000000000010 b!
r0.26 d!
r0.1899999999999999 f!
r-0.44 h!
r0.1899999999999999 j!
r-0.44 l!
r0.3 n!
b00000000000000000000000000000010 p!
r-0.24 r!
r-0.35 t!
r-0.48 v!
r0.26 x!
r-0.24 z!
r-0.35 |!
r-0.48 ~!
r0.26 ""
r0.38 $"
b00000000000000000000000000000100 &"
1("
r0.8486230248421384 )"
#10
0("
#15
r0.4206757478644204 3
r0.32 7
r0 9
r0 ;
r1.726149007317027 =
r-0.08000000000000002 C
r0.32 N
r-0.4315372518292567 P
r0.32 R
r-0.4315372518292567 X
r0 ]
r0 _
r-0.43 a
r0 g
r0 l
r0 n
r-0.02000000000000002 p
r0 v
r1.726149007317027 {
r0.4206757478644204 }
r0.4206757406029301 !!
r-0.32 #!
r0.1346162369929376 '!
r0 )!
r0 +!
r0.4206757406029301 -!
r-0.18 2!
r-0.25 4!
r0.06999999999999995 6!
r0.24 8!
r-0.18 :!
r0.27 <!
r0.15 >!
r0.27 @!
r0.15 B!
r-0.08000000000000002 D!
r-0.25 H!
r-0.04999999999999999 J!
r-0.09999999999999998 L!
r-0.04999999999999999 N!
r-0.09999999999999998 P!
r0.32 R!
r0.06999999999999995 V!
r-0.11 X!
r-0.19 Z!
r-0.11 \!
r-0.19 ^!
r-0.43 `!
r0.24 d!
r-0.02000000000000002 f!
r-0.19 h!
r-0.02000000000000002 j!
r-0.19 l!
r-0.02000000000000002 n!
r-0.18 r!
r-0.25 t!
r0.06999999999999995 v!
r0.24 x!
r-0.18 z!
r-0.25 |!
r0.06999999999999995 ~!
r0.24 ""
r-0.24 $"
1("
r0.5458929199413179 )"
#20
0("
#25
0#
r0.4066709764488702 3
r0.3631537251829256 7
r1.685405472263689 =
r0.3631537251829256 N
r-0.4440396623142664 P
r0.3631537251829256 R
r-0.4440396623142664 X
r1.685405472263689 {
r0.4066709764488702 }
r0.4066709695948152 !!
r-0.3777446441494337 #!
r0.1476840775321094 '!
r0.4066709695948152 -!
r-0.2634616236992938 4!
b00000000000000000000000000000010 G!
r-0.2634616236992938 H!
r0.3631537251829256 R!
b00000000000000000000000000000010 U!
b00000000000000000000000000000010 c!
b00000000000000000000000000000010 q!
r-0.2634616236992938 t!
r-0.2634616236992938 |!
r-0.282067574060293 $"
b00000000000000000000000000000100 '"
1("
r0.5220061712143127 )"
#30
0("
#35
r1 &
r1 (
r0.4362372792605953 3
r0.1346333528890477 7
r-2.292330400491347 =
r-0.01780659091094805 C
r0.1346333528890477 N
r0.568349725398354 P
r0.1346333528890477 R
r0.568349725398354 V
r0.568349725398354 X
r-0.62 a
r-0.21 p
r-2.292330400491347 {
r0.4362372792605953 }
r-0.5637627078161005 !!
r-0.2564471413066452 #!
r-0.07590126358709015 '!
r-0.5637627078161005 -!
r-0.175869944045024 2!
r-0.2479353435597817 4!
r-0.175869944045024 :!
r0.106096704544526 >!
r0.106096704544526 B!
r-0.123903295455474 D!
r-0.2479353435597817 H!
r-0.1642601861469389 L!
r-0.1642601861469389 P!
r0.2988935390359866 R!
r-0.175869944045024 r!
r-0.2479353435597817 t!
r-0.175869944045024 z!
r-0.2479353435597817 |!
r-0.2230667747034938 $"
1("
r0.8295689422553699 )"
#40
0("
#45
r1 $
r0 &
r0.448518134306314 3
r0.06294305851372992 5
r0.1316664147036115 7
r-2.229564205360337 =
r0.06294305851372992 ?
r0.3733185953863698 A
r0.06294305851372992 C
r0.3733185953863698 E
r0.3733185953863698 I
r0.1316664147036115 N
r0.5207686430902917 P
r0.1316664147036115 R
r0.5207686430902917 T
r0 V
r0.5207686430902917 X
r-0.54 a
r-0.04000000000000004 p
r-2.229564205360337 {
r0.448518134306314 }
r-0.5514818533980437 !!
r-0.20665984248204 #!
r-0.03471195456769328 %!
r-0.07261163841102307 '!
r-0.5514818533980437 -!
r-0.1674401636377343 2!
r-0.2335741854117748 4!
r-0.1674401636377343 :!
r0.228423176984602 <!
r0.228423176984602 @!
r-0.1654801184708721 D!
r-0.2335741854117748 H!
r-0.1086135621661876 J!
r-0.1086135621661876 N!
r0.240279976869799 R!
r-0.1674401636377343 r!
r-0.2335741854117748 t!
r-0.1674401636377343 z!
r-0.2335741854117748 |!
r-0.1653667709041566 $"
1("
r0.8018061427691165 )"
#50
0("
#55
r1 &
r0 (
r0.4363041215385612 3
r0.2606594566499089 5
r0 7
r1.774006198145984 =
r0.2606594566499089 ?
r-0.3105863501690359 A
r0.2606594566499089 C
r-0.3105863501690359 E
r-0.3105863501690359 G
r-0.3105863501690359 I
r0 N
r0 P
r-0.03259377144332748 R
r0 T
r0 X
r-0.73 a
r-0.23 p
r1.774006198145984 {
r0.4363041215385612 }
r0.436304113798499 !!
r-0.2561753568673307 #!
r0.1137267932368368 %!
r0 '!
r0.436304113798499 -!
r-0.1750762486025302 2!
r-0.1750762486025302 :!
r0.2589630748484863 <!
r0.1366366024084103 >!
r0.2589630748484863 @!
r0.1366366024084103 B!
r-0.1349402206069878 D!
r-0.1750762486025302 r!
r-0.1750762486025302 z!
r-0.2105400770342908 $"
1("
r0.5732403777628988 )"
#60
0("
#65
r0 $
r0 &
0,
r0.4337264383680255 3
r0 5
r0.240279976869799 7
r1.765930903534922 =
r0 ?
r0 A
r-0.1349402206069878 C
r0 E
r0 G
r0 I
r0.240279976869799 N
r-0.4124758722866488 P
r0.240279976869799 R
r-0.4124758722866488 X
r-0.43 a
r-0.02000000000000002 p
r1.765930903534922 {
r0.4337264383680255 }
r0.4337264307087162 !!
r-0.2666632769024142 #!
r0 %!
r0.1042157767385108 '!
r0.4337264307087162 -!
1("
r0.568677975445162 )"
#70
0("
#75
r1 &
r1 (
r0.4430992297410182 3
r0.001696381801422536 5
r0.07601979072286011 7
r-2.256830773585795 =
r0.001696381801422536 ?
r0.3951174655701473 A
r0.001696381801422536 C
r0.3951174655701473 G
r0.3951174655701473 I
r0.07601979072286011 N
r0.5271374095525277 P
r0.07601979072286011 R
r0.5271374095525277 V
r0.5271374095525277 X
r-0.62 a
r-0.21 p
r-2.256830773585795 {
r0.4430992297410182 }
r-0.5569007576906738 !!
r-0.2285933338895471 #!
r-0.0009447163105448806 %!
r-0.04233547905304725 '!
r-0.5569007576906738 -!
1("
r0.8139615165510873 )"
#80
0("
#85
r1 $
r0 &
r0.4346245647842276 3
r0.1240228542414985 5
r0.1316664147036115 7
r-2.300836303369309 =
r0.1240228542414985 ?
r0.4028217886424117 A
r0.1240228542414985 C
r0.4028217886424117 E
r0 G
r0.4028217886424117 I
r0.1316664147036115 N
r0.5374159653253254 P
r0.1316664147036115 R
r0.5374159653253254 T
r0 V
r0.5374159653253254 X
r-0.54 a
r-0.04000000000000004 p
r-2.300836303369309 {
r0.4346245647842276 }
r-0.5653754222074091 !!
r-0.2630074086563557 #!
r-0.07011947358015519 %!
r-0.07444095480359014 '!
r-0.5653754222074091 -!
1("
r0.8332726670055188 )"
#90
0("
#95
r1 &
r0 (
r0.4363041215385612 3
r0.2606594566499089 5
r0 7
r1.774006198145984 =
r0.2606594566499089 ?
r-0.3105863501690359 A
r0.2606594566499089 C
r-0.3105863501690359 E
r-0.3105863501690359 G
r-0.3105863501690359 I
r0 N
r0 P
r-0.03259377144332748 R
r0 T
r0 X
r-0.73 a
r-0.23 p
r1.774006198145984 {
r0.4363041215385612 }
r0.436304113798499 !!
r-0.2561753568673307 #!
r0.1137267932368368 %!
r0 '!
r0.436304113798499 -!
1("
r0.5732403777628988 )"
#100
0("
#105
r0 $
r0 &
1,
b00000000000000000000000000000001 2
r0.4200412029105207 3
r0 5
r0.2815275640984639 7
r1.724260391903514 =
r0 ?
r0 A
r-0.1349402206069878 C
r0 E
r0 G
r0 I
r0.2815275640984639 N
r-0.4207122300808182 P
r0.2815275640984639 R
r-0.4207122300808182 X
r-0.43 a
r-0.02000000000000002 p
r1.724260391903514 {
r0.4200412029105207 }
r0.4200411956679165 !!
r-0.3226042529370046 #!
r0 %!
r0.1182531746373948 '!
r0.4200411956679165 -!
r-0.2439957630856259 4!
r-0.2439957630856259 H!
r0.2815275640984639 R!
r-0.2439957630856259 t!
r-0.2439957630856259 |!
r-0.2539127201051624 $"
1("
r0.5447982002233905 )"
#110
0("
#115
r1 &
r1 (
r0.4507177143168355 3
r0.003718117427916112 7
r-2.218683548590697 =
r-0.07977953529099177 C
r0.003718117427916112 N
r0.5265129777025742 P
r0.003718117427916112 R
r0.5265129777025742 V
r0.5265129777025742 X
r-0.62 a
r-0.21 p
r-2.218683548590697 {
r0.4507177143168355 }
r-0.5492822734963289 !!
r-0.1977712580359544 #!
r-0.002042295993932085 '!
r-0.5492822734963289 -!
r-0.174979514459519 2!
r-0.237308731133385 4!
r-0.174979514459519 :!
r0.09589864386220315 >!
r0.09589864386220315 B!
r-0.1756781791531949 D!
r-0.237308731133385 H!
r-0.2210348164087434 L!
r-0.2210348164087434 P!
r0.2247529338366595 R!
r-0.174979514459519 r!
r-0.237308731133385 t!
r-0.174979514459519 z!
r-0.237308731133385 |!
r-0.1968889163069306 $"
1("
r0.7969140238621271 )"
#120
0("
#125
r1 $
r0 &
r0.464177646703039 3
r0.003843928894044307 5
r0.008400845307292043 7
r-2.154347555422637 =
r0.003843928894044307 ?
r0.3669283694445856 A
r0.003843928894044307 C
r0.3669283694445856 E
r0.3669283694445856 I
r0.008400845307292043 N
r0.4972472184591961 P
r0.008400845307292043 R
r0.4972472184591961 T
r0 V
r0.4972472184591961 X
r-0.54 a
r-0.04000000000000004 p
r-2.154347555422637 {
r0.464177646703039 }
r-0.5358223417534853 !!
r-0.1435353375155891 #!
r-0.002059662981540706 %!
r-0.004501360605262 '!
r-0.5358223417534853 -!
r-0.1703199507066547 2!
r-0.2308110486664937 4!
r-0.1703199507066547 :!
r0.2192425914478628 <!
r0.2192425914478628 @!
r-0.2153986625538185 D!
r-0.2308110486664937 H!
r-0.1624828253477775 J!
r-0.1624828253477775 N!
r0.1708836706550695 R!
r-0.1703199507066547 r!
r-0.2308110486664937 t!
r-0.1703199507066547 z!
r-0.2308110486664937 |!
r-0.1409416318207745 $"
1("
r0.7674879192105256 )"
#130
0("
#135
r1 &
r0 (
r0.4449695559369401 3
r0.1944699156497502 5
r0 7
r1.8017029384236 =
r0.1944699156497502 ?
r-0.315143225741062 A
r0.1944699156497502 C
r-0.315143225741062 E
r-0.315143225741062 G
r-0.315143225741062 I
r0 N
r0 P
r-0.2126339711014513 R
r0 T
r0 X
r-0.73 a
r-0.23 p
r1.8017029384236 {
r0.4449695559369401 }
r0.4449695479199105 !!
r-0.2210171002459313 #!
r0.08653319045069247 %!
r0 '!
r0.4449695479199105 -!
r-0.174914087677959 2!
r-0.174914087677959 :!
r0.2508183724123637 <!
r0.1274744248267041 >!
r0.2508183724123637 @!
r0.1274744248267041 B!
r-0.1838228815893175 D!
r-0.174914087677959 r!
r-0.174914087677959 z!
r-0.1870015723692456 $"
1("
r0.5887322945554322 )"
#140
0("
#145
r0 $
r0 &
0,
r0.4436298142198692 3
r0 5
r0.1708836706550695 7
r1.797364430346274 =
r0 ?
r0 A
r-0.1838228815893175 C
r0 E
r0 G
r0 I
r0.1708836706550695 N
r-0.4148515690040786 P
r0.1708836706550695 R
r-0.4148515690040786 X
r-0.43 a
r-0.02000000000000002 p
r1.797364430346274 {
r0.4436298142198692 }
r0.4436298062462247 !!
r-0.226443411593122 #!
r0 %!
r0.07580908970335216 '!
r0.4436298062462247 -!
1("
r0.5863213865427461 )"
#150
0("
#155
r1 &
r1 (
r0.4533853690131819 3
r0 7
r-2.205629132056607 =
r-0.05634845676261346 C
r0 N
r0 P
r-0.05015114575367383 R
r0 X
r-0.62 a
r-0.21 p
r-2.205629132056607 {
r0.4533853690131819 }
r-0.5466146189305265 !!
r-0.1870015723692456 #!
r-0 '!
r-0.5466146189305265 -!
1("
r0.791012788863203 )"
#160
0("
#165
r1 $
r0 &
r0.4500028858655128 3
r0.06699549082304612 5
r0.008400845307292043 7
r-2.222207921743816 =
r0.06699549082304612 ?
r0.3886954712625529 A
r0.06699549082304612 C
r0.3886954712625529 E
r0.3886954712625529 I
r0.008400845307292043 N
r0.5129101407726797 P
r0.008400845307292043 R
r0.5129101407726797 T
r0.5129101407726797 X
r-0.54 a
r-0.04000000000000004 p
r-2.222207921743816 {
r0.4500028858655128 }
r-0.5499971019124078 !!
r-0.2006590354401569 #!
r-0.03684732579387468 %!
r-0.004620440572625075 '!
r-0.5499971019124078 -!
1("
r0.7985012609817828 )"
#170
0("
#175
r1 &
r0 (
r0.4449695559369401 3
r0.1944699156497502 5
r0 7
r1.8017029384236 =
r0.1944699156497502 ?
r-0.315143225741062 A
r0.1944699156497502 C
r-0.315143225741062 E
r-0.315143225741062 G
r-0.315143225741062 I
r0 N
r0 P
r-0.2126339711014513 R
r0 T
r0 X
r-0.73 a
r-0.23 p
r1.8017029384236 {
r0.4449695559369401 }
r0.4449695479199105 !!
r-0.2210171002459313 #!
r0.08653319045069247 %!
r0 '!
r0.4449695479199105 -!
1("
r0.5887322945554322 )"
#180
0("
#185
r0 $
r0 &
1,
b00000000000000000000000000000010 2
r0.4299655830661471 3
r0 5
r0.2123688275554774 7
r1.75428000968096 =
r0 ?
r0 A
r-0.1838228815893175 C
r0 E
r0 G
r0 I
r0.2123688275554774 N
r-0.4182062457509992 P
r0.2123688275554774 R
r-0.4182062457509992 X
r-0.43 a
r-0.02000000000000002 p
r1.75428000968096 {
r0.4299655830661471 }
r0.4299655755233468 !!
r-0.2819915735358565 #!
r0 %!
r0.09131128516310923 '!
r0.4299655755233468 -!
r-0.2383919576368289 4!
r-0.2383919576368289 H!
r0.2123688275554774 R!
r-0.2383919576368289 t!
r-0.2383919576368289 |!
r-0.2313645529938681 $"
1("
r0.5620585218478682 )"
#190
0("
#195
r1 &
r1 (
r0.4562109447755108 3
r0 7
r-2.19196840744886 =
r-0.05634845676261346 C
r0 N
r0 P
r-0.008665988853265971 R
r0 X
r-0.62 a
r-0.21 p
r-2.19196840744886 {
r0.4562109447755108 }
r-0.543789043304805 !!
r-0.1756061048126785 #!
r-0 '!
r-0.543789043304805 -!
r-0.1756061048126785 $"
1("
r0.7847999563217138 )"
#200
0("
#205
r1 $
r0 &
r0.4698760058036935 3
r-2.128220990998152 =
r-0.01068199101557321 C
r-0.05598132503641157 R
r-0.54 a
r-0.04000000000000004 p
r-2.128220990998152 {
r0.4698760058036935 }
r-0.5301239829140965 !!
r-0.1206420880587738 #!
r-0.5301239829140965 -!
r-0.171231746397925 2!
r-0.2356500225756996 4!
r-0.171231746397925 :!
r0.211979631493054 <!
r0.211979631493054 @!
r-0.2226616225086272 D!
r-0.2356500225756996 H!
r-0.2154164889698332 J!
r-0.2154164889698332 N!
r0.1594351639334217 R!
r-0.171231746397925 r!
r-0.2356500225756996 t!
r-0.171231746397925 z!
r-0.2356500225756996 |!
r-0.1206420880587738 $"
1("
r0.7552864152407149 )"
#210
0("
