Full_MLP/sim.vcd
$version Generated by VerilatedVcd $end
$timescale 1ps $end
 $scope module $rootio $end
 $upscope $end
 $scope module FixedPoint $end
  $var wire 32 J! frac_bits [31:0] $end
  $var wire 64 K! epsilon [63:0] $end
  $var wire 64 % ONE [63:0] $end
  $var wire 64 M! HALF [63:0] $end
  $var wire 32 D! lcg_next__Vstatic__current [31:0] $end
 $upscope $end
 $scope module BenchMLP $end
  $var wire 32 F! inputs [31:0] $end
  $var wire 32 F! hidden_layer_size [31:0] $end
  $var wire 32 G! outputs [31:0] $end
  $var wire 1 E! clk $end
  $var wire 1 ' rst $end
  $var wire 64 ( values[0] [63:0] $end
  $var wire 64 * values[1] [63:0] $end
  $var wire 64 , expected[0] [63:0] $end
  $var wire 32 . hidden_activation [31:0] $end
  $var wire 32 / output_activation [31:0] $end
  $var wire 1 0 training $end
  $var wire 64 1 learning_rate [63:0] $end
  $var wire 64 7 prediction[0] [63:0] $end
  $var wire 64 3 threshold [63:0] $end
  $var wire 32 5 correct [31:0] $end
  $scope module mlp $end
   $var wire 32 F! inputs [31:0] $end
   $var wire 32 F! hidden_layer_size [31:0] $end
   $var wire 32 G! outputs [31:0] $end
   $var wire 1 E! clk $end
   $var wire 1 ' rst $end
   $var wire 64 ( values[0] [63:0] $end
   $var wire 64 * values[1] [63:0] $end
   $var wire 64 , expected[0] [63:0] $end
   $var wire 32 . hidden_activation [31:0] $end
   $var wire 32 / output_activation [31:0] $end
   $var wire 1 0 training $end
   $var wire 64 1 learning_rate [63:0] $end
   $var wire 64 7 prediction[0] [63:0] $end
   $var wire 64 9 hidden_predictions[0] [63:0] $end
   $var wire 64 ; hidden_predictions[1] [63:0] $end
   $var wire 64 r next_layer_weights[0][0] [63:0] $end
   $var wire 64 t next_layer_weights[1][0] [63:0] $end
   $var wire 64 = output_error_gradients[0] [63:0] $end
   $var wire 64 v output_weights[0][0] [63:0] $end
   $var wire 64 x output_weights[0][1] [63:0] $end
   $scope module gen_hidden_layer[0] $end
    $scope module hidden_perceptron $end
     $var wire 32 F! input_units [31:0] $end
     $var wire 32 G! output_units [31:0] $end
     $var wire 1 E! clk $end
     $var wire 1 ' rst $end
     $var wire 64 ( values[0] [63:0] $end
     $var wire 64 * values[1] [63:0] $end
     $var wire 32 . activation [31:0] $end
     $var wire 1 0 training $end
     $var wire 64 1 learning_rate [63:0] $end
     $var wire 64 z next_layer_weights[0] [63:0] $end
     $var wire 64 = error_gradient_next_layer[0] [63:0] $end
     $var wire 64 ? prediction [63:0] $end
     $var wire 64 A error_gradient [63:0] $end
     $var wire 64 | current_weights[0] [63:0] $end
     $var wire 64 ~ current_weights[1] [63:0] $end
     $var wire 64 "! weights[0] [63:0] $end
     $var wire 64 $! weights[1] [63:0] $end
     $var wire 64 &! bias [63:0] $end
     $var wire 64 C sum [63:0] $end
     $var wire 64 E weight_gradient[0] [63:0] $end
     $var wire 64 G weight_gradient[1] [63:0] $end
     $var wire 64 I bias_gradient [63:0] $end
     $scope module predict $end
      $var wire 32 . activation [31:0] $end
      $var wire 64 C sum [63:0] $end
      $var wire 64 ? prediction [63:0] $end
     $upscope $end
     $scope module unnamedblk1 $end
      $var wire 32 H! i [31:0] $end
     $upscope $end
     $scope module unnamedblk2 $end
      $var wire 32 H! i [31:0] $end
     $upscope $end
     $scope module unnamedblk3 $end
      $var wire 32 K i [31:0] $end
     $upscope $end
     $scope module unnamedblk4 $end
      $var wire 32 L i [31:0] $end
     $upscope $end
     $scope module unnamedblk5 $end
      $var wire 32 M i [31:0] $end
     $upscope $end
     $scope module unnamedblk6 $end
      $var wire 32 N i [31:0] $end
     $upscope $end
     $scope module unnamedblk7 $end
      $var wire 32 (! i [31:0] $end
     $upscope $end
     $scope module unnamedblk8 $end
      $var wire 32 )! i [31:0] $end
     $upscope $end
    $upscope $end
    $scope module unnamedblk1 $end
     $var wire 32 I! i [31:0] $end
    $upscope $end
   $upscope $end
   $scope module gen_hidden_layer[1] $end
    $scope module hidden_perceptron $end
     $var wire 32 F! input_units [31:0] $end
     $var wire 32 G! output_units [31:0] $end
     $var wire 1 E! clk $end
     $var wire 1 ' rst $end
     $var wire 64 ( values[0] [63:0] $end
     $var wire 64 * values[1] [63:0] $end
     $var wire 32 . activation [31:0] $end
     $var wire 1 0 training $end
     $var wire 64 1 learning_rate [63:0] $end
     $var wire 64 *! next_layer_weights[0] [63:0] $end
     $var wire 64 = error_gradient_next_layer[0] [63:0] $end
     $var wire 64 O prediction [63:0] $end
     $var wire 64 Q error_gradient [63:0] $end
     $var wire 64 ,! current_weights[0] [63:0] $end
     $var wire 64 .! current_weights[1] [63:0] $end
     $var wire 64 0! weights[0] [63:0] $end
     $var wire 64 2! weights[1] [63:0] $end
     $var wire 64 4! bias [63:0] $end
     $var wire 64 S sum [63:0] $end
     $var wire 64 U weight_gradient[0] [63:0] $end
     $var wire 64 W weight_gradient[1] [63:0] $end
     $var wire 64 Y bias_gradient [63:0] $end
     $scope module predict $end
      $var wire 32 . activation [31:0] $end
      $var wire 64 S sum [63:0] $end
      $var wire 64 O prediction [63:0] $end
     $upscope $end
     $scope module unnamedblk1 $end
      $var wire 32 H! i [31:0] $end
     $upscope $end
     $scope module unnamedblk2 $end
      $var wire 32 H! i [31:0] $end
     $upscope $end
     $scope module unnamedblk3 $end
      $var wire 32 [ i [31:0] $end
     $upscope $end
     $scope module unnamedblk4 $end
      $var wire 32 \ i [31:0] $end
     $upscope $end
     $scope module unnamedblk5 $end
      $var wire 32 ] i [31:0] $end
     $upscope $end
     $scope module unnamedblk6 $end
      $var wire 32 ^ i [31:0] $end
     $upscope $end
     $scope module unnamedblk7 $end
      $var wire 32 6! i [31:0] $end
     $upscope $end
     $scope module unnamedblk8 $end
      $var wire 32 7! i [31:0] $end
     $upscope $end
    $upscope $end
    $scope module unnamedblk1 $end
     $var wire 32 I! i [31:0] $end
    $upscope $end
   $upscope $end
   $scope module gen_output_layer[0] $end
    $scope module output_perceptron $end
     $var wire 32 F! input_units [31:0] $end
     $var wire 32 G! output_units [31:0] $end
     $var wire 1 E! clk $end
     $var wire 1 ' rst $end
     $var wire 64 9 values[0] [63:0] $end
     $var wire 64 ; values[1] [63:0] $end
     $var wire 32 / activation [31:0] $end
     $var wire 1 0 training $end
     $var wire 64 1 learning_rate [63:0] $end
     $var wire 64 # next_layer_weights[0] [63:0] $end
     $var wire 64 _ error_gradient_next_layer[0] [63:0] $end
     $var wire 64 a prediction [63:0] $end
     $var wire 64 c error_gradient [63:0] $end
     $var wire 64 8! current_weights[0] [63:0] $end
     $var wire 64 :! current_weights[1] [63:0] $end
     $var wire 64 <! weights[0] [63:0] $end
     $var wire 64 >! weights[1] [63:0] $end
     $var wire 64 @! bias [63:0] $end
     $var wire 64 e sum [63:0] $end
     $var wire 64 g weight_gradient[0] [63:0] $end
     $var wire 64 i weight_gradient[1] [63:0] $end
     $var wire 64 k bias_gradient [63:0] $end
     $scope module predict $end
      $var wire 32 / activation [31:0] $end
      $var wire 64 e sum [63:0] $end
      $var wire 64 a prediction [63:0] $end
     $upscope $end
     $scope module unnamedblk1 $end
      $var wire 32 H! i [31:0] $end
     $upscope $end
     $scope module unnamedblk2 $end
      $var wire 32 H! i [31:0] $end
     $upscope $end
     $scope module unnamedblk3 $end
      $var wire 32 m i [31:0] $end
     $upscope $end
     $scope module unnamedblk4 $end
      $var wire 32 n i [31:0] $end
     $upscope $end
     $scope module unnamedblk5 $end
      $var wire 32 o i [31:0] $end
     $upscope $end
     $scope module unnamedblk6 $end
      $var wire 32 p i [31:0] $end
     $upscope $end
     $scope module unnamedblk7 $end
      $var wire 32 B! i [31:0] $end
     $upscope $end
     $scope module unnamedblk8 $end
      $var wire 32 C! i [31:0] $end
     $upscope $end
    $upscope $end
   $upscope $end
   $scope module unnamedblk2 $end
    $var wire 32 q i [31:0] $end
   $upscope $end
  $upscope $end
  $scope module unnamedblk1 $end
   $var wire 32 6 epoch [31:0] $end
  $upscope $end
 $upscope $end
$enddefinitions $end


#0
b0000000000000000000000000000000100000000000000000000000000000000 #
b0000000000000000000000000000000100000000000000000000000000000000 %
1'
b0000000000000000000000000000000000000000000000000000000000000000 (
b0000000000000000000000000000000000000000000000000000000000000000 *
b0000000000000000000000000000000000000000000000000000000000000000 ,
b00000000000000000000000000000011 .
b00000000000000000000000000000001 /
10
b0000000000000000000000000000000000011001100110011001100110011010 1
b0000000000000000000000000000000000000000000000000000000000000000 3
b00000000000000000000000000000000 5
b00000000000000000000000000000000 6
b0000000000000000000000000000000010000000000000000000000000000000 7
b0000000000000000000000000000000000000000000000000000000000000000 9
b0000000000000000000000000000000000000000000000000000000000000000 ;
b0000000000000000000000000000001000000000000000000000000010101000 =
b0000000000000000000000000000000000000000000000000000000000000000 ?
b0000000000000000000000000000000000000000000000000000000000000000 A
b0000000000000000000000000000000000000000000000000000000000000000 C
b0000000000000000000000000000000000000000000000000000000000000000 E
b0000000000000000000000000000000000000000000000000000000000000000 G
b0000000000000000000000000000000000000000000000000000000000000000 I
b00000000000000000000000000000000 K
b00000000000000000000000000000000 L
b00000000000000000000000000000001 M
b00000000000000000000000000000010 N
b0000000000000000000000000000000000000000000000000000000000000000 O
b0000000000000000000000000000000000000000000000000000000000000000 Q
b0000000000000000000000000000000000000000000000000000000000000000 S
b0000000000000000000000000000000000000000000000000000000000000000 U
b0000000000000000000000000000000000000000000000000000000000000000 W
b0000000000000000000000000000000000000000000000000000000000000000 Y
b00000000000000000000000000000000 [
b00000000000000000000000000000000 \
b00000000000000000000000000000001 ]
b00000000000000000000000000000010 ^
b0000000000000000000000000000001000000000000000000000000010101000 _
b0000000000000000000000000000000010000000000000000000000000000000 a
b0000000000000000000000000000000010000000000000000000000000101010 c
b0000000000000000000000000000000000000000000000000000000000000000 e
b0000000000000000000000000000000000000000000000000000000000000000 g
b0000000000000000000000000000000000000000000000000000000000000000 i
b0000000000000000000000000000000010000000000000000000000000101010 k
b00000000000000000000000000000001 m
b00000000000000000000000000000000 n
b00000000000000000000000000000000 o
b00000000000000000000000000000010 p
b00000000000000000000000000000001 q
b0000000000000000000000000000000000000000000000000000000000000000 r
b0000000000000000000000000000000000000000000000000000000000000000 t
b0000000000000000000000000000000000000000000000000000000000000000 v
b0000000000000000000000000000000000000000000000000000000000000000 x
b0000000000000000000000000000000000000000000000000000000000000000 z
b0000000000000000000000000000000000000000000000000000000000000000 |
b0000000000000000000000000000000000000000000000000000000000000000 ~
b0000000000000000000000000000000000000000000000000000000000000000 "!
b0000000000000000000000000000000000000000000000000000000000000000 $!
b0000000000000000000000000000000000000000000000000000000000000000 &!
b00000000000000000000000000000000 (!
b00000000000000000000000000000000 )!
b0000000000000000000000000000000000000000000000000000000000000000 *!
b0000000000000000000000000000000000000000000000000000000000000000 ,!
b0000000000000000000000000000000000000000000000000000000000000000 .!
b0000000000000000000000000000000000000000000000000000000000000000 0!
b0000000000000000000000000000000000000000000000000000000000000000 2!
b0000000000000000000000000000000000000000000000000000000000000000 4!
b00000000000000000000000000000000 6!
b00000000000000000000000000000000 7!
b0000000000000000000000000000000000000000000000000000000000000000 8!
b0000000000000000000000000000000000000000000000000000000000000000 :!
b0000000000000000000000000000000000000000000000000000000000000000 <!
b0000000000000000000000000000000000000000000000000000000000000000 >!
b0000000000000000000000000000000000000000000000000000000000000000 @!
b00000000000000000000000000000000 B!
b00000000000000000000000000000000 C!
b00000000000000000000000000000001 D!
0E!
b00000000000000000000000000000010 F!
b00000000000000000000000000000001 G!
b00000000000000000000000000000010 H!
b00000000000000000000000000000001 I!
b00000000000000000000000000100000 J!
b0000000000000000000000000000000000000000000000000000000000101010 K!
b0000000000000000000000000000000010000000000000000000000000000000 M!
#5
b0000000000000000000000000000000001100001101101110000110111011110 7
b0000000000000000000000000000000000000001000101100000000101111110 9
b0000000000000000000000000000000110011110000010011100001001001001 =
b0000000000000000000000000000000000000001000101100000000101111110 ?
b0000000000000000000000000000000001110001110000110010100011000001 A
b0000000000000000000000000000000000000001000101100000000101111110 C
b0000000000000000000000000000000001110001110000110010100011000001 I
b1111111111111111111111111111111111011110100110001100000100111111 S
b0000000000000000000000000000000110011110000010011100001001001001 _
b0000000000000000000000000000000001100001101101110000110111011110 a
b0000000000000000000000000000000001100001101101110000110111110110 c
b1111111111111111111111111111111110000100100001010100100101010001 e
b0000000000000000000000000000000000000000011010100001110101011010 g
b0000000000000000000000000000000001100001101101110000110111110110 k
b0000000000000000000000000000000001000110010101101101110110010010 r
b0000000000000000000000000000000000001110011000100101111111001001 t
b0000000000000000000000000000000001000110010101101101110110010010 v
b0000000000000000000000000000000000001110011000100101111111001001 x
b0000000000000000000000000000000001000110010101101101110110010010 z
b1111111111111111111111111111111110111100100010000101100101101100 |
b1111111111111111111111111111111111011110100010001000010111011011 ~
b1111111111111111111111111111111110111100100010000101100101101100 "!
b1111111111111111111111111111111111011110100010001000010111011011 $!
b0000000000000000000000000000000000000001000101100000000101111110 &!
b00000000000000000000000000000010 (!
b0000000000000000000000000000000000001110011000100101111111001001 *!
b0000000000000000000000000000000000110100011100110011101011000101 ,!
b1111111111111111111111111111111110001100111100000110110101100000 .!
b0000000000000000000000000000000000110100011100110011101011000101 0!
b1111111111111111111111111111111110001100111100000110110101100000 2!
b1111111111111111111111111111111111011110100110001100000100111111 4!
b00000000000000000000000000000010 6!
b0000000000000000000000000000000001000110010101101101110110010010 8!
b0000000000000000000000000000000000001110011000100101111111001001 :!
b0000000000000000000000000000000001000110010101101101110110010010 <!
b0000000000000000000000000000000000001110011000100101111111001001 >!
b1111111111111111111111111111111110000100001110001110011010010100 @!
b00000000000000000000000000000010 B!
b00000100001110001110011010010100 D!
1E!
#10
0E!
#15
b0000000000000000000000000000000001110100111100101001011101110111 7
b0000000000000000000000000000000000000000000000000000000000000000 9
b0000000000000000000000000000000111010111010011011110111100111001 =
b0000000000000000000000000000000000000000000000000000000000000000 ?
b0000000000000000000000000000000000000000000000000000000000000000 A
b1111111111111111111111111111111111101100001000001111001100001101 C
b0000000000000000000000000000000000000000000000000000000000000000 I
b1111111111111111111111111111111110111100001011011110111101111010 S
b0000000000000000000000000000000111010111010011011110111100111001 _
b0000000000000000000000000000000001110100111100101001011101110111 a
b0000000000000000000000000000000001110100111100101001011110011001 c
b1111111111111111111111111111111111010011101011100001110011101011 e
b0000000000000000000000000000000000000000000000000000000000000000 g
b0000000000000000000000000000000001110100111100101001011110011001 k
b0000000000000000000000000000000001111011000110001011100010010001 r
b0000000000000000000000000000000001011100011000110001100010111100 t
b0000000000000000000000000000000001111011000110001011100010010001 v
b0000000000000000000000000000000001011100011000110001100010111100 x
b0000000000000000000000000000000001111011000110001011100010010001 z
b0000000000000000000000000000000000100011101001011010000011100011 |
b1111111111111111111111111111111111000000000111011001000011100110 ~
b0000000000000000000000000000000000100011101001011010000011100011 "!
b1111111111111111111111111111111111000000000111011001000011100110 $!
b1111111111111111111111111111111111101100001000001111001100001101 &!
b0000000000000000000000000000000001011100011000110001100010111100 *!
b0000000000000000000000000000000000010111001101110111100100001000 ,!
b0000000000000000000000000000000001010110010000010100100011000111 .!
b0000000000000000000000000000000000010111001101110111100100001000 0!
b0000000000000000000000000000000001010110010000010100100011000111 2!
b1111111111111111111111111111111110111100001011011110111101111010 4!
b0000000000000000000000000000000001111011000110001011100010010001 8!
b0000000000000000000000000000000001011100011000110001100010111100 :!
b0000000000000000000000000000000001111011000110001011100010010001 <!
b0000000000000000000000000000000001011100011000110001100010111100 >!
b1111111111111111111111111111111111010011101011100001110011101011 @!
b01010011101011100001110011101011 D!
1E!
#20
0E!
#25
0'
b0000000000000000000000000000000001110010000011010100110001010101 7
b0000000000000000000000000000000111001101101100001010010110111011 =
b0000000000000000000000000000000111001101101100001010010110111011 _
b0000000000000000000000000000000001110010000011010100110001010101 a
b0000000000000000000000000000000001110010000011010100110001110101 c
b1111111111111111111111111111111111000111111111000100000011110110 e
b0000000000000000000000000000000001110010000011010100110001110101 k
b00000000000000000000000000000010 )!
b00000000000000000000000000000010 7!
b1111111111111111111111111111111111000111111111000100000011110110 @!
b00000000000000000000000000000010 C!
1E!
#30
0E!
#35
b0000000000000000000000000000000100000000000000000000000000000000 *
b0000000000000000000000000000000100000000000000000000000000000000 ,
b0000000000000000000000000000000001111010111010101011110100000010 7
b0000000000000000000000000000000000111011010100011001101101100001 ;
b1111111111111111111111111111110111101010110100111011010101110101 =
b1111111111111111111111111111111110101100001111101000001111110011 C
b0000000000000000000000000000000000111011010100011001101101100001 O
b1111111111111111111111111111111100111101011110110000010111010100 Q
b0000000000000000000000000000000000111011010100011001101101100001 S
b1111111111111111111111111111111100111101011110110000010111010100 W
b1111111111111111111111111111111100111101011110110000010111010100 Y
b1111111111111111111111111111110111101010110100111011010101110101 _
b0000000000000000000000000000000001111010111010101011110100000010 a
b1111111111111111111111111111111101111010111010101011110100101111 c
b1111111111111111111111111111111111101011101010000011011011101100 e
b1111111111111111111111111111111111100001001010011010110100011001 i
b1111111111111111111111111111111101111010111010101011110100101111 k
b0000000000000000000000000000000001011101011001011011110010000011 t
b0000000000000000000000000000000001011101011001011011110010000011 x
b0000000000000000000000000000000001011101011001011011110010000011 *!
b0000000000000000000000000000000001101010101100100111101001010111 .!
b0000000000000000000000000000000001101010101100100111101001010111 2!
b1111111111111111111111111111111111010000100111110010000100001010 4!
b0000000000000000000000000000000001011101011001011011110010000011 :!
b0000000000000000000000000000000001011101011001011011110010000011 >!
b1111111111111111111111111111111111010110000000111111111010011010 @!
1E!
#40
0E!
#45
b0000000000000000000000000000000100000000000000000000000000000000 (
b0000000000000000000000000000000000000000000000000000000000000000 *
b0000000000000000000000000000000010000001001101110100101001100010 7
b0000000000000000000000000000000001000100100011100001001010000100 9
b0000000000000000000000000000000000000000000000000000000000000000 ;
b1111111111111111111111111111111000000100110100010111001001111110 =
b0000000000000000000000000000000001000100100011100001001010000100 ?
b1111111111111111111111111111111100001010011101001100001011101011 A
b0000000000000000000000000000000001000100100011100001001010000100 C
b1111111111111111111111111111111100001010011101001100001011101011 E
b1111111111111111111111111111111100001010011101001100001011101011 I
b0000000000000000000000000000000000000000000000000000000000000000 O
b0000000000000000000000000000000000000000000000000000000000000000 Q
b1111111111111111111111111111111111100111110101101001101000010010 S
b0000000000000000000000000000000000000000000000000000000000000000 W
b0000000000000000000000000000000000000000000000000000000000000000 Y
b1111111111111111111111111111111000000100110100010111001001111110 _
b0000000000000000000000000000000010000001001101110100101001100010 a
b1111111111111111111111111111111110000001001101110100101010001011 c
b0000000000000000000000000000000000000100110111010011001100100000 e
b1111111111111111111111111111111111011110000011000101001101001100 g
b0000000000000000000000000000000000000000000000000000000000000000 i
b1111111111111111111111111111111110000001001101110100101010001011 k
b0000000000000000000000000000000001111011111100000011001000110010 r
b0000000000000000000000000000000001111011111100000011001000110010 v
b0000000000000000000000000000000001111011111100000011001000110010 z
b0000000000000000000000000000000000111110000010010110000000101101 |
b0000000000000000000000000000000000111110000010010110000000101101 "!
b0000000000000000000000000000000000000110100001001011001001010111 &!
b0000000000000000000000000000000001111011111100000011001000110010 8!
b0000000000000000000000000000000001111011111100000011001000110010 <!
b1111111111111111111111111111111111100011101011001001110110011001 @!
1E!
#50
0E!
#55
b0000000000000000000000000000000100000000000000000000000000000000 *
b0000000000000000000000000000000000000000000000000000000000000000 ,
b0000000000000000000000000000000001110111111110010101101000111001 7
b0000000000000000000000000000000000000000000000000000000000000000 9
b0000000000000000000000000000000000011010000011001111000001111000 ;
b0000000000000000000000000000000111100001110010100101010111001001 =
b0000000000000000000000000000000000000000000000000000000000000000 ?
b0000000000000000000000000000000000000000000000000000000000000000 A
b1111111111111111111111111111111110111001101101110000101111101101 C
b0000000000000000000000000000000000000000000000000000000000000000 E
b0000000000000000000000000000000000000000000000000000000000000000 I
b0000000000000000000000000000000000011010000011001111000001111000 O
b0000000000000000000000000000000010100111111100100000010000101010 Q
b0000000000000000000000000000000000011010000011001111000001111000 S
b0000000000000000000000000000000010100111111100100000010000101010 U
b0000000000000000000000000000000010100111111100100000010000101010 W
b0000000000000000000000000000000010100111111100100000010000101010 Y
b0000000000000000000000000000000111100001110010100101010111001001 _
b0000000000000000000000000000000001110111111110010101101000111001 a
b0000000000000000000000000000000001110111111110010101101001011101 c
b1111111111111111111111111111111111011111110110101001110100000110 e
b0000000000000000000000000000000000000000000000000000000000000000 g
b0000000000000000000000000000000000001100001101010110001110001111 i
b0000000000000000000000000000000001110111111110010101101001011101 k
b0000000000000000000000000000000001111011101100111111000100001110 r
b0000000000000000000000000000000001011001001111001110111010001001 t
b0000000000000000000000000000000001111011101100111111000100001110 v
b0000000000000000000000000000000001011001001111001110111010001001 x
b0000000000000000000000000000000001111011101100111111000100001110 z
b0000000000000000000000000000000000100101000011010010110110101110 |
b1111111111111111111111111111111110100111001000010101111001100111 ~
b0000000000000000000000000000000000100101000011010010110110101110 "!
b1111111111111111111111111111111110100111001000010101111001100111 $!
b1111111111111111111111111111111111101101100010000111111111011000 &!
b0000000000000000000000000000000001011001001111001110111010001001 *!
b0000000000000000000000000000000000000100011000110110110100001101 ,!
b0000000000000000000000000000000001010111110111100110111001011100 .!
b0000000000000000000000000000000000000100011000110110110100001101 0!
b0000000000000000000000000000000001010111110111100110111001011100 2!
b1111111111111111111111111111111110111101110010110001010100001111 4!
b0000000000000000000000000000000001111011101100111111000100001110 8!
b0000000000000000000000000000000001011001001111001110111010001001 :!
b0000000000000000000000000000000001111011101100111111000100001110 <!
b0000000000000000000000000000000001011001001111001110111010001001 >!
b1111111111111111111111111111111111010110110001011110101000011110 @!
1E!
#60
0E!
#65
b0000000000000000000000000000000000000000000000000000000000000000 (
b0000000000000000000000000000000000000000000000000000000000000000 *
00
b0000000000000000000000000000000001110101101101110010101010010100 7
b0000000000000000000000000000000000000000000000000000000000000000 ;
b0000000000000000000000000000000111011001111010111110011110011110 =
b1111111111111111111111111111111111101101100010000111111111011000 C
b0000000000000000000000000000000000000000000000000000000000000000 O
b0000000000000000000000000000000000000000000000000000000000000000 Q
b1111111111111111111111111111111110111101110010110001010100001111 S
b0000000000000000000000000000000000000000000000000000000000000000 U
b0000000000000000000000000000000000000000000000000000000000000000 W
b0000000000000000000000000000000000000000000000000000000000000000 Y
b0000000000000000000000000000000111011001111010111110011110011110 _
b0000000000000000000000000000000001110101101101110010101010010100 a
b0000000000000000000000000000000001110101101101110010101010110110 c
b1111111111111111111111111111111111010110110001011110101000011110 e
b0000000000000000000000000000000000000000000000000000000000000000 i
b0000000000000000000000000000000001110101101101110010101010110110 k
1E!
#70
0E!
#75
b0000000000000000000000000000000100000000000000000000000000000000 *
b0000000000000000000000000000000100000000000000000000000000000000 ,
b0000000000000000000000000000000001110111100101111101101001110000 7
b0000000000000000000000000000000000010101101010011000001101101011 ;
b1111111111111111111111111111110111011100000000100100011000011111 =
b1111111111111111111111111111111110010100101010011101111000111111 C
b0000000000000000000000000000000000010101101010011000001101101011 O
b1111111111111111111111111111111101000000111110100101110001001110 Q
b0000000000000000000000000000000000010101101010011000001101101011 S
b1111111111111111111111111111111101000000111110100101110001001110 W
b1111111111111111111111111111111101000000111110100101110001001110 Y
b1111111111111111111111111111110111011100000000100100011000011111 _
b0000000000000000000000000000000001110111100101111101101001110000 a
b1111111111111111111111111111111101110111100101111101101010100000 c
b1111111111111111111111111111111111011110010100110000000010111000 e
b1111111111111111111111111111111111110100011101010010001000101000 i
b1111111111111111111111111111111101110111100101111101101010100000 k
1E!
#80
0E!
#85
b0000000000000000000000000000000100000000000000000000000000000000 (
b0000000000000000000000000000000000000000000000000000000000000000 *
b0000000000000000000000000000000001110111111100101111001010011111 7
b0000000000000000000000000000000000010010100101011010110110000110 9
b0000000000000000000000000000000000000000000000000000000000000000 ;
b1111111111111111111111111111110111011101101000100111000100101010 =
b0000000000000000000000000000000000010010100101011010110110000110 ?
b1111111111111111111111111111111011110111111111010000001001111100 A
b0000000000000000000000000000000000010010100101011010110110000110 C
b1111111111111111111111111111111011110111111111010000001001111100 E
b1111111111111111111111111111111011110111111111010000001001111100 I
b0000000000000000000000000000000000000000000000000000000000000000 O
b0000000000000000000000000000000000000000000000000000000000000000 Q
b1111111111111111111111111111111111000010001011101000001000011100 S
b0000000000000000000000000000000000000000000000000000000000000000 W
b0000000000000000000000000000000000000000000000000000000000000000 Y
b1111111111111111111111111111110111011101101000100111000100101010 _
b0000000000000000000000000000000001110111111100101111001010011111 a
b1111111111111111111111111111111101110111111100101111001011001111 c
b1111111111111111111111111111111111011111110000001110010010100101 e
b1111111111111111111111111111111111110110000111111000100101000001 g
b0000000000000000000000000000000000000000000000000000000000000000 i
b1111111111111111111111111111111101110111111100101111001011001111 k
1E!
#90
0E!
#95
b0000000000000000000000000000000100000000000000000000000000000000 *
b0000000000000000000000000000000000000000000000000000000000000000 ,
b0000000000000000000000000000000001110111111110010101101000111001 7
b0000000000000000000000000000000000000000000000000000000000000000 9
b0000000000000000000000000000000000011010000011001111000001111000 ;
b0000000000000000000000000000000111100001110010100101010111001001 =
b0000000000000000000000000000000000000000000000000000000000000000 ?
b0000000000000000000000000000000000000000000000000000000000000000 A
b1111111111111111111111111111111110111001101101110000101111101101 C
b0000000000000000000000000000000000000000000000000000000000000000 E
b0000000000000000000000000000000000000000000000000000000000000000 I
b0000000000000000000000000000000000011010000011001111000001111000 O
b0000000000000000000000000000000010100111111100100000010000101010 Q
b0000000000000000000000000000000000011010000011001111000001111000 S
b0000000000000000000000000000000010100111111100100000010000101010 U
b0000000000000000000000000000000010100111111100100000010000101010 W
b0000000000000000000000000000000010100111111100100000010000101010 Y
b0000000000000000000000000000000111100001110010100101010111001001 _
b0000000000000000000000000000000001110111111110010101101000111001 a
b0000000000000000000000000000000001110111111110010101101001011101 c
b1111111111111111111111111111111111011111110110101001110100000110 e
b0000000000000000000000000000000000000000000000000000000000000000 g
b0000000000000000000000000000000000001100001101010110001110001111 i
b0000000000000000000000000000000001110111111110010101101001011101 k
1E!
#100
0E!
#105
b0000000000000000000000000000000000000000000000000000000000000000 (
b0000000000000000000000000000000000000000000000000000000000000000 *
10
b00000000000000000000000000000001 6
b0000000000000000000000000000000001110010110011000010100110001111 7
b0000000000000000000000000000000000000000000000000000000000000000 ;
b0000000000000000000000000000000111010000001000001011011101011111 =
b1111111111111111111111111111111111101101100010000111111111011000 C
b0000000000000000000000000000000000000000000000000000000000000000 O
b0000000000000000000000000000000000000000000000000000000000000000 Q
b1111111111111111111111111111111110111101110010110001010100001111 S
b0000000000000000000000000000000000000000000000000000000000000000 U
b0000000000000000000000000000000000000000000000000000000000000000 W
b0000000000000000000000000000000000000000000000000000000000000000 Y
b0000000000000000000000000000000111010000001000001011011101011111 _
b0000000000000000000000000000000001110010110011000010100110001111 a
b0000000000000000000000000000000001110010110011000010100110110000 c
b1111111111111111111111111111111111001011000000000110010111011001 e
b0000000000000000000000000000000000000000000000000000000000000000 i
b0000000000000000000000000000000001110010110011000010100110110000 k
b1111111111111111111111111111111111001011000000000110010111011001 @!
1E!
#110
0E!
#115
b0000000000000000000000000000000100000000000000000000000000000000 *
b0000000000000000000000000000000100000000000000000000000000000000 ,
b0000000000000000000000000000000001111011100110110010100010101101 7
b0000000000000000000000000000000000111100110100110001000100110111 ;
b1111111111111111111111111111110111101101110011001011001001000010 =
b1111111111111111111111111111111110010100101010011101111000111111 C
b0000000000000000000000000000000000111100110100110001000100110111 O
b1111111111111111111111111111111101000100101111001101110100000110 Q
b0000000000000000000000000000000000111100110100110001000100110111 S
b1111111111111111111111111111111101000100101111001101110100000110 W
b1111111111111111111111111111111101000100101111001101110100000110 Y
b1111111111111111111111111111110111101101110011001011001001000010 _
b0000000000000000000000000000000001111011100110110010100010101101 a
b1111111111111111111111111111111101111011100110110010100011011011 c
b1111111111111111111111111111111111101110011010101101110111110011 e
b1111111111111111111111111111111111100000100010110011010110001110 i
b1111111111111111111111111111111101111011100110110010100011011011 k
b0000000000000000000000000000000001011010011010101100000101010100 t
b0000000000000000000000000000000001011010011010101100000101010100 x
b0000000000000000000000000000000001011010011010101100000101010100 *!
b0000000000000000000000000000000001101011011100110011010101000010 .!
b0000000000000000000000000000000001101011011100110011010101000010 2!
b1111111111111111111111111111111111010001010111111101101111110101 4!
b0000000000000000000000000000000001011010011010101100000101010100 :!
b0000000000000000000000000000000001011010011010101100000101010100 >!
b1111111111111111111111111111111111011000111011110100110010010010 @!
1E!
#120
0E!
