Full_MLP/sim.vcd
$version Generated by VerilatedVcd $end
$timescale 1ps $end
 $scope module $rootio $end
 $upscope $end
 $scope module FixedPoint $end
  $var wire 32 ~! frac_bits [31:0] $end
  $var wire 64 !" epsilon [63:0] $end
  $var wire 64 % ONE [63:0] $end
  $var wire 64 #" HALF [63:0] $end
  $var wire 32 b! lcg_next__Vstatic__current [31:0] $end
 $upscope $end
 $scope module BenchMLP $end
  $var wire 32 x! inputs [31:0] $end
  $var wire 32 y! hidden_layers [31:0] $end
  $var wire 32 z! hidden_layer_sizes[0] [31:0] $end
  $var wire 32 y! outputs [31:0] $end
  $var wire 1 c! clk $end
  $var wire 1 ' rst $end
  $var wire 64 ( values[0] [63:0] $end
  $var wire 64 * values[1] [63:0] $end
  $var wire 64 , expected[0] [63:0] $end
  $var wire 32 . hidden_activation [31:0] $end
  $var wire 32 / output_activation [31:0] $end
  $var wire 1 0 training $end
  $var wire 64 1 learning_rate [63:0] $end
  $var wire 64 C prediction[0] [63:0] $end
  $var wire 64 3 threshold [63:0] $end
  $var wire 32 5 correct [31:0] $end
  $scope module mlp $end
   $var wire 32 x! inputs [31:0] $end
   $var wire 32 y! hidden_layers [31:0] $end
   $var wire 32 {! hidden_layer_sizes[0] [31:0] $end
   $var wire 32 y! outputs [31:0] $end
   $var wire 1 c! clk $end
   $var wire 1 ' rst $end
   $var wire 64 ( values[0] [63:0] $end
   $var wire 64 * values[1] [63:0] $end
   $var wire 64 , expected[0] [63:0] $end
   $var wire 32 . hidden_activation [31:0] $end
   $var wire 32 / output_activation [31:0] $end
   $var wire 1 0 training $end
   $var wire 64 1 learning_rate [63:0] $end
   $var wire 64 C prediction[0] [63:0] $end
   $var wire 32 x! max_layer_size [31:0] $end
   $var wire 64 "! layer_weights[0][0][0] [63:0] $end
   $var wire 64 $! layer_weights[0][0][1] [63:0] $end
   $var wire 64 &! layer_weights[0][1][0] [63:0] $end
   $var wire 64 (! layer_weights[0][1][1] [63:0] $end
   $var wire 64 *! layer_weights[1][0][0] [63:0] $end
   $var wire 64 ,! layer_weights[1][0][1] [63:0] $end
   $var wire 64 .! layer_weights[1][1][0] [63:0] $end
   $var wire 64 0! layer_weights[1][1][1] [63:0] $end
   $var wire 64 d! layer_outputs[0][0] [63:0] $end
   $var wire 64 f! layer_outputs[0][1] [63:0] $end
   $var wire 64 h! layer_outputs[1][0] [63:0] $end
   $var wire 64 j! layer_outputs[1][1] [63:0] $end
   $var wire 64 l! layer_error_gradients[0][0] [63:0] $end
   $var wire 64 n! layer_error_gradients[0][1] [63:0] $end
   $var wire 64 p! layer_error_gradients[1][0] [63:0] $end
   $var wire 64 r! layer_error_gradients[1][1] [63:0] $end
   $var wire 64 2! next_layer_weights[0][0][0] [63:0] $end
   $var wire 64 4! next_layer_weights[0][0][1] [63:0] $end
   $var wire 64 6! next_layer_weights[0][1][0] [63:0] $end
   $var wire 64 8! next_layer_weights[0][1][1] [63:0] $end
   $var wire 64 E cost_gradients[0] [63:0] $end
   $scope module gen_hidden_layer[0] $end
    $var wire 32 x! current_layer_size [31:0] $end
    $var wire 32 x! current_input_size [31:0] $end
    $var wire 32 y! current_output_size [31:0] $end
    $scope module gen_hidden_neuron[0] $end
     $scope module hidden_perceptron $end
      $var wire 32 x! input_units [31:0] $end
      $var wire 32 y! output_units [31:0] $end
      $var wire 1 c! clk $end
      $var wire 1 ' rst $end
      $var wire 64 7 values[0] [63:0] $end
      $var wire 64 9 values[1] [63:0] $end
      $var wire 32 . activation [31:0] $end
      $var wire 1 0 training $end
      $var wire 64 1 learning_rate [63:0] $end
      $var wire 64 :! next_layer_weights[0] [63:0] $end
      $var wire 64 t! error_gradient_next_layer[0] [63:0] $end
      $var wire 64 G prediction [63:0] $end
      $var wire 64 d error_gradient [63:0] $end
      $var wire 64 <! current_weights[0] [63:0] $end
      $var wire 64 >! current_weights[1] [63:0] $end
      $var wire 64 @! weights[0] [63:0] $end
      $var wire 64 B! weights[1] [63:0] $end
      $var wire 64 D! bias [63:0] $end
      $var wire 64 I sum [63:0] $end
      $var wire 64 f weight_gradient[0] [63:0] $end
      $var wire 64 h weight_gradient[1] [63:0] $end
      $var wire 64 j bias_gradient [63:0] $end
      $var wire 64 l local_error_gradient [63:0] $end
      $scope module predict $end
       $var wire 32 . activation [31:0] $end
       $var wire 64 I sum [63:0] $end
       $var wire 64 G prediction [63:0] $end
      $upscope $end
      $scope module unnamedblk1 $end
       $var wire 32 |! i [31:0] $end
      $upscope $end
      $scope module unnamedblk2 $end
       $var wire 32 |! i [31:0] $end
      $upscope $end
      $scope module unnamedblk3 $end
       $var wire 32 n i [31:0] $end
      $upscope $end
      $scope module unnamedblk4 $end
       $var wire 32 o i [31:0] $end
      $upscope $end
      $scope module unnamedblk5 $end
       $var wire 32 p i [31:0] $end
      $upscope $end
      $scope module unnamedblk6 $end
       $var wire 32 q i [31:0] $end
      $upscope $end
      $scope module unnamedblk7 $end
       $var wire 32 F! i [31:0] $end
      $upscope $end
      $scope module unnamedblk8 $end
       $var wire 32 G! i [31:0] $end
      $upscope $end
     $upscope $end
    $upscope $end
    $scope module gen_hidden_neuron[1] $end
     $scope module hidden_perceptron $end
      $var wire 32 x! input_units [31:0] $end
      $var wire 32 y! output_units [31:0] $end
      $var wire 1 c! clk $end
      $var wire 1 ' rst $end
      $var wire 64 ; values[0] [63:0] $end
      $var wire 64 = values[1] [63:0] $end
      $var wire 32 . activation [31:0] $end
      $var wire 1 0 training $end
      $var wire 64 1 learning_rate [63:0] $end
      $var wire 64 H! next_layer_weights[0] [63:0] $end
      $var wire 64 v! error_gradient_next_layer[0] [63:0] $end
      $var wire 64 K prediction [63:0] $end
      $var wire 64 r error_gradient [63:0] $end
      $var wire 64 J! current_weights[0] [63:0] $end
      $var wire 64 L! current_weights[1] [63:0] $end
      $var wire 64 N! weights[0] [63:0] $end
      $var wire 64 P! weights[1] [63:0] $end
      $var wire 64 R! bias [63:0] $end
      $var wire 64 M sum [63:0] $end
      $var wire 64 t weight_gradient[0] [63:0] $end
      $var wire 64 v weight_gradient[1] [63:0] $end
      $var wire 64 x bias_gradient [63:0] $end
      $var wire 64 z local_error_gradient [63:0] $end
      $scope module predict $end
       $var wire 32 . activation [31:0] $end
       $var wire 64 M sum [63:0] $end
       $var wire 64 K prediction [63:0] $end
      $upscope $end
      $scope module unnamedblk1 $end
       $var wire 32 |! i [31:0] $end
      $upscope $end
      $scope module unnamedblk2 $end
       $var wire 32 |! i [31:0] $end
      $upscope $end
      $scope module unnamedblk3 $end
       $var wire 32 | i [31:0] $end
      $upscope $end
      $scope module unnamedblk4 $end
       $var wire 32 } i [31:0] $end
      $upscope $end
      $scope module unnamedblk5 $end
       $var wire 32 ~ i [31:0] $end
      $upscope $end
      $scope module unnamedblk6 $end
       $var wire 32 !! i [31:0] $end
      $upscope $end
      $scope module unnamedblk7 $end
       $var wire 32 T! i [31:0] $end
      $upscope $end
      $scope module unnamedblk8 $end
       $var wire 32 U! i [31:0] $end
      $upscope $end
     $upscope $end
    $upscope $end
    $scope module unnamedblk3 $end
     $var wire 32 |! i [31:0] $end
     $scope module unnamedblk4 $end
      $var wire 32 }! j [31:0] $end
     $upscope $end
    $upscope $end
   $upscope $end
   $scope module gen_output_layer_neuron[0] $end
    $scope module output_perceptron $end
     $var wire 32 x! input_units [31:0] $end
     $var wire 32 y! output_units [31:0] $end
     $var wire 1 c! clk $end
     $var wire 1 ' rst $end
     $var wire 64 ? values[0] [63:0] $end
     $var wire 64 A values[1] [63:0] $end
     $var wire 32 / activation [31:0] $end
     $var wire 1 0 training $end
     $var wire 64 1 learning_rate [63:0] $end
     $var wire 64 # next_layer_weights[0] [63:0] $end
     $var wire 64 O error_gradient_next_layer[0] [63:0] $end
     $var wire 64 Q prediction [63:0] $end
     $var wire 64 S error_gradient [63:0] $end
     $var wire 64 V! current_weights[0] [63:0] $end
     $var wire 64 X! current_weights[1] [63:0] $end
     $var wire 64 Z! weights[0] [63:0] $end
     $var wire 64 \! weights[1] [63:0] $end
     $var wire 64 ^! bias [63:0] $end
     $var wire 64 U sum [63:0] $end
     $var wire 64 W weight_gradient[0] [63:0] $end
     $var wire 64 Y weight_gradient[1] [63:0] $end
     $var wire 64 [ bias_gradient [63:0] $end
     $var wire 64 ] local_error_gradient [63:0] $end
     $scope module predict $end
      $var wire 32 / activation [31:0] $end
      $var wire 64 U sum [63:0] $end
      $var wire 64 Q prediction [63:0] $end
     $upscope $end
     $scope module unnamedblk1 $end
      $var wire 32 |! i [31:0] $end
     $upscope $end
     $scope module unnamedblk2 $end
      $var wire 32 |! i [31:0] $end
     $upscope $end
     $scope module unnamedblk3 $end
      $var wire 32 _ i [31:0] $end
     $upscope $end
     $scope module unnamedblk4 $end
      $var wire 32 ` i [31:0] $end
     $upscope $end
     $scope module unnamedblk5 $end
      $var wire 32 a i [31:0] $end
     $upscope $end
     $scope module unnamedblk6 $end
      $var wire 32 b i [31:0] $end
     $upscope $end
     $scope module unnamedblk7 $end
      $var wire 32 `! i [31:0] $end
     $upscope $end
     $scope module unnamedblk8 $end
      $var wire 32 a! i [31:0] $end
     $upscope $end
    $upscope $end
   $upscope $end
   $scope module unnamedblk2 $end
    $var wire 32 |! i [31:0] $end
   $upscope $end
   $scope module unnamedblk5 $end
    $var wire 32 c i [31:0] $end
   $upscope $end
  $upscope $end
  $scope module unnamedblk1 $end
   $var wire 32 6 epoch [31:0] $end
  $upscope $end
 $upscope $end
$enddefinitions $end


#0
b0000000000000000000000000000000100000000000000000000000000000000 #
b0000000000000000000000000000000100000000000000000000000000000000 %
1'
b0000000000000000000000000000000000000000000000000000000000000000 (
b0000000000000000000000000000000000000000000000000000000000000000 *
b0000000000000000000000000000000000000000000000000000000000000000 ,
b00000000000000000000000000000011 .
b00000000000000000000000000000001 /
10
b0000000000000000000000000000000000011001100110011001100110011010 1
b0000000000000000000000000000000000000000000000000000000000000000 3
b00000000000000000000000000000000 5
b00000000000000000000000000000000 6
b0000000000000000000000000000000000000000000000000000000000000000 7
b0000000000000000000000000000000000000000000000000000000000000000 9
b0000000000000000000000000000000000000000000000000000000000000000 ;
b0000000000000000000000000000000000000000000000000000000000000000 =
b0000000000000000000000000000000000000000000000000000000000000000 ?
b0000000000000000000000000000000000000000000000000000000000000000 A
b0000000000000000000000000000000010000000000000000000000000000000 C
b0000000000000000000000000000001000000000000000000000000010101000 E
b0000000000000000000000000000000000000000000000000000000000000000 G
b0000000000000000000000000000000000000000000000000000000000000000 I
b0000000000000000000000000000000000000000000000000000000000000000 K
b0000000000000000000000000000000000000000000000000000000000000000 M
b0000000000000000000000000000001000000000000000000000000010101000 O
b0000000000000000000000000000000010000000000000000000000000000000 Q
b0000000000000000000000000000000010000000000000000000000000101010 S
b0000000000000000000000000000000000000000000000000000000000000000 U
b0000000000000000000000000000000000000000000000000000000000000000 W
b0000000000000000000000000000000000000000000000000000000000000000 Y
b0000000000000000000000000000000010000000000000000000000000101010 [
b0000000000000000000000000000000010000000000000000000000000101010 ]
b00000000000000000000000000000001 _
b00000000000000000000000000000000 `
b00000000000000000000000000000000 a
b00000000000000000000000000000010 b
b00000000000000000000000000000001 c
b0000000000000000000000000000000000000000000000000000000000000000 d
b0000000000000000000000000000000000000000000000000000000000000000 f
b0000000000000000000000000000000000000000000000000000000000000000 h
b0000000000000000000000000000000000000000000000000000000000000000 j
b0000000000000000000000000000000000000000000000000000000000000000 l
b00000000000000000000000000000000 n
b00000000000000000000000000000000 o
b00000000000000000000000000000001 p
b00000000000000000000000000000010 q
b0000000000000000000000000000000000000000000000000000000000000000 r
b0000000000000000000000000000000000000000000000000000000000000000 t
b0000000000000000000000000000000000000000000000000000000000000000 v
b0000000000000000000000000000000000000000000000000000000000000000 x
b0000000000000000000000000000000000000000000000000000000000000000 z
b00000000000000000000000000000000 |
b00000000000000000000000000000000 }
b00000000000000000000000000000001 ~
b00000000000000000000000000000010 !!
b0000000000000000000000000000000000000000000000000000000000000000 "!
b0000000000000000000000000000000000000000000000000000000000000000 $!
b0000000000000000000000000000000000000000000000000000000000000000 &!
b0000000000000000000000000000000000000000000000000000000000000000 (!
b0000000000000000000000000000000000000000000000000000000000000000 *!
b0000000000000000000000000000000000000000000000000000000000000000 ,!
b0000000000000000000000000000000000000000000000000000000000000000 .!
b0000000000000000000000000000000000000000000000000000000000000000 0!
b0000000000000000000000000000000000000000000000000000000000000000 2!
b0000000000000000000000000000000000000000000000000000000000000000 4!
b0000000000000000000000000000000000000000000000000000000000000000 6!
b0000000000000000000000000000000000000000000000000000000000000000 8!
b0000000000000000000000000000000000000000000000000000000000000000 :!
b0000000000000000000000000000000000000000000000000000000000000000 <!
b0000000000000000000000000000000000000000000000000000000000000000 >!
b0000000000000000000000000000000000000000000000000000000000000000 @!
b0000000000000000000000000000000000000000000000000000000000000000 B!
b0000000000000000000000000000000000000000000000000000000000000000 D!
b00000000000000000000000000000000 F!
b00000000000000000000000000000000 G!
b0000000000000000000000000000000000000000000000000000000000000000 H!
b0000000000000000000000000000000000000000000000000000000000000000 J!
b0000000000000000000000000000000000000000000000000000000000000000 L!
b0000000000000000000000000000000000000000000000000000000000000000 N!
b0000000000000000000000000000000000000000000000000000000000000000 P!
b0000000000000000000000000000000000000000000000000000000000000000 R!
b00000000000000000000000000000000 T!
b00000000000000000000000000000000 U!
b0000000000000000000000000000000000000000000000000000000000000000 V!
b0000000000000000000000000000000000000000000000000000000000000000 X!
b0000000000000000000000000000000000000000000000000000000000000000 Z!
b0000000000000000000000000000000000000000000000000000000000000000 \!
b0000000000000000000000000000000000000000000000000000000000000000 ^!
b00000000000000000000000000000000 `!
b00000000000000000000000000000000 a!
b00000000000000000000000000000001 b!
0c!
b0000000000000000000000000000000000000000000000000000000000000000 d!
b0000000000000000000000000000000000000000000000000000000000000000 f!
b0000000000000000000000000000000000000000000000000000000000000000 h!
b0000000000000000000000000000000000000000000000000000000000000000 j!
b0000000000000000000000000000000000000000000000000000000000000000 l!
b0000000000000000000000000000000000000000000000000000000000000000 n!
b0000000000000000000000000000000010000000000000000000000000101010 p!
b0000000000000000000000000000000000000000000000000000000000000000 r!
b0000000000000000000000000000000010000000000000000000000000101010 t!
b0000000000000000000000000000000010000000000000000000000000101010 v!
b00000000000000000000000000000010 x!
b00000000000000000000000000000001 y!
b00000000000000000000000000000010 z!
b00000000000000000000000000000010 {!
b00000000000000000000000000000010 |!
b00000000000000000000000000000001 }!
b00000000000000000000000000100000 ~!
b0000000000000000000000000000000000000000000000000000000000101010 !"
b0000000000000000000000000000000010000000000000000000000000000000 #"
#5
b0000000000000000000000000000000000000001000101100000000101111110 ?
b0000000000000000000000000000000001100001101101110000110111011110 C
b0000000000000000000000000000000110011110000010011100001001001001 E
b0000000000000000000000000000000000000001000101100000000101111110 G
b0000000000000000000000000000000000000001000101100000000101111110 I
b1111111111111111111111111111111111011110100110001100000100111111 M
b0000000000000000000000000000000110011110000010011100001001001001 O
b0000000000000000000000000000000001100001101101110000110111011110 Q
b0000000000000000000000000000000001100001101101110000110111110110 S
b1111111111111111111111111111111110000100100001010100100101010001 U
b0000000000000000000000000000000000000000011010100001110101011010 W
b0000000000000000000000000000000001100001101101110000110111110110 [
b0000000000000000000000000000000001100001101101110000110111110110 ]
b0000000000000000000000000000000000011010110110010011010111100010 d
b0000000000000000000000000000000000011010110110010011010111100010 j
b0000000000000000000000000000000000011010110110010011010111100010 l
b1111111111111111111111111111111110111100100010000101100101101100 "!
b1111111111111111111111111111111111011110100010001000010111011011 $!
b0000000000000000000000000000000000110100011100110011101011000101 &!
b1111111111111111111111111111111110001100111100000110110101100000 (!
b0000000000000000000000000000000001000110010101101101110110010010 *!
b0000000000000000000000000000000000001110011000100101111111001001 ,!
b0000000000000000000000000000000001000110010101101101110110010010 2!
b0000000000000000000000000000000000001110011000100101111111001001 6!
b0000000000000000000000000000000001000110010101101101110110010010 :!
b1111111111111111111111111111111110111100100010000101100101101100 <!
b1111111111111111111111111111111111011110100010001000010111011011 >!
b1111111111111111111111111111111110111100100010000101100101101100 @!
b1111111111111111111111111111111111011110100010001000010111011011 B!
b0000000000000000000000000000000000000001000101100000000101111110 D!
b00000000000000000000000000000010 F!
b0000000000000000000000000000000000001110011000100101111111001001 H!
b0000000000000000000000000000000000110100011100110011101011000101 J!
b1111111111111111111111111111111110001100111100000110110101100000 L!
b0000000000000000000000000000000000110100011100110011101011000101 N!
b1111111111111111111111111111111110001100111100000110110101100000 P!
b1111111111111111111111111111111111011110100110001100000100111111 R!
b00000000000000000000000000000010 T!
b0000000000000000000000000000000001000110010101101101110110010010 V!
b0000000000000000000000000000000000001110011000100101111111001001 X!
b0000000000000000000000000000000001000110010101101101110110010010 Z!
b0000000000000000000000000000000000001110011000100101111111001001 \!
b1111111111111111111111111111111110000100001110001110011010010100 ^!
b00000000000000000000000000000010 `!
b00000100001110001110011010010100 b!
1c!
b0000000000000000000000000000000000000001000101100000000101111110 h!
b0000000000000000000000000000000000011010110110010011010111100010 l!
b0000000000000000000000000000000001100001101101110000110111110110 p!
b0000000000000000000000000000000001100001101101110000110111110110 t!
b0000000000000000000000000000000001100001101101110000110111110110 v!
#10
0c!
#15
b0000000000000000000000000000000000000000000000000000000000000000 ?
b0000000000000000000000000000000001110100111100101001011101110111 C
b0000000000000000000000000000000111010111010011011110111100111001 E
b0000000000000000000000000000000000000000000000000000000000000000 G
b1111111111111111111111111111111111101100001000001111001100001101 I
b1111111111111111111111111111111110111100001011011110111101111010 M
b0000000000000000000000000000000111010111010011011110111100111001 O
b0000000000000000000000000000000001110100111100101001011101110111 Q
b0000000000000000000000000000000001110100111100101001011110011001 S
b1111111111111111111111111111111111010011101011100001110011101011 U
b0000000000000000000000000000000000000000000000000000000000000000 W
b0000000000000000000000000000000001110100111100101001011110011001 [
b0000000000000000000000000000000001110100111100101001011110011001 ]
b0000000000000000000000000000000000000000000000000000000000000000 d
b0000000000000000000000000000000000000000000000000000000000000000 j
b0000000000000000000000000000000000000000000000000000000000000000 l
b0000000000000000000000000000000000100011101001011010000011100011 "!
b1111111111111111111111111111111111000000000111011001000011100110 $!
b0000000000000000000000000000000000010111001101110111100100001000 &!
b0000000000000000000000000000000001010110010000010100100011000111 (!
b0000000000000000000000000000000001111011000110001011100010010001 *!
b0000000000000000000000000000000001011100011000110001100010111100 ,!
b0000000000000000000000000000000001111011000110001011100010010001 2!
b0000000000000000000000000000000001011100011000110001100010111100 6!
b0000000000000000000000000000000001111011000110001011100010010001 :!
b0000000000000000000000000000000000100011101001011010000011100011 <!
b1111111111111111111111111111111111000000000111011001000011100110 >!
b0000000000000000000000000000000000100011101001011010000011100011 @!
b1111111111111111111111111111111111000000000111011001000011100110 B!
b1111111111111111111111111111111111101100001000001111001100001101 D!
b0000000000000000000000000000000001011100011000110001100010111100 H!
b0000000000000000000000000000000000010111001101110111100100001000 J!
b0000000000000000000000000000000001010110010000010100100011000111 L!
b0000000000000000000000000000000000010111001101110111100100001000 N!
b0000000000000000000000000000000001010110010000010100100011000111 P!
b1111111111111111111111111111111110111100001011011110111101111010 R!
b0000000000000000000000000000000001111011000110001011100010010001 V!
b0000000000000000000000000000000001011100011000110001100010111100 X!
b0000000000000000000000000000000001111011000110001011100010010001 Z!
b0000000000000000000000000000000001011100011000110001100010111100 \!
b1111111111111111111111111111111111010011101011100001110011101011 ^!
b01010011101011100001110011101011 b!
1c!
b0000000000000000000000000000000000000000000000000000000000000000 h!
b0000000000000000000000000000000000000000000000000000000000000000 l!
b0000000000000000000000000000000001110100111100101001011110011001 p!
b0000000000000000000000000000000001110100111100101001011110011001 t!
b0000000000000000000000000000000001110100111100101001011110011001 v!
#20
0c!
#25
0'
b0000000000000000000000000000000001110010000011010100110001010101 C
b0000000000000000000000000000000111001101101100001010010110111011 E
b0000000000000000000000000000000111001101101100001010010110111011 O
b0000000000000000000000000000000001110010000011010100110001010101 Q
b0000000000000000000000000000000001110010000011010100110001110101 S
b1111111111111111111111111111111111000111111111000100000011110110 U
b0000000000000000000000000000000001110010000011010100110001110101 [
b0000000000000000000000000000000001110010000011010100110001110101 ]
b00000000000000000000000000000010 G!
b00000000000000000000000000000010 U!
b1111111111111111111111111111111111000111111111000100000011110110 ^!
b00000000000000000000000000000010 a!
1c!
b0000000000000000000000000000000001110010000011010100110001110101 p!
b0000000000000000000000000000000001110010000011010100110001110101 t!
b0000000000000000000000000000000001110010000011010100110001110101 v!
#30
0c!
#35
b0000000000000000000000000000000100000000000000000000000000000000 *
b0000000000000000000000000000000100000000000000000000000000000000 ,
b0000000000000000000000000000000100000000000000000000000000000000 9
b0000000000000000000000000000000100000000000000000000000000000000 =
b0000000000000000000000000000000000011100100011111010010101000001 A
b0000000000000000000000000000000001111000000111100111000000000001 C
b1111111111111111111111111111110111011110011010000100000111001010 E
b1111111111111111111111111111111110101100001111101000001111110011 I
b0000000000000000000000000000000000011100100011111010010101000001 K
b0000000000000000000000000000000000011100100011111010010101000001 M
b1111111111111111111111111111110111011110011010000100000111001010 O
b0000000000000000000000000000000001111000000111100111000000000001 Q
b1111111111111111111111111111111101111000000111100111000000110010 S
b1111111111111111111111111111111111100000011011111000011101010110 U
b1111111111111111111111111111111111110000110101110001010110001111 Y
b1111111111111111111111111111111101111000000111100111000000110010 [
b1111111111111111111111111111111101111000000111100111000000110010 ]
b1111111111111111111111111111111111001110011011010000111010110101 r
b1111111111111111111111111111111111001110011011010000111010110101 v
b1111111111111111111111111111111111001110011011010000111010110101 x
b1111111111111111111111111111111111001110011011010000111010110101 z
b0000000000000000000000000000000001011011010100010111111101000111 (!
b0000000000000000000000000000000001011101011001011011110010000011 ,!
b0000000000000000000000000000000001011101011001011011110010000011 6!
b0000000000000000000000000000000001011101011001011011110010000011 H!
b0000000000000000000000000000000001011011010100010111111101000111 L!
b0000000000000000000000000000000001011011010100010111111101000111 P!
b1111111111111111111111111111111111000001001111100010010111111010 R!
b0000000000000000000000000000000001011101011001011011110010000011 X!
b0000000000000000000000000000000001011101011001011011110010000011 \!
b1111111111111111111111111111111111010110000000111111111010011010 ^!
1c!
b0000000000000000000000000000000100000000000000000000000000000000 f!
b0000000000000000000000000000000000011100100011111010010101000001 j!
b1111111111111111111111111111111111001110011011010000111010110101 n!
b1111111111111111111111111111111101111000000111100111000000110010 p!
b1111111111111111111111111111111101111000000111100111000000110010 t!
b1111111111111111111111111111111101111000000111100111000000110010 v!
#40
0c!
#45
b0000000000000000000000000000000100000000000000000000000000000000 (
b0000000000000000000000000000000000000000000000000000000000000000 *
b0000000000000000000000000000000100000000000000000000000000000000 7
b0000000000000000000000000000000000000000000000000000000000000000 9
b0000000000000000000000000000000100000000000000000000000000000000 ;
b0000000000000000000000000000000000000000000000000000000000000000 =
b0000000000000000000000000000000000011100111010010100000000001010 ?
b0000000000000000000000000000000000000000000000000000000000000000 A
b0000000000000000000000000000000001111100011010110011000100110011 C
b1111111111111111111111111111110111110001010000110011011010101001 E
b0000000000000000000000000000000000011100111010010100000000001010 G
b0000000000000000000000000000000000011100111010010100000000001010 I
b0000000000000000000000000000000000000000000000000000000000000000 K
b1111111111111111111111111111111111011000011101011001111100000010 M
b1111111111111111111111111111110111110001010000110011011010101001 O
b0000000000000000000000000000000001111100011010110011000100110011 Q
b1111111111111111111111111111111101111100011010110011000101100000 S
b1111111111111111111111111111111111110001101010111100111110110101 U
b1111111111111111111111111111111111110001001000111101011000001100 W
b0000000000000000000000000000000000000000000000000000000000000000 Y
b1111111111111111111111111111111101111100011010110011000101100000 [
b1111111111111111111111111111111101111100011010110011000101100000 ]
b1111111111111111111111111111111111000000010011000000101101101010 d
b1111111111111111111111111111111111000000010011000000101101101010 f
b1111111111111111111111111111111111000000010011000000101101101010 j
b1111111111111111111111111111111111000000010011000000101101101010 l
b0000000000000000000000000000000000000000000000000000000000000000 r
b0000000000000000000000000000000000000000000000000000000000000000 v
b0000000000000000000000000000000000000000000000000000000000000000 x
b0000000000000000000000000000000000000000000000000000000000000000 z
b0000000000000000000000000000000000101010001101101111011011110000 "!
b0000000000000000000000000000000001111011111100000011001000110010 *!
b0000000000000000000000000000000001111011111100000011001000110010 2!
b0000000000000000000000000000000001111011111100000011001000110010 :!
b0000000000000000000000000000000000101010001101101111011011110000 <!
b0000000000000000000000000000000000101010001101101111011011110000 @!
b1111111111111111111111111111111111110010101100100100100100011010 D!
b0000000000000000000000000000000001111011111100000011001000110010 V!
b0000000000000000000000000000000001111011111100000011001000110010 Z!
b1111111111111111111111111111111111100011101011001001110110011001 ^!
1c!
b0000000000000000000000000000000100000000000000000000000000000000 d!
b0000000000000000000000000000000000000000000000000000000000000000 f!
b0000000000000000000000000000000000011100111010010100000000001010 h!
b0000000000000000000000000000000000000000000000000000000000000000 j!
b1111111111111111111111111111111111000000010011000000101101101010 l!
b0000000000000000000000000000000000000000000000000000000000000000 n!
b1111111111111111111111111111111101111100011010110011000101100000 p!
b1111111111111111111111111111111101111100011010110011000101100000 t!
b1111111111111111111111111111111101111100011010110011000101100000 v!
#50
0c!
#55
b0000000000000000000000000000000100000000000000000000000000000000 *
b0000000000000000000000000000000000000000000000000000000000000000 ,
b0000000000000000000000000000000100000000000000000000000000000000 9
b0000000000000000000000000000000100000000000000000000000000000000 =
b0000000000000000000000000000000000000000000000000000000000000000 ?
b0000000000000000000000000000000000100110000001101011111001100101 A
b0000000000000000000000000000000001111001001010000111001111001111 C
b0000000000000000000000000000000111100110000001010100111110100111 E
b0000000000000000000000000000000000000000000000000000000000000000 G
b1111111111111111111111111111111111011101000001101101000011110000 I
b0000000000000000000000000000000000100110000001101011111001100101 K
b0000000000000000000000000000000000100110000001101011111001100101 M
b0000000000000000000000000000000111100110000001010100111110100111 O
b0000000000000000000000000000000001111001001010000111001111001111 Q
b0000000000000000000000000000000001111001001010000111001111110010 S
b1111111111111111111111111111111111100100100110110010000000010101 U
b0000000000000000000000000000000000000000000000000000000000000000 W
b0000000000000000000000000000000000010001111111110011001001000100 Y
b0000000000000000000000000000000001111001001010000111001111110010 [
b0000000000000000000000000000000001111001001010000111001111110010 ]
b0000000000000000000000000000000000000000000000000000000000000000 d
b0000000000000000000000000000000000000000000000000000000000000000 f
b0000000000000000000000000000000000000000000000000000000000000000 j
b0000000000000000000000000000000000000000000000000000000000000000 l
b0000000000000000000000000000000000101010111111111111010110110111 r
b0000000000000000000000000000000000101010111111111111010110110111 t
b0000000000000000000000000000000000101010111111111111010110110111 v
b0000000000000000000000000000000000101010111111111111010110110111 x
b0000000000000000000000000000000000101010111111111111010110110111 z
b0000000000000000000000000000000000010010101000100000001110111100 &!
b0000000000000000000000000000000001010110101111000000100111111011 (!
b0000000000000000000000000000000001011010110110110011000101010110 ,!
b0000000000000000000000000000000001011010110110110011000101010110 6!
b0000000000000000000000000000000001011010110110110011000101010110 H!
b0000000000000000000000000000000000010010101000100000001110111100 J!
b0000000000000000000000000000000001010110101111000000100111111011 L!
b0000000000000000000000000000000000010010101000100000001110111100 N!
b0000000000000000000000000000000001010110101111000000100111111011 P!
b1111111111111111111111111111111110111100101010001011000010101110 R!
b0000000000000000000000000000000001011010110110110011000101010110 X!
b0000000000000000000000000000000001011010110110110011000101010110 \!
b1111111111111111111111111111111111010111000111000011001000001101 ^!
1c!
b0000000000000000000000000000000100000000000000000000000000000000 f!
b0000000000000000000000000000000000000000000000000000000000000000 h!
b0000000000000000000000000000000000100110000001101011111001100101 j!
b0000000000000000000000000000000000000000000000000000000000000000 l!
b0000000000000000000000000000000000101010111111111111010110110111 n!
b0000000000000000000000000000000001111001001010000111001111110010 p!
b0000000000000000000000000000000001111001001010000111001111110010 t!
b0000000000000000000000000000000001111001001010000111001111110010 v!
#60
0c!
#65
b0000000000000000000000000000000000000000000000000000000000000000 (
b0000000000000000000000000000000000000000000000000000000000000000 *
00
b0000000000000000000000000000000000000000000000000000000000000000 7
b0000000000000000000000000000000000000000000000000000000000000000 9
b0000000000000000000000000000000000000000000000000000000000000000 ;
b0000000000000000000000000000000000000000000000000000000000000000 =
b0000000000000000000000000000000000000000000000000000000000000000 A
b0000000000000000000000000000000001110101110011001001100100110100 C
b0000000000000000000000000000000111011010001101010110011001111100 E
b1111111111111111111111111111111111110010101100100100100100011010 I
b0000000000000000000000000000000000000000000000000000000000000000 K
b1111111111111111111111111111111110111100101010001011000010101110 M
b0000000000000000000000000000000111011010001101010110011001111100 O
b0000000000000000000000000000000001110101110011001001100100110100 Q
b0000000000000000000000000000000001110101110011001001100101010101 S
b1111111111111111111111111111111111010111000111000011001000001101 U
b0000000000000000000000000000000000000000000000000000000000000000 Y
b0000000000000000000000000000000001110101110011001001100101010101 [
b0000000000000000000000000000000001110101110011001001100101010101 ]
b0000000000000000000000000000000000000000000000000000000000000000 r
b0000000000000000000000000000000000000000000000000000000000000000 t
b0000000000000000000000000000000000000000000000000000000000000000 v
b0000000000000000000000000000000000000000000000000000000000000000 x
b0000000000000000000000000000000000000000000000000000000000000000 z
1c!
b0000000000000000000000000000000000000000000000000000000000000000 d!
b0000000000000000000000000000000000000000000000000000000000000000 f!
b0000000000000000000000000000000000000000000000000000000000000000 j!
b0000000000000000000000000000000000000000000000000000000000000000 n!
b0000000000000000000000000000000001110101110011001001100101010101 p!
b0000000000000000000000000000000001110101110011001001100101010101 t!
b0000000000000000000000000000000001110101110011001001100101010101 v!
#70
0c!
