Full_MLP/sim.vcd
$version Generated by VerilatedVcd $end
$timescale 1ps $end
 $scope module $rootio $end
 $upscope $end
 $scope module FixedPoint $end
  $var wire 32 G" frac_bits [31:0] $end
  $var wire 64 H" e [63:0] $end
  $var wire 64 J" epsilon [63:0] $end
 $upscope $end
 $scope module Common $end
  $var real 64 L" e $end
  $var real 64 N" epsilon $end
 $upscope $end
 $scope module BenchMLP $end
  $var wire 32 A" inputs [31:0] $end
  $var wire 32 B" hidden_layer_size [31:0] $end
  $var wire 32 C" outputs [31:0] $end
  $var wire 1 <" clk $end
  $var wire 1 # rst $end
  $var real 64 $ values[0] $end
  $var real 64 & values[1] $end
  $var real 64 ( expected[0] $end
  $var wire 32 * hidden_activation [31:0] $end
  $var wire 32 + output_activation [31:0] $end
  $var wire 1 , training $end
  $var real 64 - learning_rate $end
  $var real 64 3 prediction[0] $end
  $var real 64 / threshold $end
  $var wire 32 1 correct [31:0] $end
  $var real 64 =" cost $end
  $scope module mlp $end
   $var wire 32 A" inputs [31:0] $end
   $var wire 32 B" hidden_layer_size [31:0] $end
   $var wire 32 C" outputs [31:0] $end
   $var wire 1 <" clk $end
   $var wire 1 # rst $end
   $var real 64 $ values[0] $end
   $var real 64 & values[1] $end
   $var real 64 ( expected[0] $end
   $var wire 32 * hidden_activation [31:0] $end
   $var wire 32 + output_activation [31:0] $end
   $var wire 1 , training $end
   $var real 64 - learning_rate $end
   $var real 64 3 prediction[0] $end
   $var real 64 5 hidden_predictions[0] $end
   $var real 64 7 hidden_predictions[1] $end
   $var real 64 9 hidden_predictions[2] $end
   $var real 64 ; hidden_predictions[3] $end
   $var real 64 >! next_layer_weights[0][0] $end
   $var real 64 @! next_layer_weights[1][0] $end
   $var real 64 B! next_layer_weights[2][0] $end
   $var real 64 D! next_layer_weights[3][0] $end
   $var real 64 = output_error_gradients[0] $end
   $var real 64 F! output_weights[0][0] $end
   $var real 64 H! output_weights[0][1] $end
   $var real 64 J! output_weights[0][2] $end
   $var real 64 L! output_weights[0][3] $end
   $var real 64 ? activation_gradients[0] $end
   $scope module gen_hidden_layer[0] $end
    $scope module hidden_perceptron $end
     $var wire 32 A" input_units [31:0] $end
     $var wire 32 C" output_units [31:0] $end
     $var wire 1 <" clk $end
     $var wire 1 # rst $end
     $var real 64 $ values[0] $end
     $var real 64 & values[1] $end
     $var wire 32 * activation [31:0] $end
     $var wire 1 , training $end
     $var real 64 - learning_rate $end
     $var real 64 N! next_layer_weights[0] $end
     $var real 64 = error_gradient_next_layer[0] $end
     $var real 64 A prediction $end
     $var real 64 C error_gradient $end
     $var real 64 P! current_weights[0] $end
     $var real 64 R! current_weights[1] $end
     $var real 64 T! weights[0] $end
     $var real 64 V! weights[1] $end
     $var real 64 X! bias $end
     $var real 64 E sum $end
     $var real 64 G weight_gradient[0] $end
     $var real 64 I weight_gradient[1] $end
     $var real 64 K bias_gradient $end
     $var real 64 M local_error_gradient $end
     $scope module predict $end
      $var wire 32 * activation [31:0] $end
      $var real 64 E sum $end
      $var real 64 A prediction $end
     $upscope $end
     $scope module unnamedblk1 $end
      $var wire 32 D" i [31:0] $end
     $upscope $end
     $scope module unnamedblk2 $end
      $var wire 32 D" i [31:0] $end
     $upscope $end
     $scope module unnamedblk3 $end
      $var wire 32 O i [31:0] $end
     $upscope $end
     $scope module unnamedblk4 $end
      $var wire 32 P i [31:0] $end
     $upscope $end
     $scope module unnamedblk5 $end
      $var wire 32 Q i [31:0] $end
     $upscope $end
     $scope module unnamedblk6 $end
      $var wire 32 D" i [31:0] $end
     $upscope $end
     $scope module unnamedblk7 $end
      $var wire 32 Z! i [31:0] $end
     $upscope $end
     $scope module unnamedblk8 $end
      $var wire 32 [! i [31:0] $end
     $upscope $end
    $upscope $end
    $scope module unnamedblk1 $end
     $var wire 32 E" i [31:0] $end
    $upscope $end
   $upscope $end
   $scope module gen_hidden_layer[1] $end
    $scope module hidden_perceptron $end
     $var wire 32 A" input_units [31:0] $end
     $var wire 32 C" output_units [31:0] $end
     $var wire 1 <" clk $end
     $var wire 1 # rst $end
     $var real 64 $ values[0] $end
     $var real 64 & values[1] $end
     $var wire 32 * activation [31:0] $end
     $var wire 1 , training $end
     $var real 64 - learning_rate $end
     $var real 64 \! next_layer_weights[0] $end
     $var real 64 = error_gradient_next_layer[0] $end
     $var real 64 R prediction $end
     $var real 64 T error_gradient $end
     $var real 64 ^! current_weights[0] $end
     $var real 64 `! current_weights[1] $end
     $var real 64 b! weights[0] $end
     $var real 64 d! weights[1] $end
     $var real 64 f! bias $end
     $var real 64 V sum $end
     $var real 64 X weight_gradient[0] $end
     $var real 64 Z weight_gradient[1] $end
     $var real 64 \ bias_gradient $end
     $var real 64 ^ local_error_gradient $end
     $scope module predict $end
      $var wire 32 * activation [31:0] $end
      $var real 64 V sum $end
      $var real 64 R prediction $end
     $upscope $end
     $scope module unnamedblk1 $end
      $var wire 32 D" i [31:0] $end
     $upscope $end
     $scope module unnamedblk2 $end
      $var wire 32 D" i [31:0] $end
     $upscope $end
     $scope module unnamedblk3 $end
      $var wire 32 ` i [31:0] $end
     $upscope $end
     $scope module unnamedblk4 $end
      $var wire 32 a i [31:0] $end
     $upscope $end
     $scope module unnamedblk5 $end
      $var wire 32 b i [31:0] $end
     $upscope $end
     $scope module unnamedblk6 $end
      $var wire 32 D" i [31:0] $end
     $upscope $end
     $scope module unnamedblk7 $end
      $var wire 32 h! i [31:0] $end
     $upscope $end
     $scope module unnamedblk8 $end
      $var wire 32 i! i [31:0] $end
     $upscope $end
    $upscope $end
    $scope module unnamedblk1 $end
     $var wire 32 E" i [31:0] $end
    $upscope $end
   $upscope $end
   $scope module gen_hidden_layer[2] $end
    $scope module hidden_perceptron $end
     $var wire 32 A" input_units [31:0] $end
     $var wire 32 C" output_units [31:0] $end
     $var wire 1 <" clk $end
     $var wire 1 # rst $end
     $var real 64 $ values[0] $end
     $var real 64 & values[1] $end
     $var wire 32 * activation [31:0] $end
     $var wire 1 , training $end
     $var real 64 - learning_rate $end
     $var real 64 j! next_layer_weights[0] $end
     $var real 64 = error_gradient_next_layer[0] $end
     $var real 64 c prediction $end
     $var real 64 e error_gradient $end
     $var real 64 l! current_weights[0] $end
     $var real 64 n! current_weights[1] $end
     $var real 64 p! weights[0] $end
     $var real 64 r! weights[1] $end
     $var real 64 t! bias $end
     $var real 64 g sum $end
     $var real 64 i weight_gradient[0] $end
     $var real 64 k weight_gradient[1] $end
     $var real 64 m bias_gradient $end
     $var real 64 o local_error_gradient $end
     $scope module predict $end
      $var wire 32 * activation [31:0] $end
      $var real 64 g sum $end
      $var real 64 c prediction $end
     $upscope $end
     $scope module unnamedblk1 $end
      $var wire 32 D" i [31:0] $end
     $upscope $end
     $scope module unnamedblk2 $end
      $var wire 32 D" i [31:0] $end
     $upscope $end
     $scope module unnamedblk3 $end
      $var wire 32 q i [31:0] $end
     $upscope $end
     $scope module unnamedblk4 $end
      $var wire 32 r i [31:0] $end
     $upscope $end
     $scope module unnamedblk5 $end
      $var wire 32 s i [31:0] $end
     $upscope $end
     $scope module unnamedblk6 $end
      $var wire 32 D" i [31:0] $end
     $upscope $end
     $scope module unnamedblk7 $end
      $var wire 32 v! i [31:0] $end
     $upscope $end
     $scope module unnamedblk8 $end
      $var wire 32 w! i [31:0] $end
     $upscope $end
    $upscope $end
    $scope module unnamedblk1 $end
     $var wire 32 E" i [31:0] $end
    $upscope $end
   $upscope $end
   $scope module gen_hidden_layer[3] $end
    $scope module hidden_perceptron $end
     $var wire 32 A" input_units [31:0] $end
     $var wire 32 C" output_units [31:0] $end
     $var wire 1 <" clk $end
     $var wire 1 # rst $end
     $var real 64 $ values[0] $end
     $var real 64 & values[1] $end
     $var wire 32 * activation [31:0] $end
     $var wire 1 , training $end
     $var real 64 - learning_rate $end
     $var real 64 x! next_layer_weights[0] $end
     $var real 64 = error_gradient_next_layer[0] $end
     $var real 64 t prediction $end
     $var real 64 v error_gradient $end
     $var real 64 z! current_weights[0] $end
     $var real 64 |! current_weights[1] $end
     $var real 64 ~! weights[0] $end
     $var real 64 "" weights[1] $end
     $var real 64 $" bias $end
     $var real 64 x sum $end
     $var real 64 z weight_gradient[0] $end
     $var real 64 | weight_gradient[1] $end
     $var real 64 ~ bias_gradient $end
     $var real 64 "! local_error_gradient $end
     $scope module predict $end
      $var wire 32 * activation [31:0] $end
      $var real 64 x sum $end
      $var real 64 t prediction $end
     $upscope $end
     $scope module unnamedblk1 $end
      $var wire 32 D" i [31:0] $end
     $upscope $end
     $scope module unnamedblk2 $end
      $var wire 32 D" i [31:0] $end
     $upscope $end
     $scope module unnamedblk3 $end
      $var wire 32 $! i [31:0] $end
     $upscope $end
     $scope module unnamedblk4 $end
      $var wire 32 %! i [31:0] $end
     $upscope $end
     $scope module unnamedblk5 $end
      $var wire 32 &! i [31:0] $end
     $upscope $end
     $scope module unnamedblk6 $end
      $var wire 32 D" i [31:0] $end
     $upscope $end
     $scope module unnamedblk7 $end
      $var wire 32 &" i [31:0] $end
     $upscope $end
     $scope module unnamedblk8 $end
      $var wire 32 '" i [31:0] $end
     $upscope $end
    $upscope $end
    $scope module unnamedblk1 $end
     $var wire 32 E" i [31:0] $end
    $upscope $end
   $upscope $end
   $scope module gen_output_layer[0] $end
    $scope module output_perceptron $end
     $var wire 32 B" input_units [31:0] $end
     $var wire 32 C" output_units [31:0] $end
     $var wire 1 <" clk $end
     $var wire 1 # rst $end
     $var real 64 5 values[0] $end
     $var real 64 7 values[1] $end
     $var real 64 9 values[2] $end
     $var real 64 ; values[3] $end
     $var wire 32 + activation [31:0] $end
     $var wire 1 , training $end
     $var real 64 - learning_rate $end
     $var real 64 ?" next_layer_weights[0] $end
     $var real 64 '! error_gradient_next_layer[0] $end
     $var real 64 )! prediction $end
     $var real 64 +! error_gradient $end
     $var real 64 (" current_weights[0] $end
     $var real 64 *" current_weights[1] $end
     $var real 64 ," current_weights[2] $end
     $var real 64 ." current_weights[3] $end
     $var real 64 0" weights[0] $end
     $var real 64 2" weights[1] $end
     $var real 64 4" weights[2] $end
     $var real 64 6" weights[3] $end
     $var real 64 8" bias $end
     $var real 64 -! sum $end
     $var real 64 /! weight_gradient[0] $end
     $var real 64 1! weight_gradient[1] $end
     $var real 64 3! weight_gradient[2] $end
     $var real 64 5! weight_gradient[3] $end
     $var real 64 7! bias_gradient $end
     $var real 64 9! local_error_gradient $end
     $scope module predict $end
      $var wire 32 + activation [31:0] $end
      $var real 64 -! sum $end
      $var real 64 )! prediction $end
     $upscope $end
     $scope module unnamedblk1 $end
      $var wire 32 F" i [31:0] $end
     $upscope $end
     $scope module unnamedblk2 $end
      $var wire 32 F" i [31:0] $end
     $upscope $end
     $scope module unnamedblk3 $end
      $var wire 32 ;! i [31:0] $end
     $upscope $end
     $scope module unnamedblk4 $end
      $var wire 32 <! i [31:0] $end
     $upscope $end
     $scope module unnamedblk5 $end
      $var wire 32 =! i [31:0] $end
     $upscope $end
     $scope module unnamedblk6 $end
      $var wire 32 F" i [31:0] $end
     $upscope $end
     $scope module unnamedblk7 $end
      $var wire 32 :" i [31:0] $end
     $upscope $end
     $scope module unnamedblk8 $end
      $var wire 32 ;" i [31:0] $end
     $upscope $end
    $upscope $end
   $upscope $end
   $scope module unnamedblk2 $end
    $var wire 32 E" i [31:0] $end
   $upscope $end
  $upscope $end
  $scope module unnamedblk1 $end
   $var wire 32 2 epoch [31:0] $end
  $upscope $end
 $upscope $end
$enddefinitions $end


#0
1#
r0 $
r0 &
r0 (
b00000000000000000000000000000011 *
b00000000000000000000000000000001 +
1,
r0.1 -
r0 /
b00000000000000000000000000000000 1
b00000000000000000000000000000000 2
r0.5 3
r0 5
r0 7
r0 9
r0 ;
r0.4999999900000002 =
r1.999999960000001 ?
r0 A
r0 C
r0 E
r0 G
r0 I
r0 K
r0 M
b00000000000000000000000000000000 O
b00000000000000000000000000000000 P
b00000000000000000000000000000001 Q
r0 R
r0 T
r0 V
r0 X
r0 Z
r0 \
r0 ^
b00000000000000000000000000000000 `
b00000000000000000000000000000000 a
b00000000000000000000000000000001 b
r0 c
r0 e
r0 g
r0 i
r0 k
r0 m
r0 o
b00000000000000000000000000000000 q
b00000000000000000000000000000000 r
b00000000000000000000000000000001 s
r0 t
r0 v
r0 x
r0 z
r0 |
r0 ~
r0 "!
b00000000000000000000000000000000 $!
b00000000000000000000000000000000 %!
b00000000000000000000000000000001 &!
r1.999999960000001 '!
r0.5 )!
r0.4999999900000002 +!
r0 -!
r0 /!
r0 1!
r0 3!
r0 5!
r0.4999999900000002 7!
r0.4999999900000002 9!
b00000000000000000000000000000001 ;!
b00000000000000000000000000000000 <!
b00000000000000000000000000000000 =!
r0 >!
r0 @!
r0 B!
r0 D!
r0 F!
r0 H!
r0 J!
r0 L!
r0 N!
r0 P!
r0 R!
r0 T!
r0 V!
r0 X!
b00000000000000000000000000000000 Z!
b00000000000000000000000000000000 [!
r0 \!
r0 ^!
r0 `!
r0 b!
r0 d!
r0 f!
b00000000000000000000000000000000 h!
b00000000000000000000000000000000 i!
r0 j!
r0 l!
r0 n!
r0 p!
r0 r!
r0 t!
b00000000000000000000000000000000 v!
b00000000000000000000000000000000 w!
r0 x!
r0 z!
r0 |!
r0 ~!
r0 ""
r0 $"
b00000000000000000000000000000000 &"
b00000000000000000000000000000000 '"
r0 ("
r0 *"
r0 ,"
r0 ."
r0 0"
r0 2"
r0 4"
r0 6"
r0 8"
b00000000000000000000000000000000 :"
b00000000000000000000000000000000 ;"
0<"
r0.6931471605599454 ="
r1 ?"
b00000000000000000000000000000010 A"
b00000000000000000000000000000100 B"
b00000000000000000000000000000001 C"
b00000000000000000000000000000010 D"
b00000000000000000000000000000001 E"
b00000000000000000000000000000100 F"
b00000000000000000000000000100000 G"
b0000000000000000000000000000001010110111111000010101000101100000 H"
b0000000000000000000000000000000000000000000000000000000000101010 J"
r2.718281828 L"
r1e-08 N"
#5
r0.5719961329195292 3
r0.35 9
r0.3 ;
r0.5719961195552548 =
r2.336427433371091 ?
r-0.31 E
r-0.49 V
r0.35 c
r-0.2745581373865223 e
r0.35 g
r-0.2745581373865223 m
r-0.2745581373865223 o
r0.3 t
r0.1487189910843662 v
r0.3 x
r0.1487189910843662 ~
r0.1487189910843662 "!
r2.336427433371091 '!
r0.5719961329195292 )!
r0.5719961195552548 +!
r0.29 -!
r0.2001986418443392 3!
r0.1715988358665765 5!
r0.5719961195552548 7!
r0.5719961195552548 9!
r-0.24 >!
r-0.35 @!
r-0.48 B!
r0.26 D!
r-0.24 F!
r-0.35 H!
r-0.48 J!
r0.26 L!
r-0.24 N!
r-0.26 P!
r-0.07000000000000001 R!
r-0.26 T!
r-0.07000000000000001 V!
r-0.31 X!
b00000000000000000000000000000010 Z!
r-0.35 \!
r0.49 ^!
r-0.08000000000000002 `!
r0.49 b!
r-0.08000000000000002 d!
r-0.49 f!
b00000000000000000000000000000010 h!
r-0.48 j!
r0.04000000000000004 l!
r0.49 n!
r0.04000000000000004 p!
r0.49 r!
r0.35 t!
b00000000000000000000000000000010 v!
r0.26 x!
r0.1899999999999999 z!
r-0.44 |!
r0.1899999999999999 ~!
r-0.44 ""
r0.3 $"
b00000000000000000000000000000010 &"
r-0.24 ("
r-0.35 *"
r-0.48 ,"
r0.26 ."
r-0.24 0"
r-0.35 2"
r-0.48 4"
r0.26 6"
r0.38 8"
b00000000000000000000000000000100 :"
1<"
r0.8486230248421384 ="
#10
0<"
#15
r0.4206757478644204 3
r0.32 7
r0 9
r0 ;
r0.4206757406029301 =
r1.726149007317027 ?
r-0.08000000000000002 E
r0.32 R
r-0.1051689351507325 T
r0.32 V
r-0.1051689351507325 \
r-0.1051689351507325 ^
r0 c
r0 e
r-0.43 g
r0 m
r0 o
r0 t
r0 v
r-0.02000000000000002 x
r0 ~
r0 "!
r1.726149007317027 '!
r0.4206757478644204 )!
r0.4206757406029301 +!
r-0.32 -!
r0.1346162369929376 1!
r0 3!
r0 5!
r0.4206757406029301 7!
r0.4206757406029301 9!
r-0.18 >!
r-0.25 @!
r0.06999999999999995 B!
r0.24 D!
r-0.18 F!
r-0.25 H!
r0.06999999999999995 J!
r0.24 L!
r-0.18 N!
r0.27 P!
r0.15 R!
r0.27 T!
r0.15 V!
r-0.08000000000000002 X!
r-0.25 \!
r-0.04999999999999999 ^!
r-0.09999999999999998 `!
r-0.04999999999999999 b!
r-0.09999999999999998 d!
r0.32 f!
r0.06999999999999995 j!
r-0.11 l!
r-0.19 n!
r-0.11 p!
r-0.19 r!
r-0.43 t!
r0.24 x!
r-0.02000000000000002 z!
r-0.19 |!
r-0.02000000000000002 ~!
r-0.19 ""
r-0.02000000000000002 $"
r-0.18 ("
r-0.25 *"
r0.06999999999999995 ,"
r0.24 ."
r-0.18 0"
r-0.25 2"
r0.06999999999999995 4"
r0.24 6"
r-0.24 8"
1<"
r0.5458929199413179 ="
#20
0<"
#25
0#
r0.4087473720870222 3
r0.3305168935150732 7
r0.4087473651737781 =
r1.691324377900167 ?
r0.3305168935150732 R
r-0.1076892445114918 T
r0.3305168935150732 V
r-0.1076892445114918 \
r-0.1076892445114918 ^
r1.691324377900167 '!
r0.4087473720870222 )!
r0.4087473651737781 +!
r-0.3691460914858207 -!
r0.1350979093697084 1!
r0.4087473651737781 7!
r0.4087473651737781 9!
r-0.2634616236992938 @!
r-0.2634616236992938 H!
b00000000000000000000000000000010 [!
r-0.2634616236992938 \!
r0.3305168935150732 f!
b00000000000000000000000000000010 i!
b00000000000000000000000000000010 w!
b00000000000000000000000000000010 '"
r-0.2634616236992938 *"
r-0.2634616236992938 2"
r-0.282067574060293 8"
b00000000000000000000000000000100 ;"
1<"
r0.5255118775995152 ="
#30
0<"
#35
r1 &
r1 (
r0.4300295870115227 3
r0.04883464895162709 5
r0.1995376837741294 7
r-0.5699703997342637 =
r-2.325421335995171 ?
r0.04883464895162709 A
r0.1002489673637536 C
r0.04883464895162709 E
r0.1002489673637536 I
r0.1002489673637536 K
r0.1002489673637536 M
r0.1995376837741294 R
r0.1424406907627357 T
r0.1995376837741294 V
r0.1424406907627357 Z
r0.1424406907627357 \
r0.1424406907627357 ^
r-0.62 g
r-0.21 x
r-2.325421335995171 '!
r0.4300295870115227 )!
r-0.5699703997342637 +!
r-0.2817304391671405 -!
r-0.02783430438384133 /!
r-0.1137305733827896 1!
r-0.5699703997342637 7!
r-0.5699703997342637 9!
r-0.1758845150739275 >!
r-0.2499089265497745 @!
r-0.1758845150739275 F!
r-0.2499089265497745 H!
r-0.1758845150739275 N!
r0.1394173244758136 R!
r0.1394173244758136 V!
r-0.09058267552418647 X!
r-0.2499089265497745 \!
r-0.1154896048704719 `!
r-0.1154896048704719 d!
r0.3150272886446013 f!
r-0.1758845150739275 ("
r-0.2499089265497745 *"
r-0.1758845150739275 0"
r-0.2499089265497745 2"
r-0.2232749322592571 8"
1<"
r0.8439012424038674 ="
#40
0<"
#45
r1 $
r0 &
r0.4385618297129224 3
r0.1590293681840346 5
r0.2360586652880732 7
r-0.5614381574852759 =
r-2.280180146668914 ?
r0.1590293681840346 A
r0.09291003202341115 C
r0.1590293681840346 E
r0.09291003202341115 G
r0 I
r0.09291003202341115 K
r0.09291003202341115 M
r0.2360586652880732 R
r0.1316844099657505 T
r0.2360586652880732 V
r0.1316844099657505 X
r0 Z
r0.1316844099657505 \
r0.1316844099657505 ^
r-0.54 g
r-0.04000000000000004 x
r-2.280180146668914 '!
r0.4385618297129224 )!
r-0.5614381574852759 +!
r-0.2470008482686423 -!
r-0.08928515545929196 /!
r-0.1325323420977693 1!
r-0.5614381574852759 7!
r-0.5614381574852759 9!
r-0.1654857810868471 >!
r-0.2345483793897711 @!
r-0.1654857810868471 F!
r-0.2345483793897711 H!
r-0.1654857810868471 N!
r0.2598060218541106 P!
r0.2598060218541106 T!
r-0.1007766536700759 X!
r-0.2345483793897711 \!
r-0.06448431167826402 ^!
r-0.06448431167826402 b!
r0.3005429769663372 f!
r-0.1654857810868471 ("
r-0.2345483793897711 *"
r-0.1654857810868471 0"
r-0.2345483793897711 2"
r-0.1653165716747296 8"
1<"
r0.8242544515419816 ="
#50
0<"
#55
r1 &
r0 (
r0.424870851457904 3
r0.3202685239919794 5
r0.1514978516445783 7
r0.4248708440705051 =
r1.738739872857283 ?
r0.3202685239919794 A
r-0.07588364702176176 C
r0.3202685239919794 E
r-0.07588364702176176 G
r-0.07588364702176176 I
r-0.07588364702176176 K
r-0.07588364702176176 M
r0.1514978516445783 R
r-0.1019044240330826 T
r0.1514978516445783 V
r-0.1019044240330826 X
r-0.1019044240330826 Z
r-0.1019044240330826 \
r-0.1019044240330826 ^
r-0.73 g
r-0.23 x
r1.738739872857283 '!
r0.424870851457904 )!
r0.4248708440705051 +!
r-0.3028093779671839 -!
r0.1360727581176871 /!
r0.06436702010310015 1!
r0.4248708440705051 7!
r0.4248708440705051 9!
r-0.1786040348044434 >!
r-0.2398480042941522 @!
r-0.1786040348044434 F!
r-0.2398480042941522 H!
r-0.1786040348044434 N!
r0.2670799656314876 P!
r0.1466912682531906 R!
r0.2670799656314876 T!
r0.1466912682531906 V!
r-0.09350270989269886 X!
r-0.2398480042941522 \!
r-0.05417471460260505 ^!
r-0.1051800077948129 `!
r-0.05417471460260505 b!
r-0.1051800077948129 d!
r0.3108525740419962 f!
r-0.1786040348044434 ("
r-0.2398480042941522 *"
r-0.1786040348044434 0"
r-0.2398480042941522 2"
r-0.209271669989549 8"
1<"
r0.553160639857408 ="
#60
0<"
#65
r0 $
r0 &
0,
r0.4295152870868088 3
r0 5
r0.3108525740419962 7
r0.4295152795578554 =
r1.752895318376767 ?
r0 A
r0 C
r-0.09350270989269886 E
r0 G
r0 I
r0 K
r0 M
r0.3108525740419962 R
r-0.1030183826157965 T
r0.3108525740419962 V
r-0 X
r-0 Z
r-0.1030183826157965 \
r-0.1030183826157965 ^
r-0.43 g
r-0.02000000000000002 x
r1.752895318376767 '!
r0.4295152870868088 )!
r0.4295152795578554 +!
r-0.283829039503222 -!
r0 /!
r0.1335159302409269 1!
r0.4295152795578554 7!
r0.4295152795578554 9!
1<"
r0.5612688884553977 ="
#70
0<"
#75
r1 &
r1 (
r0.4333732294145154 3
r0.05318855836049176 5
r0.2056725662471833 7
r-0.5666267575106864 =
r-2.30747980966936 ?
r0.05318855836049176 A
r0.1012018251195675 C
r0.05318855836049176 E
r0.1012018251195675 I
r0.1012018251195675 K
r0.1012018251195675 M
r0.2056725662471833 R
r0.1359042969686046 T
r0.2056725662471833 V
r0.1359042969686046 Z
r0.1359042969686046 \
r0.1359042969686046 ^
r-0.62 g
r-0.21 x
r-2.30747980966936 '!
r0.4333732294145154 )!
r-0.5666267575106864 +!
r-0.2681015156706082 -!
r-0.03013806036047335 /!
r-0.1165395793215433 1!
r-0.5666267575106864 7!
r-0.5666267575106864 9!
1<"
r0.8361559374841565 ="
#80
0<"
#85
r1 $
r0 &
r0.4251084893403878 3
r0.1735772557387887 5
r0.2566778594393912 7
r-0.5748914971362056 =
r-2.352340641393039 ?
r0.1735772557387887 A
r0.1026779409632935 C
r0.1735772557387887 E
r0.1026779409632935 G
r0 I
r0.1026779409632935 K
r0.1026779409632935 M
r0.2566778594393912 R
r0.1378865782737962 T
r0.2566778594393912 V
r0.1378865782737962 X
r0 Z
r0.1378865782737962 \
r0.1378865782737962 ^
r-0.54 g
r-0.04000000000000004 x
r-2.352340641393039 '!
r0.4251084893403878 )!
r-0.5748914971362056 +!
r-0.3018369405478123 -!
r-0.09978808842046628 /!
r-0.1475619188948281 1!
r-0.5748914971362056 7!
r-0.5748914971362056 9!
1<"
r0.8554108500737038 ="
#90
0<"
#95
r1 &
r0 (
r0.424870851457904 3
r0.3202685239919794 5
r0.1514978516445783 7
r0.4248708440705051 =
r1.738739872857283 ?
r0.3202685239919794 A
r-0.07588364702176176 C
r0.3202685239919794 E
r-0.07588364702176176 G
r-0.07588364702176176 I
r-0.07588364702176176 K
r-0.07588364702176176 M
r0.1514978516445783 R
r-0.1019044240330826 T
r0.1514978516445783 V
r-0.1019044240330826 X
r-0.1019044240330826 Z
r-0.1019044240330826 \
r-0.1019044240330826 ^
r-0.73 g
r-0.23 x
r1.738739872857283 '!
r0.424870851457904 )!
r0.4248708440705051 +!
r-0.3028093779671839 -!
r0.1360727581176871 /!
r0.06436702010310015 1!
r0.4248708440705051 7!
r0.4248708440705051 9!
1<"
r0.553160639857408 ="
#100
0<"
#105
r0 $
r0 &
1,
b00000000000000000000000000000001 2
r0.417379690979156 3
r0 5
r0.3211544123035759 7
r0.4173796838153191 =
r1.716383667635566 ?
r0 A
r0 C
r-0.09350270989269886 E
r0 G
r0 I
r0 K
r0 M
r0.3211544123035759 R
r-0.1056803678708552 T
r0.3211544123035759 V
r-0 X
r-0 Z
r-0.1056803678708552 \
r-0.1056803678708552 ^
r-0.43 g
r-0.02000000000000002 x
r1.716383667635566 '!
r0.417379690979156 )!
r0.4173796838153191 +!
r-0.3335393658175775 -!
r0 /!
r0.1340433270631611 1!
r0.4173796838153191 7!
r0.4173796838153191 9!
r-0.2531995973182449 @!
r-0.2531995973182449 H!
r-0.2531995973182449 \!
r0.3211544123035759 f!
r-0.2531995973182449 *"
r-0.2531995973182449 2"
r-0.2522231979453345 8"
1<"
r0.5402195586131286 ="
#110
0<"
#115
r1 &
r1 (
r0.4390488648957168 3
r0.03252591204080497 5
r0.186681820310414 7
r-0.5609511223277756 =
r-2.277650751838325 ?
r0.03252591204080497 A
r0.09846226440593134 C
r0.03252591204080497 E
r0.09846226440593134 I
r0.09846226440593134 K
r0.09846226440593134 M
r0.186681820310414 R
r0.1350246322727681 T
r0.186681820310414 V
r0.1350246322727681 Z
r0.1350246322727681 \
r0.1350246322727681 ^
r-0.62 g
r-0.21 x
r-2.277650751838325 '!
r0.4390488648957168 )!
r-0.5609511223277756 +!
r-0.2450230821312855 -!
r-0.01824544686402406 /!
r-0.1047193766213189 1!
r-0.5609511223277756 7!
r-0.5609511223277756 9!
r-0.1755273507562354 >!
r-0.2407065908210632 @!
r-0.1755273507562354 F!
r-0.2407065908210632 H!
r-0.1755273507562354 N!
r0.1363599450933472 R!
r0.1363599450933472 V!
r-0.1038340330525423 X!
r-0.2407065908210632 \!
r-0.1198262998939874 `!
r-0.1198262998939874 d!
r0.3065081202044014 f!
r-0.1755273507562354 ("
r-0.2407065908210632 *"
r-0.1755273507562354 0"
r-0.2407065908210632 2"
r-0.1943783504246426 8"
1<"
r0.8231445397674657 ="
#120
0<"
#125
r1 $
r0 &
r0.4471908863117826 3
r0.1432193000436213 5
r0.2248702072886252 7
r-0.5528091013264024 =
r-2.236181479201664 ?
r0.1432193000436213 A
r0.09188497299385494 C
r0.1432193000436213 E
r0.09188497299385494 G
r0 I
r0.09188497299385494 K
r0.09188497299385494 M
r0.2248702072886252 R
r0.1251071764884277 T
r0.2248702072886252 V
r0.1251071764884277 X
r0 Z
r0.1251071764884277 \
r0.1251071764884277 ^
r-0.54 g
r-0.04000000000000004 x
r-2.236181479201664 '!
r0.4471908863117826 )!
r-0.5528091013264024 +!
r-0.2120272165774571 -!
r-0.07917293254971065 /!
r-0.1243102972063067 1!
r-0.5528091013264024 7!
r-0.5528091013264024 9!
r-0.1662146530753336 >!
r-0.2263117162656101 @!
r-0.1662146530753336 F!
r-0.2263117162656101 H!
r-0.1662146530753336 N!
r0.2570666493638256 P!
r0.2570666493638256 T!
r-0.1138473493202043 X!
r-0.2263117162656101 \!
r-0.06790631375919062 ^!
r-0.06790631375919062 b!
r0.2927765210478158 f!
r-0.1662146530753336 ("
r-0.2263117162656101 *"
r-0.1662146530753336 0"
r-0.2263117162656101 2"
r-0.1373313077585222 8"
1<"
r0.8047697144330207 ="
#130
0<"
#135
r1 &
r0 (
r0.4335383501324283 3
r0.3019330541766279 5
r0.1354800259632346 7
r0.4335383424789826 =
r1.765344542883593 ?
r0.3019330541766279 A
r-0.07749409714306701 C
r0.3019330541766279 E
r-0.07749409714306701 G
r-0.07749409714306701 I
r-0.07749409714306701 K
r-0.07749409714306701 M
r0.1354800259632346 R
r-0.1001563532256003 T
r0.1354800259632346 V
r-0.1001563532256003 X
r-0.1001563532256003 Z
r-0.1001563532256003 \
r-0.1001563532256003 ^
r-0.73 g
r-0.23 x
r1.765344542883593 '!
r0.4335383501324283 )!
r0.4335383424789826 +!
r-0.267429123018852 -!
r0.1308995558473521 /!
r0.05873578589511026 1!
r0.4335383424789826 7!
r0.4335383424789826 9!
r-0.1787479665580533 >!
r-0.2310207504436721 @!
r-0.1787479665580533 F!
r-0.2310207504436721 H!
r-0.1787479665580533 N!
r0.264517919043712 P!
r0.1438112147732337 R!
r0.264517919043712 T!
r0.1438112147732337 V!
r-0.1063960796403178 X!
r-0.2310207504436721 \!
r-0.0577609409029917 ^!
r-0.1096809270377885 `!
r-0.0577609409029917 b!
r-0.1096809270377885 d!
r0.3029218939040147 f!
r-0.1787479665580533 ("
r-0.2310207504436721 *"
r-0.1787479665580533 0"
r-0.2310207504436721 2"
r-0.1821605062799626 8"
1<"
r0.568345879767204 ="
#140
0<"
