Full_MLP/sim.vcd
$version Generated by VerilatedVcd $end
$timescale 1ps $end
 $scope module $rootio $end
 $upscope $end
 $scope module FixedPoint $end
  $var wire 32 Y frac_bits [31:0] $end
  $var wire 64 Z epsilon [63:0] $end
  $var wire 64 # ONE [63:0] $end
  $var wire 64 \ HALF [63:0] $end
  $var wire 32 T lcg_next__Vstatic__current [31:0] $end
 $upscope $end
 $scope module BenchPerceptron $end
  $var wire 32 V input_units [31:0] $end
  $var wire 32 W output_units [31:0] $end
  $var wire 1 U clk $end
  $var wire 1 % rst $end
  $var wire 64 & values[0] [63:0] $end
  $var wire 64 ( values[1] [63:0] $end
  $var wire 32 * activation [31:0] $end
  $var wire 1 + training $end
  $var wire 64 , learning_rate [63:0] $end
  $var wire 64 . next_layer_weights[0] [63:0] $end
  $var wire 64 6 error_gradient_next_layer[0] [63:0] $end
  $var wire 64 8 prediction [63:0] $end
  $var wire 64 : error_gradient [63:0] $end
  $var wire 64 H current_weights[0] [63:0] $end
  $var wire 64 J current_weights[1] [63:0] $end
  $var wire 64 0 expected [63:0] $end
  $var wire 64 2 threshold [63:0] $end
  $var wire 32 4 correct [31:0] $end
  $scope module perceptron $end
   $var wire 32 V input_units [31:0] $end
   $var wire 32 W output_units [31:0] $end
   $var wire 1 U clk $end
   $var wire 1 % rst $end
   $var wire 64 & values[0] [63:0] $end
   $var wire 64 ( values[1] [63:0] $end
   $var wire 32 * activation [31:0] $end
   $var wire 1 + training $end
   $var wire 64 , learning_rate [63:0] $end
   $var wire 64 . next_layer_weights[0] [63:0] $end
   $var wire 64 6 error_gradient_next_layer[0] [63:0] $end
   $var wire 64 8 prediction [63:0] $end
   $var wire 64 : error_gradient [63:0] $end
   $var wire 64 H current_weights[0] [63:0] $end
   $var wire 64 J current_weights[1] [63:0] $end
   $var wire 64 L weights[0] [63:0] $end
   $var wire 64 N weights[1] [63:0] $end
   $var wire 64 P bias [63:0] $end
   $var wire 64 < sum [63:0] $end
   $var wire 64 > weight_gradient[0] [63:0] $end
   $var wire 64 @ weight_gradient[1] [63:0] $end
   $var wire 64 B bias_gradient [63:0] $end
   $var wire 64 : local_error_gradient [63:0] $end
   $scope module predict $end
    $var wire 32 * activation [31:0] $end
    $var wire 64 < sum [63:0] $end
    $var wire 64 8 prediction [63:0] $end
   $upscope $end
   $scope module unnamedblk1 $end
    $var wire 32 X i [31:0] $end
   $upscope $end
   $scope module unnamedblk2 $end
    $var wire 32 X i [31:0] $end
   $upscope $end
   $scope module unnamedblk3 $end
    $var wire 32 D i [31:0] $end
   $upscope $end
   $scope module unnamedblk4 $end
    $var wire 32 E i [31:0] $end
   $upscope $end
   $scope module unnamedblk5 $end
    $var wire 32 F i [31:0] $end
   $upscope $end
   $scope module unnamedblk6 $end
    $var wire 32 G i [31:0] $end
   $upscope $end
   $scope module unnamedblk7 $end
    $var wire 32 R i [31:0] $end
   $upscope $end
   $scope module unnamedblk8 $end
    $var wire 32 S i [31:0] $end
   $upscope $end
  $upscope $end
  $scope module unnamedblk1 $end
   $var wire 32 5 epoch [31:0] $end
  $upscope $end
 $upscope $end
$enddefinitions $end


#0
b0000000000000000000000000000000100000000000000000000000000000000 #
1%
b0000000000000000000000000000000000000000000000000000000000000000 &
b0000000000000000000000000000000000000000000000000000000000000000 (
b00000000000000000000000000000001 *
1+
b0000000000000000000000000000000100000000000000000000000000000000 ,
b0000000000000000000000000000000100000000000000000000000000000000 .
b0000000000000000000000000000000000000000000000000000000000000000 0
b0000000000000000000000000000000000000000000000000000000000000000 2
b00000000000000000000000000000000 4
b00000000000000000000000000000000 5
b0000000000000000000000000000001000000000000000000000000010101000 6
b0000000000000000000000000000000010000000000000000000000000000000 8
b0000000000000000000000000000000010000000000000000000000000101010 :
b0000000000000000000000000000000000000000000000000000000000000000 <
b0000000000000000000000000000000000000000000000000000000000000000 >
b0000000000000000000000000000000000000000000000000000000000000000 @
b0000000000000000000000000000000010000000000000000000000000101010 B
b00000000000000000000000000000001 D
b00000000000000000000000000000000 E
b00000000000000000000000000000000 F
b00000000000000000000000000000010 G
b0000000000000000000000000000000000000000000000000000000000000000 H
b0000000000000000000000000000000000000000000000000000000000000000 J
b0000000000000000000000000000000000000000000000000000000000000000 L
b0000000000000000000000000000000000000000000000000000000000000000 N
b0000000000000000000000000000000000000000000000000000000000000000 P
b00000000000000000000000000000000 R
b00000000000000000000000000000000 S
b00000000000000000000000000000001 T
0U
b00000000000000000000000000000010 V
b00000000000000000000000000000001 W
b00000000000000000000000000000010 X
b00000000000000000000000000100000 Y
b0000000000000000000000000000000000000000000000000000000000101010 Z
b0000000000000000000000000000000010000000000000000000000000000000 \
#5
b0000000000000000000000000000001010100111110111011110110111101001 6
b0000000000000000000000000000000010011111100110101100101100001001 8
b0000000000000000000000000000000010011111100110101100101101001011 :
b0000000000000000000000000000000010000001000101100000000101111110 <
b0000000000000000000000000000000010011111100110101100101101001011 B
b0000000000000000000000000000000000111100100010000101100101101100 H
b0000000000000000000000000000000001011110100010001000010111011011 J
b0000000000000000000000000000000000111100100010000101100101101100 L
b0000000000000000000000000000000001011110100010001000010111011011 N
b0000000000000000000000000000000010000001000101100000000101111110 P
b00000000000000000000000000000010 R
b10000001000101100000000101111110 T
1U
#10
0U
#15
b0000000000000000000000000000001001110010011100010000110101111000 6
b0000000000000000000000000000000010010111011000100011101001100000 8
b0000000000000000000000000000000010010111011000100011101010011100 :
b0000000000000000000000000000000001011110100110001100000100111111 <
b0000000000000000000000000000000010010111011000100011101010011100 B
b0000000000000000000000000000000010110100011100110011101011000101 H
b0000000000000000000000000000000000001100111100000110110101100000 J
b0000000000000000000000000000000010110100011100110011101011000101 L
b0000000000000000000000000000000000001100111100000110110101100000 N
b0000000000000000000000000000000001011110100110001100000100111111 P
b01011110100110001100000100111111 T
1U
#20
0U
#25
0%
b0000000000000000000000000000000111001101000100100000010001100000 6
b0000000000000000000000000000000001110001110111000111011000010100 8
b0000000000000000000000000000000001110001110111000111011000110101 :
b1111111111111111111111111111111111000111001101101000011010100011 <
b0000000000000000000000000000000001110001110111000111011000110101 B
b1111111111111111111111111111111111000111001101101000011010100011 P
b00000000000000000000000000000010 S
1U
#30
0U
#35
b0000000000000000000000000000000100000000000000000000000000000000 (
b0000000000000000000000000000000101010110011011011111000000010110 6
b0000000000000000000000000000000001000000100111010101010110001011 8
b0000000000000000000000000000000001000000100111010101010110011000 :
b1111111111111111111111111111111011101010000001011100101101100001 <
b0000000000000000000000000000000001000000100111010101010110011000 @
b0000000000000000000000000000000001000000100111010101010110011000 B
b1111111111111111111111111111111110010111110111111101100100001111 J
b1111111111111111111111111111111110010111110111111101100100001111 N
b1111111111111111111111111111111101010010001001011111001001010010 P
1U
#40
0U
#45
b0000000000000000000000000000000100000000000000000000000000000000 &
b0000000000000000000000000000000000000000000000000000000000000000 (
b0000000000000000000000000000000101011111011001100001010100100000 6
b0000000000000000000000000000000001000101011111111110011101011010 8
b0000000000000000000000000000000001000101011111111110011101101001 :
b1111111111111111111111111111111100000011010011001010001000110001 <
b0000000000000000000000000000000001000101011111111110011101101001 >
b0000000000000000000000000000000000000000000000000000000000000000 @
b0000000000000000000000000000000001000101011111111110011101101001 B
b0000000000000000000000000000000000110010110011001111010101010010 H
b0000000000000000000000000000000000110010110011001111010101010010 L
b1111111111111111111111111111111011010000011111111010110011011111 P
1U
#50
0U
#55
b0000000000000000000000000000000100000000000000000000000000000000 (
b0000000000000000000000000000000100000000000000000000000000000000 0
b1111111111111111111111111111111010100010101111001111110000110011 6
b0000000000000000000000000000000010111011101001000011100001111101 8
b1111111111111111111111111111111110111011101001000011100010001101 :
b0000000000000000000000000000000100000010100000000001011111110101 <
b1111111111111111111111111111111110111011101001000011100010001101 >
b1111111111111111111111111111111110111011101001000011100010001101 @
b1111111111111111111111111111111110111011101001000011100010001101 B
b0000000000000000000000000000000011111111111010001101010000111001 H
b0000000000000000000000000000000001100100111110111011011111110110 J
b0000000000000000000000000000000011111111111010001101010000111001 L
b0000000000000000000000000000000001100100111110111011011111110110 N
b1111111111111111111111111111111110011101100110111000101111000110 P
1U
#60
0U
#65
b0000000000000000000000000000000000000000000000000000000000000000 &
b0000000000000000000000000000000000000000000000000000000000000000 (
0+
b0000000000000000000000000000000000000000000000000000000000000000 0
b0000000000000000000000000000000110101110010011110011100000111100 6
b0000000000000000000000000000000001100111101100110100011011000011 8
b0000000000000000000000000000000001100111101100110100011011011111 :
b1111111111111111111111111111111110011101100110111000101111000110 <
b0000000000000000000000000000000000000000000000000000000000000000 >
b0000000000000000000000000000000000000000000000000000000000000000 @
b0000000000000000000000000000000001100111101100110100011011011111 B
1U
#70
0U
#75
b0000000000000000000000000000000100000000000000000000000000000000 (
b0000000000000000000000000000001000000010100110101010001010000100 6
b0000000000000000000000000000000010000000101001011101000010010010 8
b0000000000000000000000000000000010000000101001011101000010111011 :
b0000000000000000000000000000000000000010100101110100001110111100 <
b0000000000000000000000000000000010000000101001011101000010111011 @
b0000000000000000000000000000000010000000101001011101000010111011 B
1U
#80
0U
#85
b0000000000000000000000000000000100000000000000000000000000000000 &
b0000000000000000000000000000000000000000000000000000000000000000 (
b0000000000000000000000000000001011011001101001111001101111001001 6
b0000000000000000000000000000000010100110001011101010001011011100 8
b0000000000000000000000000000000010100110001011101010001100100111 :
b0000000000000000000000000000000010011101100001000101111111111111 <
b0000000000000000000000000000000010100110001011101010001100100111 >
b0000000000000000000000000000000000000000000000000000000000000000 @
b0000000000000000000000000000000010100110001011101010001100100111 B
1U
#90
0U
#95
b0000000000000000000000000000000100000000000000000000000000000000 (
b0000000000000000000000000000000100000000000000000000000000000000 0
b1111111111111111111111111111111010100010101111001111110000110011 6
b0000000000000000000000000000000010111011101001000011100001111101 8
b1111111111111111111111111111111110111011101001000011100010001101 :
b0000000000000000000000000000000100000010100000000001011111110101 <
b1111111111111111111111111111111110111011101001000011100010001101 >
b1111111111111111111111111111111110111011101001000011100010001101 @
b1111111111111111111111111111111110111011101001000011100010001101 B
1U
#100
0U
#105
b0000000000000000000000000000000000000000000000000000000000000000 &
b0000000000000000000000000000000000000000000000000000000000000000 (
1+
b0000000000000000000000000000000000000000000000000000000000000000 0
b00000000000000000000000000000001 5
b0000000000000000000000000000000101110100010000000100101011111010 6
b0000000000000000000000000000000001001111111100100110001000111001 8
b0000000000000000000000000000000001001111111100100110001001001010 :
b1111111111111111111111111111111100110101111010000100010011100111 <
b0000000000000000000000000000000000000000000000000000000000000000 >
b0000000000000000000000000000000000000000000000000000000000000000 @
b0000000000000000000000000000000001001111111100100110001001001010 B
b1111111111111111111111111111111100110101111010000100010011100111 P
1U
#110
0U
#115
b0000000000000000000000000000000100000000000000000000000000000000 (
b0000000000000000000000000000000101001101000110101110110100010001 6
b0000000000000000000000000000000000111011010000011110000010110100 8
b0000000000000000000000000000000000111011010000011110000011000000 :
b1111111111111111111111111111111011001100110011000101011010111011 <
b0000000000000000000000000000000000111011010000011110000011000000 @
b0000000000000000000000000000000000111011010000011110000011000000 B
b1111111111111111111111111111111111111101111011111110010011100101 J
b1111111111111111111111111111111111111101111011111110010011100101 N
b1111111111111111111111111111111011001110110111000111000111010110 P
1U
#120
0U
#125
b0000000000000000000000000000000100000000000000000000000000000000 &
b0000000000000000000000000000000000000000000000000000000000000000 (
b0000000000000000000000000000000101010101100001001011001101000011 6
b0000000000000000000000000000000001000000000110101010000011111010 8
b0000000000000000000000000000000001000000000110101010000100000110 :
b1111111111111111111111111111111011100111010011110100100111011101 <
b0000000000000000000000000000000001000000000110101010000100000110 >
b0000000000000000000000000000000000000000000000000000000000000000 @
b0000000000000000000000000000000001000000000110101010000100000110 B
b0000000000000000000000000000000010001100001011011101011000100000 H
b0000000000000000000000000000000010001100001011011101011000100000 L
b1111111111111111111111111111111001011011001000010111001110111101 P
1U
#130
0U
#135
b0000000000000000000000000000000100000000000000000000000000000000 (
b0000000000000000000000000000000100000000000000000000000000000000 0
b1111111111111111111111111111111010101110110110000001001111100110 6
b0000000000000000000000000000000011000010011000001111111100001010 8
b1111111111111111111111111111111111000010011000001111111100011000 :
b0000000000000000000000000000000100100110000110000001001010101010 <
b1111111111111111111111111111111111000010011000001111111100011000 >
b1111111111111111111111111111111111000010011000001111111100011000 @
b1111111111111111111111111111111111000010011000001111111100011000 B
b0000000000000000000000000000000101001100011101100010001000011000 H
b0000000000000000000000000000000010111110001110000011000011011101 J
b0000000000000000000000000000000101001100011101100010001000011000 L
b0000000000000000000000000000000010111110001110000011000011011101 N
b1111111111111111111111111111111100011011011010011011111110110101 P
1U
#140
0U
#145
b0000000000000000000000000000000000000000000000000000000000000000 &
b0000000000000000000000000000000000000000000000000000000000000000 (
0+
b0000000000000000000000000000000000000000000000000000000000000000 0
b0000000000000000000000000000000101101000110100100101010001000100 6
b0000000000000000000000000000000001001010010111101011110100001011 8
b0000000000000000000000000000000001001010010111101011110100011011 :
b1111111111111111111111111111111100011011011010011011111110110101 <
b0000000000000000000000000000000000000000000000000000000000000000 >
b0000000000000000000000000000000000000000000000000000000000000000 @
b0000000000000000000000000000000001001010010111101011110100011011 B
1U
#150
0U
#155
b0000000000000000000000000000000100000000000000000000000000000000 (
b0000000000000000000000000000000111011100010111101000100111101001 6
b0000000000000000000000000000000001110110011011010001001000101000 8
b0000000000000000000000000000000001110110011011010001001001001010 :
b1111111111111111111111111111111111011001101000011111000010010010 <
b0000000000000000000000000000000001110110011011010001001001001010 @
b0000000000000000000000000000000001110110011011010001001001001010 B
1U
#160
0U
#165
b0000000000000000000000000000000100000000000000000000000000000000 &
b0000000000000000000000000000000000000000000000000000000000000000 (
b0000000000000000000000000000001010000000000111001111110100111110 6
b0000000000000000000000000000000010011001100111100011110010100000 8
b0000000000000000000000000000000010011001100111100011110011011100 :
b0000000000000000000000000000000001100111110111111110000111001101 <
b0000000000000000000000000000000010011001100111100011110011011100 >
b0000000000000000000000000000000000000000000000000000000000000000 @
b0000000000000000000000000000000010011001100111100011110011011100 B
1U
#170
0U
#175
b0000000000000000000000000000000100000000000000000000000000000000 (
b0000000000000000000000000000000100000000000000000000000000000000 0
b1111111111111111111111111111111010101110110110000001001111100110 6
b0000000000000000000000000000000011000010011000001111111100001010 8
b1111111111111111111111111111111111000010011000001111111100011000 :
b0000000000000000000000000000000100100110000110000001001010101010 <
b1111111111111111111111111111111111000010011000001111111100011000 >
b1111111111111111111111111111111111000010011000001111111100011000 @
b1111111111111111111111111111111111000010011000001111111100011000 B
1U
#180
0U
#185
b0000000000000000000000000000000000000000000000000000000000000000 &
b0000000000000000000000000000000000000000000000000000000000000000 (
1+
b0000000000000000000000000000000000000000000000000000000000000000 0
b00000000000000000000000000000010 5
b0000000000000000000000000000000101001110011001001111001110010001 6
b0000000000000000000000000000000000111100000001000000110011000111 8
b0000000000000000000000000000000000111100000001000000110011010011 :
b1111111111111111111111111111111011010001000010110000001010011010 <
b0000000000000000000000000000000000000000000000000000000000000000 >
b0000000000000000000000000000000000000000000000000000000000000000 @
b0000000000000000000000000000000000111100000001000000110011010011 B
b1111111111111111111111111111111011010001000010110000001010011010 P
1U
#190
0U
#195
b0000000000000000000000000000000100000000000000000000000000000000 (
b0000000000000000000000000000000101001011010011010001110000001011 6
b0000000000000000000000000000000000111010001011111010000011111001 8
b0000000000000000000000000000000000111010001011111010000100000100 :
b1111111111111111111111111111111011000110101111001101001001100111 <
b0000000000000000000000000000000000111010001011111010000100000100 @
b0000000000000000000000000000000000111010001011111010000100000100 B
b0000000000000000000000000000000001011001111101010000000001010101 J
b0000000000000000000000000000000001011001111101010000000001010101 N
b1111111111111111111111111111111001101100110001111101001000010010 P
1U
#200
0U
#205
b0000000000000000000000000000000100000000000000000000000000000000 &
b0000000000000000000000000000000000000000000000000000000000000000 (
b0000000000000000000000000000000101010001111100110001110010111111 6
b0000000000000000000000000000000000111110000100111101111100011011 8
b0000000000000000000000000000000000111110000100111101111100101000 :
b1111111111111111111111111111111011011100011001011100000011000010 <
b0000000000000000000000000000000000111110000100111101111100101000 >
b0000000000000000000000000000000000000000000000000000000000000000 @
b0000000000000000000000000000000000111110000100111101111100101000 B
b0000000000000000000000000000000011011110000010100000100001100100 H
b0000000000000000000000000000000011011110000010100000100001100100 L
b1111111111111111111111111111110111111110010110111011100001011110 P
1U
#210
0U
#215
b0000000000000000000000000000000100000000000000000000000000000000 (
b0000000000000000000000000000000100000000000000000000000000000000 0
b1111111111111111111111111111111010111000011010101011111111101101 6
b0000000000000000000000000000000011001000000011110010100010100000 8
b1111111111111111111111111111111111001000000011110010100010101100 :
b0000000000000000000000000000000101000110001110011100111111110011 <
b1111111111111111111111111111111111001000000011110010100010101100 >
b1111111111111111111111111111111111001000000011110010100010101100 @
b1111111111111111111111111111111111001000000011110010100010101100 B
b0000000000000000000000000000000110001101111111110000110101011000 H
b0000000000000000000000000000000100001001111010100000010101001001 J
b0000000000000000000000000000000110001101111111110000110101011000 L
b0000000000000000000000000000000100001001111010100000010101001001 N
b1111111111111111111111111111111010101110010100001011110101010010 P
1U
#220
0U
#225
b0000000000000000000000000000000000000000000000000000000000000000 &
b0000000000000000000000000000000000000000000000000000000000000000 (
0+
b0000000000000000000000000000000000000000000000000000000000000000 0
b0000000000000000000000000000000101000100011100110001010111000011 6
b0000000000000000000000000000000000110110000000100011011101001001 8
b0000000000000000000000000000000000110110000000100011011101010011 :
b1111111111111111111111111111111010101110010100001011110101010010 <
b0000000000000000000000000000000000000000000000000000000000000000 >
b0000000000000000000000000000000000000000000000000000000000000000 @
b0000000000000000000000000000000000110110000000100011011101010011 B
1U
#230
0U
#235
b0000000000000000000000000000000100000000000000000000000000000000 (
b0000000000000000000000000000000111000001011010011000101101101000 6
b0000000000000000000000000000000001101110001011001000101001110111 8
b0000000000000000000000000000000001101110001011001000101010010101 :
b1111111111111111111111111111111110111000001110101100001010011011 <
b0000000000000000000000000000000001101110001011001000101010010101 @
b0000000000000000000000000000000001101110001011001000101010010101 B
1U
#240
0U
#245
b0000000000000000000000000000000100000000000000000000000000000000 &
b0000000000000000000000000000000000000000000000000000000000000000 (
b0000000000000000000000000000001001000100000000100011001010001010 6
b0000000000000000000000000000000010001111000000100011000101100110 8
b0000000000000000000000000000000010001111000000100011000110011010 :
b0000000000000000000000000000000000111100010011111100101010101010 <
b0000000000000000000000000000000010001111000000100011000110011010 >
b0000000000000000000000000000000000000000000000000000000000000000 @
b0000000000000000000000000000000010001111000000100011000110011010 B
1U
#250
0U
#255
b0000000000000000000000000000000100000000000000000000000000000000 (
b0000000000000000000000000000000100000000000000000000000000000000 0
b1111111111111111111111111111111010111000011010101011111111101101 6
b0000000000000000000000000000000011001000000011110010100010100000 8
b1111111111111111111111111111111111001000000011110010100010101100 :
b0000000000000000000000000000000101000110001110011100111111110011 <
b1111111111111111111111111111111111001000000011110010100010101100 >
b1111111111111111111111111111111111001000000011110010100010101100 @
b1111111111111111111111111111111111001000000011110010100010101100 B
1U
#260
0U
#265
b0000000000000000000000000000000000000000000000000000000000000000 &
b0000000000000000000000000000000000000000000000000000000000000000 (
1+
b0000000000000000000000000000000000000000000000000000000000000000 0
b00000000000000000000000000000011 5
b0000000000000000000000000000000100110111011011100010010110100000 6
b0000000000000000000000000000000000101101100100000111111101001011 8
b0000000000000000000000000000000000101101100100000111111101010011 :
b1111111111111111111111111111111001111000010011101000010111111111 <
b0000000000000000000000000000000000000000000000000000000000000000 >
b0000000000000000000000000000000000000000000000000000000000000000 @
b0000000000000000000000000000000000101101100100000111111101010011 B
b1111111111111111111111111111111001111000010011101000010111111111 P
1U
#270
0U
#275
b0000000000000000000000000000000100000000000000000000000000000000 (
b0000000000000000000000000000000101001001010011110011100011100001 6
b0000000000000000000000000000000000111000111111010101011111001011 8
b0000000000000000000000000000000000111000111111010101011111010110 :
b1111111111111111111111111111111010111111111000000000011111000100 <
b0000000000000000000000000000000000111000111111010101011111010110 @
b0000000000000000000000000000000000111000111111010101011111010110 B
b0000000000000000000000000000000010101000101111011100001110000111 J
b0000000000000000000000000000000010101000101111011100001110000111 N
b1111111111111111111111111111111000010111001000100100010000111101 P
1U
#280
0U
#285
b0000000000000000000000000000000100000000000000000000000000000000 &
b0000000000000000000000000000000000000000000000000000000000000000 (
b0000000000000000000000000000000101001110101101111000001001000011 6
b0000000000000000000000000000000000111100001101000110001110011101 8
b0000000000000000000000000000000000111100001101000110001110101000 :
b1111111111111111111111111111111011010010000110000000110101000101 <
b0000000000000000000000000000000000111100001101000110001110101000 >
b0000000000000000000000000000000000000000000000000000000000000000 @
b0000000000000000000000000000000000111100001101000110001110101000 B
b0000000000000000000000000000000100100100011110100110101100110000 H
b0000000000000000000000000000000100100100011110100110101100110000 L
b1111111111111111111111111111110110101101100111011010001000010101 P
1U
#290
0U
#295
b0000000000000000000000000000000100000000000000000000000000000000 (
b0000000000000000000000000000000100000000000000000000000000000000 0
b1111111111111111111111111111111010111110011000101101110010100110 6
b0000000000000000000000000000000011001011110001011011011110111110 8
b1111111111111111111111111111111111001011110001011011011111001001 :
b0000000000000000000000000000000101011100100001000001111101010101 <
b1111111111111111111111111111111111001011110001011011011111001001 >
b1111111111111111111111111111111111001011110001011011011111001001 @
b1111111111111111111111111111111111001011110001011011011111001001 B
b0000000000000000000000000000000111000101000010011101101010110011 H
b0000000000000000000000000000000101001001010011010011001100001010 J
b0000000000000000000000000000000111000101000010011101101010110011 L
b0000000000000000000000000000000101001001010011010011001100001010 N
b1111111111111111111111111111111001001110001011010001000110011000 P
1U
#300
0U
#305
b0000000000000000000000000000000000000000000000000000000000000000 &
b0000000000000000000000000000000000000000000000000000000000000000 (
0+
b0000000000000000000000000000000000000000000000000000000000000000 0
b0000000000000000000000000000000100101111000001001110000000010010 6
b0000000000000000000000000000000000100111101110010010000100100010 8
b0000000000000000000000000000000000100111101110010010000100101000 :
b1111111111111111111111111111111001001110001011010001000110011000 <
b0000000000000000000000000000000000000000000000000000000000000000 >
b0000000000000000000000000000000000000000000000000000000000000000 @
b0000000000000000000000000000000000100111101110010010000100101000 B
1U
#310
0U
#315
b0000000000000000000000000000000100000000000000000000000000000000 (
b0000000000000000000000000000000110101010001011110110010101001000 6
b0000000000000000000000000000000001100110001110011111100010111110 8
b0000000000000000000000000000000001100110001110011111100011011000 :
b1111111111111111111111111111111110010111011110100100010010100010 <
b0000000000000000000000000000000001100110001110011111100011011000 @
b0000000000000000000000000000000001100110001110011111100011011000 B
1U
#320
0U
#325
b0000000000000000000000000000000100000000000000000000000000000000 &
b0000000000000000000000000000000000000000000000000000000000000000 (
b0000000000000000000000000000001000010011111101000011101101000110 6
b0000000000000000000000000000000010000100110011010010011101011101 8
b0000000000000000000000000000000010000100110011010010011110001010 :
b0000000000000000000000000000000000010011001101101110110001001011 <
b0000000000000000000000000000000010000100110011010010011110001010 >
b0000000000000000000000000000000000000000000000000000000000000000 @
b0000000000000000000000000000000010000100110011010010011110001010 B
1U
#330
0U
#335
b0000000000000000000000000000000100000000000000000000000000000000 (
b0000000000000000000000000000000100000000000000000000000000000000 0
b1111111111111111111111111111111010111110011000101101110010100110 6
b0000000000000000000000000000000011001011110001011011011110111110 8
b1111111111111111111111111111111111001011110001011011011111001001 :
b0000000000000000000000000000000101011100100001000001111101010101 <
b1111111111111111111111111111111111001011110001011011011111001001 >
b1111111111111111111111111111111111001011110001011011011111001001 @
b1111111111111111111111111111111111001011110001011011011111001001 B
1U
#340
0U
#345
b0000000000000000000000000000000000000000000000000000000000000000 &
b0000000000000000000000000000000000000000000000000000000000000000 (
1+
b0000000000000000000000000000000000000000000000000000000000000000 0
b00000000000000000000000000000100 5
b0000000000000000000000000000000100101000010000101101001100101010 6
b0000000000000000000000000000000000100010110010100010011111101100 8
b0000000000000000000000000000000000100010110010100010011111110010 :
b1111111111111111111111111111111000100110011100111111000001110000 <
b0000000000000000000000000000000000000000000000000000000000000000 >
b0000000000000000000000000000000000000000000000000000000000000000 @
b0000000000000000000000000000000000100010110010100010011111110010 B
b1111111111111111111111111111111000100110011100111111000001110000 P
1U
#350
0U
#355
b0000000000000000000000000000000100000000000000000000000000000000 (
b0000000000000000000000000000000101000110100010110000011001110011 6
b0000000000000000000000000000000000110111010011011011110000101111 8
b0000000000000000000000000000000000110111010011011011110000111010 :
b1111111111111111111111111111111010110110000001110001101010110110 <
b0000000000000000000000000000000000110111010011011011110000111010 @
b0000000000000000000000000000000000110111010011011011110000111010 B
b0000000000000000000000000000000011101100011100000010111010101000 J
b0000000000000000000000000000000011101100011100000010111010101000 N
b1111111111111111111111111111110111001001100101101110110000001110 P
1U
#360
0U
#365
b0000000000000000000000000000000100000000000000000000000000000000 &
b0000000000000000000000000000000000000000000000000000000000000000 (
b0000000000000000000000000000000101001011001101000001110000010010 6
b0000000000000000000000000000000000111010001000001011001010001010 8
b0000000000000000000000000000000000111010001000001011001010010101 :
b1111111111111111111111111111111011000110011001111100011001101101 <
b0000000000000000000000000000000000111010001000001011001010010101 >
b0000000000000000000000000000000000000000000000000000000000000000 @
b0000000000000000000000000000000000111010001000001011001010010101 B
b0000000000000000000000000000000101100000111011010101101010001001 H
b0000000000000000000000000000000101100000111011010101101010001001 L
b1111111111111111111111111111110101100101011110100110101111100100 P
1U
#370
0U
#375
b0000000000000000000000000000000100000000000000000000000000000000 (
b0000000000000000000000000000000100000000000000000000000000000000 0
b1111111111111111111111111111111011000010010011011100101010000000 6
b0000000000000000000000000000000011001110010010010000000010111111 8
b1111111111111111111111111111111111001110010010010000000011001001 :
b0000000000000000000000000000000101101100010001101101101101101110 <
b1111111111111111111111111111111111001110010010010000000011001001 >
b1111111111111111111111111111111111001110010010010000000011001001 @
b1111111111111111111111111111111111001110010010010000000011001001 B
b0000000000000000000000000000000111110100000100100101000111111100 H
b0000000000000000000000000000000101111111100101010010011000011011 J
b0000000000000000000000000000000111110100000100100101000111111100 L
b0000000000000000000000000000000101111111100101010010011000011011 N
b1111111111111111111111111111110111111000100111110110001101010111 P
1U
#380
0U
#385
b0000000000000000000000000000000000000000000000000000000000000000 &
b0000000000000000000000000000000000000000000000000000000000000000 (
0+
b0000000000000000000000000000000000000000000000000000000000000000 0
b0000000000000000000000000000000100100001101010010110001011000111 6
b0000000000000000000000000000000000011101101111111111010011010101 8
b0000000000000000000000000000000000011101101111111111010011011001 :
b1111111111111111111111111111110111111000100111110110001101010111 <
b0000000000000000000000000000000000000000000000000000000000000000 >
b0000000000000000000000000000000000000000000000000000000000000000 @
b0000000000000000000000000000000000011101101111111111010011011001 B
1U
#390
0U
#395
b0000000000000000000000000000000100000000000000000000000000000000 (
b0000000000000000000000000000000110010110100111011000011010010110 6
b0000000000000000000000000000000001011110110100110101011110001111 8
b0000000000000000000000000000000001011110110100110101011110100110 :
b1111111111111111111111111111111101111000001101001000100101110010 <
b0000000000000000000000000000000001011110110100110101011110100110 @
b0000000000000000000000000000000001011110110100110101011110100110 B
1U
#400
0U
#405
b0000000000000000000000000000000100000000000000000000000000000000 &
b0000000000000000000000000000000000000000000000000000000000000000 (
b0000000000000000000000000000000111101101011001110111100001110100 6
b0000000000000000000000000000000001111011001011010000001100100111 8
b0000000000000000000000000000000001111011001011010000001101001101 :
b1111111111111111111111111111111111101100101100011011010101010011 <
b0000000000000000000000000000000001111011001011010000001101001101 >
b0000000000000000000000000000000000000000000000000000000000000000 @
b0000000000000000000000000000000001111011001011010000001101001101 B
1U
#410
0U
#415
b0000000000000000000000000000000100000000000000000000000000000000 (
b0000000000000000000000000000000100000000000000000000000000000000 0
b1111111111111111111111111111111011000010010011011100101010000000 6
b0000000000000000000000000000000011001110010010010000000010111111 8
b1111111111111111111111111111111111001110010010010000000011001001 :
b0000000000000000000000000000000101101100010001101101101101101110 <
b1111111111111111111111111111111111001110010010010000000011001001 >
b1111111111111111111111111111111111001110010010010000000011001001 @
b1111111111111111111111111111111111001110010010010000000011001001 B
1U
#420
0U
#425
b0000000000000000000000000000000000000000000000000000000000000000 &
b0000000000000000000000000000000000000000000000000000000000000000 (
1+
b0000000000000000000000000000000000000000000000000000000000000000 0
b00000000000000000000000000000101 5
b0000000000000000000000000000000100011101111101111111010010001100 6
b0000000000000000000000000000000000011010110100111111010101101110 8
b0000000000000000000000000000000000011010110100111111010101110010 :
b1111111111111111111111111111110111011010110111110110111001111110 <
b0000000000000000000000000000000000000000000000000000000000000000 >
b0000000000000000000000000000000000000000000000000000000000000000 @
b0000000000000000000000000000000000011010110100111111010101110010 B
b1111111111111111111111111111110111011010110111110110111001111110 P
1U
#430
0U
#435
b0000000000000000000000000000000100000000000000000000000000000000 (
b0000000000000000000000000000000101000011011011010001100011001000 6
b0000000000000000000000000000000000110101010111101001100001000111 8
b0000000000000000000000000000000000110101010111101001100001010001 :
b1111111111111111111111111111111010101010011101011000001010010001 <
b0000000000000000000000000000000000110101010111101001100001010001 @
b0000000000000000000000000000000000110101010111101001100001010001 B
b0000000000000000000000000000000100100111100101011001110100010111 J
b0000000000000000000000000000000100100111100101011001110100010111 N
b1111111111111111111111111111110110000010110111111110010101111010 P
1U
#440
0U
#445
b0000000000000000000000000000000100000000000000000000000000000000 &
b0000000000000000000000000000000000000000000000000000000000000000 (
b0000000000000000000000000000000101000111100111001111011101111110 6
b0000000000000000000000000000000000110111111101011000110101011001 8
b0000000000000000000000000000000000110111111101011000110101100011 :
b1111111111111111111111111111111010111001111000011100010101000000 <
b0000000000000000000000000000000000110111111101011000110101100011 >
b0000000000000000000000000000000000000000000000000000000000000000 @
b0000000000000000000000000000000000110111111101011000110101100011 B
b0000000000000000000000000000000110010101100010100001100011100001 H
b0000000000000000000000000000000110010101100010100001100011100001 L
b1111111111111111111111111111110100100100010101111010110001011111 P
1U
#450
0U
